2017/04/24 10:46:28	Program Started
2017/04/24 10:46:51	Setpoint Updated		Setpoint: 454.970000, Actual: 454.961920
2017/04/24 10:46:52	Setpoint Updated		Setpoint: 454.980000, Actual: 454.961921
2017/04/24 10:46:52	Setpoint Updated		Setpoint: 454.990000, Actual: 454.961921
2017/04/24 10:46:52	Setpoint Updated		Setpoint: 455.000000, Actual: 454.961921
2017/04/24 10:46:55	Setpoint Updated		Setpoint: 455.000000, Actual: 454.961924
2017/04/24 10:47:07	AutoLock Mode On		Setpoint: 455.000000, Actual: 454.961922
2017/04/24 10:47:07	Piezos Reset			Setpoint: 455.000000, Actual: 454.961922
2017/04/24 10:47:07	Tuning BiFi				Setpoint: 455.000000, Actual: 454.961922
2017/04/24 10:47:07	Low Power Reported		Setpoint: 455.000000, Actual: NaN
2017/04/24 10:47:13	Bifi Motor: 260050, Wavelength: 455.045884	Setpoint: 455.000000, Actual: 454.962364
2017/04/24 10:47:13	Tuning Thin Etalon		Setpoint: 455.000000, Actual: 454.962364
2017/04/24 10:47:18	Low Power Reported		Setpoint: 455.000000, Actual: NaN
2017/04/24 10:47:18	Thin Etalon Motor: 9480, Wavelength: 455.036428, Flank:Left	Setpoint: 455.000000, Actual: NaN
2017/04/24 10:47:18	Tuning Piezo Etalon	Setpoint: 455.000000, Actual: NaN
2017/04/24 10:47:18	Low Power Reported		Setpoint: 455.000000, Actual: NaN
2017/04/24 10:47:21	Piezos Reset			Setpoint: 455.000000, Actual: 455.049331
2017/04/24 10:47:21	Tuning BiFi				Setpoint: 455.000000, Actual: 455.049331
2017/04/24 10:47:21	Low Power Reported		Setpoint: 455.000000, Actual: NaN
2017/04/24 10:47:24	AutoLock Mode Off		Setpoint: 455.000000, Actual: 454.875642
