2019/09/12 11:56:29	Program Started
2019/09/12 11:56:30	Wavemeter Comms. Error	Setpoint: 846.230700, Actual: 846.230710
2019/09/12 11:56:30	AutoLock Mode Off		Setpoint: 846.230700, Actual: 846.230710
2019/09/12 11:56:42	Program Exited			Setpoint: 846.230700, Actual: 846.230714
