2019/09/12 11:53:48	Program Started
2019/09/12 11:53:49	Wavemeter Comms. Error	Setpoint: 846.230700, Actual: 846.230836
2019/09/12 11:53:49	AutoLock Mode Off		Setpoint: 846.230700, Actual: 846.230836
2019/09/12 11:54:04	Program Exited			Setpoint: 846.230700, Actual: 846.230773
