2019/09/12 14:52:26	Program Started
2019/09/12 14:52:27	Wavemeter Comms. Error	Setpoint: 846.228074, Actual: 846.227830
2019/09/12 14:52:27	AutoLock Mode Off		Setpoint: 846.228074, Actual: 846.227830
2019/09/12 14:53:16	Program Exited			Setpoint: 846.228074, Actual: 846.228074
