2019/09/12 11:51:12	Program Started
2019/09/12 11:51:13	Wavemeter Comms. Error	Setpoint: 846.230700, Actual: 846.230808
2019/09/12 11:51:13	AutoLock Mode Off		Setpoint: 846.230700, Actual: 846.230808
2019/09/12 11:51:36	Program Exited			Setpoint: 846.230700, Actual: 846.230812
