2019/09/12 11:23:35	Program Started
2019/09/12 11:23:37	Wavemeter Comms. Error	Setpoint: 846.230500, Actual: 846.185931
2019/09/12 11:23:37	AutoLock Mode Off		Setpoint: 846.230500, Actual: 846.185931
2019/09/12 11:23:45	Program Exited			Setpoint: 846.230500, Actual: 846.185934
