2020/09/23 17:05:17	Program Started
2020/09/23 17:05:21	AutoLock Mode On		Setpoint: 846.324058, Actual: 846.324065
2020/09/23 17:05:21	Tuning Piezo Etalon	Setpoint: 846.324058, Actual: 846.324064
2020/09/23 17:06:25	Program Exited			Setpoint: 846.324058, Actual: 846.324060
