2020/09/24 11:14:34	Program Started
2020/09/24 11:14:44	AutoLock Mode On		Setpoint: 846.323714, Actual: 846.367536
2020/09/24 11:14:44	Piezos Reset			Setpoint: 846.323714, Actual: 846.367536
2020/09/24 11:14:45	Tuning BiFi				Setpoint: 846.323714, Actual: 846.385979
2020/09/24 11:14:45	Tuning BiFi				Setpoint: 846.323714, Actual: 847.840265
2020/09/24 11:14:45	Tuning BiFi				Setpoint: 846.323714, Actual: 847.839935
2020/09/24 11:14:45	Tuning BiFi				Setpoint: 846.323714, Actual: 847.839936
2020/09/24 11:14:45	Tuning BiFi				Setpoint: 846.323714, Actual: 847.839926
2020/09/24 11:14:45	Tuning BiFi				Setpoint: 846.323714, Actual: 847.877806
2020/09/24 11:14:45	Tuning BiFi				Setpoint: 846.323714, Actual: 847.354792
2020/09/24 11:14:45	Tuning BiFi				Setpoint: 846.323714, Actual: 847.354793
2020/09/24 11:14:45	Tuning BiFi				Setpoint: 846.323714, Actual: 847.354801
2020/09/24 11:14:46	Tuning BiFi				Setpoint: 846.323714, Actual: 847.354806
2020/09/24 11:14:46	Tuning BiFi				Setpoint: 846.323714, Actual: 847.354831
2020/09/24 11:14:46	Tuning BiFi				Setpoint: 846.323714, Actual: 847.354851
2020/09/24 11:14:46	Tuning BiFi				Setpoint: 846.323714, Actual: 847.354848
2020/09/24 11:14:46	Tuning BiFi				Setpoint: 846.323714, Actual: 847.354847
2020/09/24 11:14:46	Tuning BiFi				Setpoint: 846.323714, Actual: 847.354869
2020/09/24 11:14:46	Tuning BiFi				Setpoint: 846.323714, Actual: 847.354852
2020/09/24 11:14:46	Tuning BiFi				Setpoint: 846.323714, Actual: 847.354879
2020/09/24 11:14:46	Tuning BiFi				Setpoint: 846.323714, Actual: 847.354862
2020/09/24 11:14:46	Tuning BiFi				Setpoint: 846.323714, Actual: 846.870319
2020/09/24 11:14:46	Tuning BiFi				Setpoint: 846.323714, Actual: 846.870336
2020/09/24 11:14:46	Tuning BiFi				Setpoint: 846.323714, Actual: 846.870326
2020/09/24 11:14:46	Tuning BiFi				Setpoint: 846.323714, Actual: 846.870343
2020/09/24 11:14:46	Tuning BiFi				Setpoint: 846.323714, Actual: 846.870345
2020/09/24 11:14:46	Tuning BiFi				Setpoint: 846.323714, Actual: 846.870348
2020/09/24 11:14:46	Tuning BiFi				Setpoint: 846.323714, Actual: 846.870359
2020/09/24 11:14:46	Tuning BiFi				Setpoint: 846.323714, Actual: 846.870364
2020/09/24 11:14:46	Tuning BiFi				Setpoint: 846.323714, Actual: 846.870382
2020/09/24 11:14:46	Tuning BiFi				Setpoint: 846.323714, Actual: 846.870383
2020/09/24 11:14:46	Tuning BiFi				Setpoint: 846.323714, Actual: 846.870377
2020/09/24 11:14:47	Tuning BiFi				Setpoint: 846.323714, Actual: 846.870374
2020/09/24 11:14:47	Tuning BiFi				Setpoint: 846.323714, Actual: 846.869253
2020/09/24 11:14:47	Tuning BiFi				Setpoint: 846.323714, Actual: 846.386377
2020/09/24 11:14:47	Tuning BiFi				Setpoint: 846.323714, Actual: 846.386380
2020/09/24 11:14:47	Tuning BiFi				Setpoint: 846.323714, Actual: 846.386376
2020/09/24 11:14:47	Tuning BiFi				Setpoint: 846.323714, Actual: 846.386368
2020/09/24 11:14:47	Tuning BiFi				Setpoint: 846.323714, Actual: 846.386398
2020/09/24 11:14:47	Tuning BiFi				Setpoint: 846.323714, Actual: 846.386385
2020/09/24 11:14:47	Tuning BiFi				Setpoint: 846.323714, Actual: 846.386373
2020/09/24 11:14:47	Tuning BiFi				Setpoint: 846.323714, Actual: 846.386404
2020/09/24 11:14:47	Tuning BiFi				Setpoint: 846.323714, Actual: 846.386383
2020/09/24 11:14:47	Tuning BiFi				Setpoint: 846.323714, Actual: 846.386383
2020/09/24 11:14:47	Tuning BiFi				Setpoint: 846.323714, Actual: 846.386413
2020/09/24 11:14:47	Tuning BiFi				Setpoint: 846.323714, Actual: 846.386402
2020/09/24 11:14:47	Tuning BiFi				Setpoint: 846.323714, Actual: 846.386400
2020/09/24 11:14:47	Tuning BiFi				Setpoint: 846.323714, Actual: 846.386413
2020/09/24 11:14:47	Tuning BiFi				Setpoint: 846.323714, Actual: 846.386415
2020/09/24 11:14:47	Tuning BiFi				Setpoint: 846.323714, Actual: 845.902961
2020/09/24 11:14:47	Tuning BiFi				Setpoint: 846.323714, Actual: 845.902961
2020/09/24 11:14:47	Tuning BiFi				Setpoint: 846.323714, Actual: 845.902972
2020/09/24 11:14:48	Tuning BiFi				Setpoint: 846.323714, Actual: 845.902993
2020/09/24 11:14:48	Tuning BiFi				Setpoint: 846.323714, Actual: 845.902989
2020/09/24 11:14:48	Tuning BiFi				Setpoint: 846.323714, Actual: 845.902978
2020/09/24 11:14:48	Tuning BiFi				Setpoint: 846.323714, Actual: 845.902991
2020/09/24 11:14:48	Tuning BiFi				Setpoint: 846.323714, Actual: 845.903004
2020/09/24 11:14:48	Tuning BiFi				Setpoint: 846.323714, Actual: 845.902995
2020/09/24 11:14:48	Tuning BiFi				Setpoint: 846.323714, Actual: 845.903005
2020/09/24 11:14:48	Tuning BiFi				Setpoint: 846.323714, Actual: 845.902974
2020/09/24 11:14:48	Tuning BiFi				Setpoint: 846.323714, Actual: 845.903001
2020/09/24 11:14:48	Tuning BiFi				Setpoint: 846.323714, Actual: 845.903016
2020/09/24 11:14:48	Tuning BiFi				Setpoint: 846.323714, Actual: 845.901870
2020/09/24 11:14:48	Tuning BiFi				Setpoint: 846.323714, Actual: 845.420109
2020/09/24 11:14:48	Tuning BiFi				Setpoint: 846.323714, Actual: 845.420101
2020/09/24 11:14:48	Tuning BiFi				Setpoint: 846.323714, Actual: 845.420116
2020/09/24 11:14:48	Tuning BiFi				Setpoint: 846.323714, Actual: 845.420126
2020/09/24 11:14:48	Tuning BiFi				Setpoint: 846.323714, Actual: 845.420121
2020/09/24 11:14:48	Tuning BiFi				Setpoint: 846.323714, Actual: 845.420132
2020/09/24 11:14:48	Tuning BiFi				Setpoint: 846.323714, Actual: 845.420102
2020/09/24 11:14:48	Tuning BiFi				Setpoint: 846.323714, Actual: 845.420119
2020/09/24 11:14:48	Tuning BiFi				Setpoint: 846.323714, Actual: 845.420150
2020/09/24 11:14:49	Tuning BiFi				Setpoint: 846.323714, Actual: 845.420118
2020/09/24 11:14:49	Tuning BiFi				Setpoint: 846.323714, Actual: 845.420149
2020/09/24 11:14:49	Tuning BiFi				Setpoint: 846.323714, Actual: 845.420146
2020/09/24 11:14:49	Tuning BiFi				Setpoint: 846.323714, Actual: 845.420128
2020/09/24 11:14:49	Tuning BiFi				Setpoint: 846.323714, Actual: 845.420160
2020/09/24 11:14:49	Tuning BiFi				Setpoint: 846.323714, Actual: 845.420129
2020/09/24 11:14:49	Tuning BiFi				Setpoint: 846.323714, Actual: 844.893986
2020/09/24 11:14:49	Tuning BiFi				Setpoint: 846.323714, Actual: 844.893951
2020/09/24 11:14:49	Tuning BiFi				Setpoint: 846.323714, Actual: 844.893978
2020/09/24 11:14:49	Tuning BiFi				Setpoint: 846.323714, Actual: 844.893964
2020/09/24 11:14:49	Tuning BiFi				Setpoint: 846.323714, Actual: 844.893998
2020/09/24 11:14:49	Tuning BiFi				Setpoint: 846.323714, Actual: 844.893980
2020/09/24 11:14:50	Bifi Motor: 134775, Wavelength: 846.386393	Setpoint: 846.323714, Actual: 846.386596
2020/09/24 11:14:50	Tuning Thin Etalon		Setpoint: 846.323714, Actual: 846.386587
2020/09/24 11:14:50	Tuning Thin Etalon		Setpoint: 846.323714, Actual: 846.694458
2020/09/24 11:14:50	Tuning Thin Etalon		Setpoint: 846.323714, Actual: 846.694489
2020/09/24 11:14:50	Tuning Thin Etalon		Setpoint: 846.323714, Actual: 846.694478
2020/09/24 11:14:50	Tuning Thin Etalon		Setpoint: 846.323714, Actual: 846.694463
2020/09/24 11:14:50	Tuning Thin Etalon		Setpoint: 846.323714, Actual: 846.694473
2020/09/24 11:14:50	Tuning Thin Etalon		Setpoint: 846.323714, Actual: 846.694489
2020/09/24 11:14:51	Tuning Thin Etalon		Setpoint: 846.323714, Actual: 846.694499
2020/09/24 11:14:51	Tuning Thin Etalon		Setpoint: 846.323714, Actual: 846.694511
2020/09/24 11:14:51	Tuning Thin Etalon		Setpoint: 846.323714, Actual: 846.694515
2020/09/24 11:14:51	Tuning Thin Etalon		Setpoint: 846.323714, Actual: 846.694506
2020/09/24 11:14:51	Tuning Thin Etalon		Setpoint: 846.323714, Actual: 846.694508
2020/09/24 11:14:51	Tuning Thin Etalon		Setpoint: 846.323714, Actual: 846.694478
2020/09/24 11:14:51	Tuning Thin Etalon		Setpoint: 846.323714, Actual: 846.694487
2020/09/24 11:14:51	Tuning Thin Etalon		Setpoint: 846.323714, Actual: 846.694517
2020/09/24 11:14:51	Tuning Thin Etalon		Setpoint: 846.323714, Actual: 846.694531
2020/09/24 11:14:51	Tuning Thin Etalon		Setpoint: 846.323714, Actual: 846.694547
2020/09/24 11:14:51	Tuning Thin Etalon		Setpoint: 846.323714, Actual: 846.694531
2020/09/24 11:14:51	Tuning Thin Etalon		Setpoint: 846.323714, Actual: 846.693384
2020/09/24 11:14:52	Tuning Thin Etalon		Setpoint: 846.323714, Actual: 846.210770
2020/09/24 11:14:52	Tuning Thin Etalon		Setpoint: 846.323714, Actual: 846.254713
2020/09/24 11:14:52	Tuning Thin Etalon		Setpoint: 846.323714, Actual: 846.254757
2020/09/24 11:14:52	Tuning Thin Etalon		Setpoint: 846.323714, Actual: 846.254770
2020/09/24 11:14:52	Tuning Thin Etalon		Setpoint: 846.323714, Actual: 846.254767
2020/09/24 11:14:52	Tuning Thin Etalon		Setpoint: 846.323714, Actual: 846.254768
2020/09/24 11:14:52	Tuning Thin Etalon		Setpoint: 846.323714, Actual: 846.254768
2020/09/24 11:14:52	Tuning Thin Etalon		Setpoint: 846.323714, Actual: 846.254770
2020/09/24 11:14:52	Tuning Thin Etalon		Setpoint: 846.323714, Actual: 846.254775
2020/09/24 11:14:52	Tuning Thin Etalon		Setpoint: 846.323714, Actual: 846.254768
2020/09/24 11:14:52	Tuning Thin Etalon		Setpoint: 846.323714, Actual: 846.254778
2020/09/24 11:14:52	Tuning Thin Etalon		Setpoint: 846.323714, Actual: 846.254801
2020/09/24 11:14:52	Tuning Thin Etalon		Setpoint: 846.323714, Actual: 846.254789
2020/09/24 11:14:53	Tuning Thin Etalon		Setpoint: 846.323714, Actual: 846.254819
2020/09/24 11:14:53	Tuning Thin Etalon		Setpoint: 846.323714, Actual: 846.254869
2020/09/24 11:14:53	Tuning Thin Etalon		Setpoint: 846.323714, Actual: 846.254887
2020/09/24 11:14:53	Tuning Thin Etalon		Setpoint: 846.323714, Actual: 846.254888
2020/09/24 11:14:53	Tuning Thin Etalon		Setpoint: 846.323714, Actual: 846.254859
2020/09/24 11:14:53	Tuning Thin Etalon		Setpoint: 846.323714, Actual: 846.254864
2020/09/24 11:14:53	Tuning Thin Etalon		Setpoint: 846.323714, Actual: 846.254838
2020/09/24 11:14:53	Tuning Thin Etalon		Setpoint: 846.323714, Actual: 846.254849
2020/09/24 11:14:53	Tuning Thin Etalon		Setpoint: 846.323714, Actual: 846.298753
2020/09/24 11:14:53	Tuning Thin Etalon		Setpoint: 846.323714, Actual: 846.298762
2020/09/24 11:14:53	Tuning Thin Etalon		Setpoint: 846.323714, Actual: 846.298763
2020/09/24 11:14:53	Tuning Thin Etalon		Setpoint: 846.323714, Actual: 846.298764
2020/09/24 11:14:54	Tuning Thin Etalon		Setpoint: 846.323714, Actual: 846.298763
2020/09/24 11:14:54	Tuning Thin Etalon		Setpoint: 846.323714, Actual: 846.298769
2020/09/24 11:14:54	Tuning Thin Etalon		Setpoint: 846.323714, Actual: 846.298768
2020/09/24 11:14:54	Tuning Thin Etalon		Setpoint: 846.323714, Actual: 846.298771
2020/09/24 11:14:54	Tuning Thin Etalon		Setpoint: 846.323714, Actual: 846.298768
2020/09/24 11:14:54	Tuning Thin Etalon		Setpoint: 846.323714, Actual: 846.298772
2020/09/24 11:14:54	Tuning Thin Etalon		Setpoint: 846.323714, Actual: 846.298761
2020/09/24 11:14:54	Tuning Thin Etalon		Setpoint: 846.323714, Actual: 846.298764
2020/09/24 11:14:54	Tuning Thin Etalon		Setpoint: 846.323714, Actual: 846.298763
2020/09/24 11:14:54	Tuning Thin Etalon		Setpoint: 846.323714, Actual: 846.298762
2020/09/24 11:14:54	Tuning Thin Etalon		Setpoint: 846.323714, Actual: 846.298773
2020/09/24 11:14:54	Tuning Thin Etalon		Setpoint: 846.323714, Actual: 846.298773
2020/09/24 11:14:54	Tuning Thin Etalon		Setpoint: 846.323714, Actual: 846.298769
2020/09/24 11:14:55	Tuning Thin Etalon		Setpoint: 846.323714, Actual: 846.298778
2020/09/24 11:14:55	Tuning Thin Etalon		Setpoint: 846.323714, Actual: 846.298771
2020/09/24 11:14:55	Tuning Thin Etalon		Setpoint: 846.323714, Actual: 846.342793
2020/09/24 11:14:55	Tuning Thin Etalon		Setpoint: 846.323714, Actual: 846.342812
2020/09/24 11:14:55	Tuning Thin Etalon		Setpoint: 846.323714, Actual: 846.342797
2020/09/24 11:14:55	Tuning Thin Etalon		Setpoint: 846.323714, Actual: 846.342872
2020/09/24 11:14:55	Tuning Thin Etalon		Setpoint: 846.323714, Actual: 846.342868
2020/09/24 11:14:55	Tuning Thin Etalon		Setpoint: 846.323714, Actual: 846.342883
2020/09/24 11:14:55	Tuning Thin Etalon		Setpoint: 846.323714, Actual: 846.342863
2020/09/24 11:14:55	Tuning Thin Etalon		Setpoint: 846.323714, Actual: 846.342895
2020/09/24 11:14:55	Tuning Thin Etalon		Setpoint: 846.323714, Actual: 846.342914
2020/09/24 11:14:55	Tuning Thin Etalon		Setpoint: 846.323714, Actual: 846.342875
2020/09/24 11:14:56	Tuning Thin Etalon		Setpoint: 846.323714, Actual: 846.342873
2020/09/24 11:14:56	Tuning Thin Etalon		Setpoint: 846.323714, Actual: 846.342828
2020/09/24 11:14:56	Tuning Thin Etalon		Setpoint: 846.323714, Actual: 846.342867
2020/09/24 11:14:56	Tuning Thin Etalon		Setpoint: 846.323714, Actual: 846.342870
2020/09/24 11:14:56	Tuning Thin Etalon		Setpoint: 846.323714, Actual: 846.342954
2020/09/24 11:14:56	Tuning Thin Etalon		Setpoint: 846.323714, Actual: 846.342952
2020/09/24 11:14:56	Tuning Thin Etalon		Setpoint: 846.323714, Actual: 846.342959
2020/09/24 11:14:56	Tuning Thin Etalon		Setpoint: 846.323714, Actual: 846.386790
2020/09/24 11:14:56	Tuning Thin Etalon		Setpoint: 846.323714, Actual: 846.386789
2020/09/24 11:14:56	Tuning Thin Etalon		Setpoint: 846.323714, Actual: 846.386790
2020/09/24 11:14:56	Tuning Thin Etalon		Setpoint: 846.323714, Actual: 846.386791
2020/09/24 11:14:56	Tuning Thin Etalon		Setpoint: 846.323714, Actual: 846.386803
2020/09/24 11:14:56	Tuning Thin Etalon		Setpoint: 846.323714, Actual: 846.386798
2020/09/24 11:14:57	Tuning Thin Etalon		Setpoint: 846.323714, Actual: 846.386798
2020/09/24 11:14:57	Tuning Thin Etalon		Setpoint: 846.323714, Actual: 846.386795
2020/09/24 11:14:57	Tuning Thin Etalon		Setpoint: 846.323714, Actual: 846.386795
2020/09/24 11:14:57	Tuning Thin Etalon		Setpoint: 846.323714, Actual: 846.386796
2020/09/24 11:14:57	Tuning Thin Etalon		Setpoint: 846.323714, Actual: 846.386803
2020/09/24 11:14:57	Tuning Thin Etalon		Setpoint: 846.323714, Actual: 846.386807
2020/09/24 11:14:57	Tuning Thin Etalon		Setpoint: 846.323714, Actual: 846.386803
2020/09/24 11:14:57	Tuning Thin Etalon		Setpoint: 846.323714, Actual: 846.386802
2020/09/24 11:14:57	Tuning Thin Etalon		Setpoint: 846.323714, Actual: 846.386813
2020/09/24 11:14:57	Tuning Thin Etalon		Setpoint: 846.323714, Actual: 846.386793
2020/09/24 11:14:57	Tuning Thin Etalon		Setpoint: 846.323714, Actual: 846.386797
2020/09/24 11:14:57	Tuning Thin Etalon		Setpoint: 846.323714, Actual: 846.386799
2020/09/24 11:14:58	Tuning Thin Etalon		Setpoint: 846.323714, Actual: 846.386805
2020/09/24 11:14:58	Tuning Thin Etalon		Setpoint: 846.323714, Actual: 846.386804
2020/09/24 11:14:58	Tuning Thin Etalon		Setpoint: 846.323714, Actual: 846.386809
2020/09/24 11:14:58	Tuning Thin Etalon		Setpoint: 846.323714, Actual: 846.386817
2020/09/24 11:14:58	Tuning Thin Etalon		Setpoint: 846.323714, Actual: 846.430786
2020/09/24 11:14:58	Tuning Thin Etalon		Setpoint: 846.323714, Actual: 846.430835
2020/09/24 11:14:58	Tuning Thin Etalon		Setpoint: 846.323714, Actual: 846.430845
2020/09/24 11:14:58	Tuning Thin Etalon		Setpoint: 846.323714, Actual: 846.430846
2020/09/24 11:14:58	Tuning Thin Etalon		Setpoint: 846.323714, Actual: 846.430908
2020/09/24 11:14:58	Tuning Thin Etalon		Setpoint: 846.323714, Actual: 846.430909
2020/09/24 11:14:58	Tuning Thin Etalon		Setpoint: 846.323714, Actual: 846.430911
2020/09/24 11:14:58	Tuning Thin Etalon		Setpoint: 846.323714, Actual: 846.430923
2020/09/24 11:14:58	Tuning Thin Etalon		Setpoint: 846.323714, Actual: 846.430935
2020/09/24 11:14:59	Tuning Thin Etalon		Setpoint: 846.323714, Actual: 846.430918
2020/09/24 11:14:59	Tuning Thin Etalon		Setpoint: 846.323714, Actual: 846.430898
2020/09/24 11:14:59	Tuning Thin Etalon		Setpoint: 846.323714, Actual: 846.430882
2020/09/24 11:14:59	Tuning Thin Etalon		Setpoint: 846.323714, Actual: 846.430858
2020/09/24 11:14:59	Tuning Thin Etalon		Setpoint: 846.323714, Actual: 846.430878
2020/09/24 11:14:59	Tuning Thin Etalon		Setpoint: 846.323714, Actual: 846.430970
2020/09/24 11:14:59	Tuning Thin Etalon		Setpoint: 846.323714, Actual: 846.430968
2020/09/24 11:14:59	Tuning Thin Etalon		Setpoint: 846.323714, Actual: 846.430977
2020/09/24 11:14:59	Tuning Thin Etalon		Setpoint: 846.323714, Actual: 846.430952
2020/09/24 11:14:59	Tuning Thin Etalon		Setpoint: 846.323714, Actual: 846.474821
2020/09/24 11:14:59	Tuning Thin Etalon		Setpoint: 846.323714, Actual: 846.474827
2020/09/24 11:14:59	Tuning Thin Etalon		Setpoint: 846.323714, Actual: 846.474829
2020/09/24 11:15:00	Tuning Thin Etalon		Setpoint: 846.323714, Actual: 846.474835
2020/09/24 11:15:00	Tuning Thin Etalon		Setpoint: 846.323714, Actual: 846.474826
2020/09/24 11:15:00	Thin Etalon Motor: 11150, Wavelength: 846.342867, Flank:Right	Setpoint: 846.323714, Actual: 846.342979
2020/09/24 11:15:00	Tuning Piezo Etalon	Setpoint: 846.323714, Actual: 846.342979
2020/09/24 11:15:16	Program Exited			Setpoint: 846.323714, Actual: 846.323714
