2020/09/23 17:15:46	Program Started
2020/09/23 17:16:16	AutoLock Mode On		Setpoint: 846.324087, Actual: 846.324091
2020/09/23 17:16:16	Tuning Piezo Etalon	Setpoint: 846.324087, Actual: 846.324091
2020/09/23 17:16:30	Program Exited			Setpoint: 846.324104, Actual: 846.324103
