2020/09/25 10:31:11	Program Started
2020/09/25 10:31:14	AutoLock Mode On		Setpoint: 846.325062, Actual: 846.325100
2020/09/25 10:31:14	Tuning Piezo Etalon	Setpoint: 846.325062, Actual: 846.325099
2020/09/25 10:31:21	Setpoint Updated		Setpoint: 846.322673, Actual: 846.325061
2020/09/25 10:31:24	Setpoint Updated		Setpoint: 846.325062, Actual: 846.322668
2020/09/25 10:31:27	Setpoint Updated		Setpoint: 846.322673, Actual: 846.325066
2020/09/25 10:31:28	Setpoint Updated		Setpoint: 846.325062, Actual: 846.323943
2020/09/25 10:31:29	Setpoint Updated		Setpoint: 846.325062, Actual: 846.324491
2020/09/25 10:31:31	Setpoint Updated		Setpoint: 846.325062, Actual: 846.322671
2020/09/25 10:31:50	Setpoint Updated		Setpoint: 846.325062, Actual: 846.325062
2020/09/25 10:31:50	Mode Hop Occurred		Setpoint: 846.301170, Actual: 846.325060
2020/09/25 10:31:50	Piezos Reset			Setpoint: 846.301170, Actual: 846.325000
2020/09/25 10:31:50	Setpoint Updated		Setpoint: 846.325062, Actual: 846.317281
2020/09/25 10:31:51	Tuning BiFi				Setpoint: 846.325062, Actual: 846.316957
2020/09/25 10:31:51	Tuning BiFi				Setpoint: 846.325062, Actual: 847.770310
2020/09/25 10:31:51	Tuning BiFi				Setpoint: 846.325062, Actual: 847.770265
2020/09/25 10:31:51	Tuning BiFi				Setpoint: 846.325062, Actual: 847.770236
2020/09/25 10:31:51	Tuning BiFi				Setpoint: 846.325062, Actual: 847.770236
2020/09/25 10:31:51	Tuning BiFi				Setpoint: 846.325062, Actual: 847.770221
2020/09/25 10:31:52	Tuning BiFi				Setpoint: 846.325062, Actual: 847.770237
2020/09/25 10:31:52	Tuning BiFi				Setpoint: 846.325062, Actual: 847.770266
2020/09/25 10:31:52	Tuning BiFi				Setpoint: 846.325062, Actual: 847.770279
2020/09/25 10:31:52	Tuning BiFi				Setpoint: 846.325062, Actual: 847.770279
2020/09/25 10:31:52	Tuning BiFi				Setpoint: 846.325062, Actual: 847.329290
2020/09/25 10:31:52	Tuning BiFi				Setpoint: 846.325062, Actual: 847.329268
2020/09/25 10:31:52	Tuning BiFi				Setpoint: 846.325062, Actual: 847.329251
2020/09/25 10:31:52	Tuning BiFi				Setpoint: 846.325062, Actual: 847.329246
2020/09/25 10:31:52	Tuning BiFi				Setpoint: 846.325062, Actual: 847.329260
2020/09/25 10:31:52	Tuning BiFi				Setpoint: 846.325062, Actual: 847.329260
2020/09/25 10:31:52	Tuning BiFi				Setpoint: 846.325062, Actual: 847.329206
2020/09/25 10:31:52	Tuning BiFi				Setpoint: 846.325062, Actual: 847.329220
2020/09/25 10:31:52	Tuning BiFi				Setpoint: 846.325062, Actual: 847.079024
2020/09/25 10:31:52	Tuning BiFi				Setpoint: 846.325062, Actual: 846.800673
2020/09/25 10:31:52	Tuning BiFi				Setpoint: 846.325062, Actual: 846.800673
2020/09/25 10:31:52	Tuning BiFi				Setpoint: 846.325062, Actual: 846.800691
2020/09/25 10:31:52	Tuning BiFi				Setpoint: 846.325062, Actual: 846.800649
2020/09/25 10:31:52	Tuning BiFi				Setpoint: 846.325062, Actual: 846.800696
2020/09/25 10:31:52	Tuning BiFi				Setpoint: 846.325062, Actual: 846.800680
2020/09/25 10:31:52	Tuning BiFi				Setpoint: 846.325062, Actual: 846.800680
2020/09/25 10:31:53	Tuning BiFi				Setpoint: 846.325062, Actual: 846.800625
2020/09/25 10:31:53	Tuning BiFi				Setpoint: 846.325062, Actual: 846.800643
2020/09/25 10:31:53	Tuning BiFi				Setpoint: 846.325062, Actual: 846.800646
2020/09/25 10:31:53	Tuning BiFi				Setpoint: 846.325062, Actual: 846.800664
2020/09/25 10:31:53	Tuning BiFi				Setpoint: 846.325062, Actual: 846.800664
2020/09/25 10:31:53	Tuning BiFi				Setpoint: 846.325062, Actual: 846.800624
2020/09/25 10:31:53	Tuning BiFi				Setpoint: 846.325062, Actual: 846.800677
2020/09/25 10:31:53	Tuning BiFi				Setpoint: 846.325062, Actual: 846.800606
2020/09/25 10:31:53	Tuning BiFi				Setpoint: 846.325062, Actual: 846.800608
2020/09/25 10:31:53	Tuning BiFi				Setpoint: 846.325062, Actual: 846.800608
2020/09/25 10:31:53	Tuning BiFi				Setpoint: 846.325062, Actual: 846.800632
2020/09/25 10:31:53	Tuning BiFi				Setpoint: 846.325062, Actual: 846.800676
2020/09/25 10:31:53	Tuning BiFi				Setpoint: 846.325062, Actual: 846.316677
2020/09/25 10:31:53	Tuning BiFi				Setpoint: 846.325062, Actual: 846.316685
2020/09/25 10:31:53	Tuning BiFi				Setpoint: 846.325062, Actual: 846.316685
2020/09/25 10:31:53	Tuning BiFi				Setpoint: 846.325062, Actual: 846.316615
2020/09/25 10:31:53	Tuning BiFi				Setpoint: 846.325062, Actual: 846.316663
2020/09/25 10:31:53	Tuning BiFi				Setpoint: 846.325062, Actual: 846.316660
2020/09/25 10:31:53	Tuning BiFi				Setpoint: 846.325062, Actual: 846.316704
2020/09/25 10:31:53	Tuning BiFi				Setpoint: 846.325062, Actual: 846.316704
2020/09/25 10:31:54	Tuning BiFi				Setpoint: 846.325062, Actual: 845.833258
2020/09/25 10:31:54	Tuning BiFi				Setpoint: 846.325062, Actual: 845.833256
2020/09/25 10:31:54	Tuning BiFi				Setpoint: 846.325062, Actual: 845.833253
2020/09/25 10:31:54	Tuning BiFi				Setpoint: 846.325062, Actual: 845.833272
2020/09/25 10:31:54	Tuning BiFi				Setpoint: 846.325062, Actual: 845.833272
2020/09/25 10:31:54	Tuning BiFi				Setpoint: 846.325062, Actual: 845.833242
2020/09/25 10:31:54	Tuning BiFi				Setpoint: 846.325062, Actual: 845.833291
2020/09/25 10:31:54	Tuning BiFi				Setpoint: 846.325062, Actual: 845.833281
2020/09/25 10:31:54	Tuning BiFi				Setpoint: 846.325062, Actual: 845.833257
2020/09/25 10:31:54	Tuning BiFi				Setpoint: 846.325062, Actual: 845.833257
2020/09/25 10:31:54	Tuning BiFi				Setpoint: 846.325062, Actual: 845.833204
2020/09/25 10:31:54	Tuning BiFi				Setpoint: 846.325062, Actual: 845.833244
2020/09/25 10:31:54	Tuning BiFi				Setpoint: 846.325062, Actual: 845.833189
2020/09/25 10:31:54	Tuning BiFi				Setpoint: 846.325062, Actual: 845.833189
2020/09/25 10:31:54	Tuning BiFi				Setpoint: 846.325062, Actual: 845.833189
2020/09/25 10:31:54	Tuning BiFi				Setpoint: 846.325062, Actual: 845.833215
2020/09/25 10:31:54	Tuning BiFi				Setpoint: 846.325062, Actual: 845.833200
2020/09/25 10:31:54	Tuning BiFi				Setpoint: 846.325062, Actual: 845.833199
2020/09/25 10:31:54	Tuning BiFi				Setpoint: 846.325062, Actual: 845.833199
2020/09/25 10:31:54	Tuning BiFi				Setpoint: 846.325062, Actual: 845.350384
2020/09/25 10:31:55	Tuning BiFi				Setpoint: 846.325062, Actual: 845.350408
2020/09/25 10:31:55	Tuning BiFi				Setpoint: 846.325062, Actual: 845.350387
2020/09/25 10:31:55	Tuning BiFi				Setpoint: 846.325062, Actual: 845.350363
2020/09/25 10:31:55	Tuning BiFi				Setpoint: 846.325062, Actual: 845.350363
2020/09/25 10:31:55	Tuning BiFi				Setpoint: 846.325062, Actual: 845.350385
2020/09/25 10:31:55	Tuning BiFi				Setpoint: 846.325062, Actual: 845.350388
2020/09/25 10:31:55	Tuning BiFi				Setpoint: 846.325062, Actual: 845.350417
2020/09/25 10:31:55	Tuning BiFi				Setpoint: 846.325062, Actual: 845.350303
2020/09/25 10:31:55	Tuning BiFi				Setpoint: 846.325062, Actual: 845.350303
2020/09/25 10:31:55	Tuning BiFi				Setpoint: 846.325062, Actual: 844.868078
2020/09/25 10:31:55	Tuning BiFi				Setpoint: 846.325062, Actual: 844.868062
2020/09/25 10:31:55	Tuning BiFi				Setpoint: 846.325062, Actual: 844.868034
2020/09/25 10:31:55	Tuning BiFi				Setpoint: 846.325062, Actual: 844.868063
2020/09/25 10:31:55	Tuning BiFi				Setpoint: 846.325062, Actual: 844.868063
2020/09/25 10:31:55	Tuning BiFi				Setpoint: 846.325062, Actual: 844.868032
2020/09/25 10:31:56	Bifi Motor: 135038, Wavelength: 846.316674	Setpoint: 846.325062, Actual: 845.833149
2020/09/25 10:31:56	Tuning Thin Etalon		Setpoint: 846.325062, Actual: 845.833149
2020/09/25 10:31:56	Tuning Thin Etalon		Setpoint: 846.325062, Actual: 846.184713
2020/09/25 10:31:56	Tuning Thin Etalon		Setpoint: 846.325062, Actual: 846.184792
2020/09/25 10:31:56	Tuning Thin Etalon		Setpoint: 846.325062, Actual: 846.184791
2020/09/25 10:31:57	Tuning Thin Etalon		Setpoint: 846.325062, Actual: 846.184792
2020/09/25 10:31:57	Tuning Thin Etalon		Setpoint: 846.325062, Actual: 846.184791
2020/09/25 10:31:57	Tuning Thin Etalon		Setpoint: 846.325062, Actual: 846.184791
2020/09/25 10:31:57	Tuning Thin Etalon		Setpoint: 846.325062, Actual: 846.184792
2020/09/25 10:31:57	Tuning Thin Etalon		Setpoint: 846.325062, Actual: 846.184792
2020/09/25 10:31:57	Tuning Thin Etalon		Setpoint: 846.325062, Actual: 846.184791
2020/09/25 10:31:57	Tuning Thin Etalon		Setpoint: 846.325062, Actual: 846.184794
2020/09/25 10:31:58	Tuning Thin Etalon		Setpoint: 846.325062, Actual: 846.184792
2020/09/25 10:31:58	Tuning Thin Etalon		Setpoint: 846.325062, Actual: 846.228597
2020/09/25 10:31:58	Tuning Thin Etalon		Setpoint: 846.325062, Actual: 846.228636
2020/09/25 10:31:58	Tuning Thin Etalon		Setpoint: 846.325062, Actual: 846.228591
2020/09/25 10:31:58	Tuning Thin Etalon		Setpoint: 846.325062, Actual: 846.228589
2020/09/25 10:31:58	Tuning Thin Etalon		Setpoint: 846.325062, Actual: 846.228586
2020/09/25 10:31:58	Tuning Thin Etalon		Setpoint: 846.325062, Actual: 846.228585
2020/09/25 10:31:58	Tuning Thin Etalon		Setpoint: 846.325062, Actual: 846.228585
2020/09/25 10:31:59	Tuning Thin Etalon		Setpoint: 846.325062, Actual: 846.228583
2020/09/25 10:31:59	Tuning Thin Etalon		Setpoint: 846.325062, Actual: 846.228581
2020/09/25 10:31:59	Tuning Thin Etalon		Setpoint: 846.325062, Actual: 846.228580
2020/09/25 10:31:59	Tuning Thin Etalon		Setpoint: 846.325062, Actual: 846.228580
2020/09/25 10:31:59	Tuning Thin Etalon		Setpoint: 846.325062, Actual: 846.228580
2020/09/25 10:31:59	Tuning Thin Etalon		Setpoint: 846.325062, Actual: 846.228578
2020/09/25 10:31:59	Tuning Thin Etalon		Setpoint: 846.325062, Actual: 846.228578
2020/09/25 10:32:00	Tuning Thin Etalon		Setpoint: 846.325062, Actual: 846.228578
2020/09/25 10:32:00	Tuning Thin Etalon		Setpoint: 846.325062, Actual: 846.228586
2020/09/25 10:32:00	Tuning Thin Etalon		Setpoint: 846.325062, Actual: 846.228578
2020/09/25 10:32:00	Tuning Thin Etalon		Setpoint: 846.325062, Actual: 846.272669
2020/09/25 10:32:00	Tuning Thin Etalon		Setpoint: 846.325062, Actual: 846.272639
2020/09/25 10:32:00	Tuning Thin Etalon		Setpoint: 846.325062, Actual: 846.272612
2020/09/25 10:32:00	Tuning Thin Etalon		Setpoint: 846.325062, Actual: 846.272599
2020/09/25 10:32:01	Tuning Thin Etalon		Setpoint: 846.325062, Actual: 846.272591
2020/09/25 10:32:01	Tuning Thin Etalon		Setpoint: 846.325062, Actual: 846.272585
2020/09/25 10:32:01	Tuning Thin Etalon		Setpoint: 846.325062, Actual: 846.272577
2020/09/25 10:32:01	Tuning Thin Etalon		Setpoint: 846.325062, Actual: 846.272570
2020/09/25 10:32:01	Tuning Thin Etalon		Setpoint: 846.325062, Actual: 846.272562
2020/09/25 10:32:01	Tuning Thin Etalon		Setpoint: 846.325062, Actual: 846.272577
2020/09/25 10:32:01	Tuning Thin Etalon		Setpoint: 846.325062, Actual: 846.272561
2020/09/25 10:32:02	Tuning Thin Etalon		Setpoint: 846.325062, Actual: 846.272557
2020/09/25 10:32:02	Tuning Thin Etalon		Setpoint: 846.325062, Actual: 846.272549
2020/09/25 10:32:02	Tuning Thin Etalon		Setpoint: 846.325062, Actual: 846.272570
2020/09/25 10:32:02	Tuning Thin Etalon		Setpoint: 846.325062, Actual: 846.272554
2020/09/25 10:32:02	Tuning Thin Etalon		Setpoint: 846.325062, Actual: 846.272564
2020/09/25 10:32:02	Tuning Thin Etalon		Setpoint: 846.325062, Actual: 846.272575
2020/09/25 10:32:02	Tuning Thin Etalon		Setpoint: 846.325062, Actual: 846.272570
2020/09/25 10:32:02	Tuning Thin Etalon		Setpoint: 846.325062, Actual: 846.272591
2020/09/25 10:32:03	Tuning Thin Etalon		Setpoint: 846.325062, Actual: 846.272584
2020/09/25 10:32:03	Tuning Thin Etalon		Setpoint: 846.325062, Actual: 846.316606
2020/09/25 10:32:03	Tuning Thin Etalon		Setpoint: 846.325062, Actual: 846.316602
2020/09/25 10:32:03	Tuning Thin Etalon		Setpoint: 846.325062, Actual: 846.316585
2020/09/25 10:32:03	Tuning Thin Etalon		Setpoint: 846.325062, Actual: 846.316597
2020/09/25 10:32:03	Tuning Thin Etalon		Setpoint: 846.325062, Actual: 846.316596
2020/09/25 10:32:03	Tuning Thin Etalon		Setpoint: 846.325062, Actual: 846.316594
2020/09/25 10:32:04	Tuning Thin Etalon		Setpoint: 846.325062, Actual: 846.316567
2020/09/25 10:32:04	Tuning Thin Etalon		Setpoint: 846.325062, Actual: 846.316591
2020/09/25 10:32:04	Tuning Thin Etalon		Setpoint: 846.325062, Actual: 846.316591
2020/09/25 10:32:04	Tuning Thin Etalon		Setpoint: 846.325062, Actual: 846.316591
2020/09/25 10:32:04	Tuning Thin Etalon		Setpoint: 846.325062, Actual: 846.316590
2020/09/25 10:32:04	Tuning Thin Etalon		Setpoint: 846.325062, Actual: 846.316588
2020/09/25 10:32:04	Tuning Thin Etalon		Setpoint: 846.325062, Actual: 846.316587
2020/09/25 10:32:05	Tuning Thin Etalon		Setpoint: 846.325062, Actual: 846.316587
2020/09/25 10:32:05	Tuning Thin Etalon		Setpoint: 846.325062, Actual: 846.316586
2020/09/25 10:32:05	Tuning Thin Etalon		Setpoint: 846.325062, Actual: 846.316585
2020/09/25 10:32:05	Tuning Thin Etalon		Setpoint: 846.325062, Actual: 846.316599
2020/09/25 10:32:05	Tuning Thin Etalon		Setpoint: 846.325062, Actual: 846.360410
2020/09/25 10:32:05	Tuning Thin Etalon		Setpoint: 846.325062, Actual: 846.360411
2020/09/25 10:32:05	Tuning Thin Etalon		Setpoint: 846.325062, Actual: 846.360411
2020/09/25 10:32:06	Tuning Thin Etalon		Setpoint: 846.325062, Actual: 846.360478
2020/09/25 10:32:06	Tuning Thin Etalon		Setpoint: 846.325062, Actual: 846.360412
2020/09/25 10:32:06	Tuning Thin Etalon		Setpoint: 846.325062, Actual: 846.360413
2020/09/25 10:32:06	Tuning Thin Etalon		Setpoint: 846.325062, Actual: 846.360413
2020/09/25 10:32:06	Tuning Thin Etalon		Setpoint: 846.325062, Actual: 846.360414
2020/09/25 10:32:06	Tuning Thin Etalon		Setpoint: 846.325062, Actual: 846.360473
2020/09/25 10:32:06	Tuning Thin Etalon		Setpoint: 846.325062, Actual: 846.360415
2020/09/25 10:32:06	Tuning Thin Etalon		Setpoint: 846.325062, Actual: 846.360415
2020/09/25 10:32:07	Tuning Thin Etalon		Setpoint: 846.325062, Actual: 846.360415
2020/09/25 10:32:07	Tuning Thin Etalon		Setpoint: 846.325062, Actual: 846.360414
2020/09/25 10:32:07	Tuning Thin Etalon		Setpoint: 846.325062, Actual: 846.360415
2020/09/25 10:32:07	Tuning Thin Etalon		Setpoint: 846.325062, Actual: 846.360415
2020/09/25 10:32:07	Tuning Thin Etalon		Setpoint: 846.325062, Actual: 846.360413
2020/09/25 10:32:07	Tuning Thin Etalon		Setpoint: 846.325062, Actual: 846.360414
2020/09/25 10:32:07	Tuning Thin Etalon		Setpoint: 846.325062, Actual: 846.360430
2020/09/25 10:32:08	Tuning Thin Etalon		Setpoint: 846.325062, Actual: 846.360415
2020/09/25 10:32:08	Tuning Thin Etalon		Setpoint: 846.325062, Actual: 846.360414
2020/09/25 10:32:08	Tuning Thin Etalon		Setpoint: 846.325062, Actual: 846.404572
2020/09/25 10:32:08	Tuning Thin Etalon		Setpoint: 846.325062, Actual: 846.404481
2020/09/25 10:32:08	Tuning Thin Etalon		Setpoint: 846.325062, Actual: 846.404602
2020/09/25 10:32:08	Tuning Thin Etalon		Setpoint: 846.325062, Actual: 846.404610
2020/09/25 10:32:08	Tuning Thin Etalon		Setpoint: 846.325062, Actual: 846.404611
2020/09/25 10:32:09	Tuning Thin Etalon		Setpoint: 846.325062, Actual: 846.404611
2020/09/25 10:32:09	Tuning Thin Etalon		Setpoint: 846.325062, Actual: 846.404526
2020/09/25 10:32:09	Tuning Thin Etalon		Setpoint: 846.325062, Actual: 846.404609
2020/09/25 10:32:09	Tuning Thin Etalon		Setpoint: 846.325062, Actual: 846.404611
2020/09/25 10:32:09	Tuning Thin Etalon		Setpoint: 846.325062, Actual: 846.404611
2020/09/25 10:32:09	Tuning Thin Etalon		Setpoint: 846.325062, Actual: 846.404610
2020/09/25 10:32:09	Tuning Thin Etalon		Setpoint: 846.325062, Actual: 846.404572
2020/09/25 10:32:10	Tuning Thin Etalon		Setpoint: 846.325062, Actual: 846.404608
2020/09/25 10:32:10	Tuning Thin Etalon		Setpoint: 846.325062, Actual: 846.404607
2020/09/25 10:32:10	Tuning Thin Etalon		Setpoint: 846.325062, Actual: 846.404607
2020/09/25 10:32:10	Tuning Thin Etalon		Setpoint: 846.325062, Actual: 846.404607
2020/09/25 10:32:10	Tuning Thin Etalon		Setpoint: 846.325062, Actual: 846.404607
2020/09/25 10:32:10	Tuning Thin Etalon		Setpoint: 846.325062, Actual: 846.404608
2020/09/25 10:32:10	Tuning Thin Etalon		Setpoint: 846.325062, Actual: 846.404607
2020/09/25 10:32:10	Tuning Thin Etalon		Setpoint: 846.325062, Actual: 846.404607
2020/09/25 10:32:11	Tuning Thin Etalon		Setpoint: 846.325062, Actual: 846.448436
2020/09/25 10:32:11	Tuning Thin Etalon		Setpoint: 846.325062, Actual: 846.448434
2020/09/25 10:32:11	Tuning Thin Etalon		Setpoint: 846.325062, Actual: 846.448432
2020/09/25 10:32:11	Tuning Thin Etalon		Setpoint: 846.325062, Actual: 846.448431
2020/09/25 10:32:11	Tuning Thin Etalon		Setpoint: 846.325062, Actual: 846.448430
2020/09/25 10:32:11	Tuning Thin Etalon		Setpoint: 846.325062, Actual: 846.448429
2020/09/25 10:32:11	Tuning Thin Etalon		Setpoint: 846.325062, Actual: 846.448424
2020/09/25 10:32:12	Tuning Thin Etalon		Setpoint: 846.325062, Actual: 846.448428
2020/09/25 10:32:12	Tuning Thin Etalon		Setpoint: 846.325062, Actual: 846.448426
2020/09/25 10:32:12	Tuning Thin Etalon		Setpoint: 846.325062, Actual: 846.448436
2020/09/25 10:32:12	Tuning Thin Etalon		Setpoint: 846.325062, Actual: 846.448425
2020/09/25 10:32:12	Tuning Thin Etalon		Setpoint: 846.325062, Actual: 846.448425
2020/09/25 10:32:12	Tuning Thin Etalon		Setpoint: 846.325062, Actual: 846.448423
2020/09/25 10:32:12	Tuning Thin Etalon		Setpoint: 846.325062, Actual: 846.448423
2020/09/25 10:32:13	Tuning Thin Etalon		Setpoint: 846.325062, Actual: 846.448422
2020/09/25 10:32:13	Thin Etalon Motor: 10900, Wavelength: 846.316592, Flank:Right	Setpoint: 846.325062, Actual: 846.316594
2020/09/25 10:32:13	Tuning Piezo Etalon	Setpoint: 846.325062, Actual: 846.316591
2020/09/25 10:32:29	Setpoint Updated		Setpoint: 846.301170, Actual: 846.325064
2020/09/25 10:32:29	Mode Hop Occurred		Setpoint: 846.301170, Actual: 846.325064
2020/09/25 10:32:29	Piezos Reset			Setpoint: 846.301170, Actual: 846.325003
2020/09/25 10:32:30	Setpoint Updated		Setpoint: 846.325062, Actual: 846.316977
2020/09/25 10:32:30	Tuning BiFi				Setpoint: 846.325062, Actual: 846.316974
2020/09/25 10:32:31	Tuning BiFi				Setpoint: 846.325062, Actual: NaN
2020/09/25 10:32:31	Tuning BiFi				Setpoint: 846.325062, Actual: NaN
2020/09/25 10:32:31	Tuning BiFi				Setpoint: 846.325062, Actual: 847.770287
2020/09/25 10:32:31	Tuning BiFi				Setpoint: 846.325062, Actual: 847.770329
2020/09/25 10:32:31	Tuning BiFi				Setpoint: 846.325062, Actual: 847.770288
2020/09/25 10:32:31	Tuning BiFi				Setpoint: 846.325062, Actual: 847.770262
2020/09/25 10:32:31	Tuning BiFi				Setpoint: 846.325062, Actual: 847.770262
2020/09/25 10:32:31	Tuning BiFi				Setpoint: 846.325062, Actual: 847.770275
2020/09/25 10:32:31	Tuning BiFi				Setpoint: 846.325062, Actual: 847.770276
2020/09/25 10:32:31	Tuning BiFi				Setpoint: 846.325062, Actual: 847.770272
2020/09/25 10:32:31	Tuning BiFi				Setpoint: 846.325062, Actual: 847.285284
2020/09/25 10:32:31	Tuning BiFi				Setpoint: 846.325062, Actual: 847.285226
2020/09/25 10:32:31	Tuning BiFi				Setpoint: 846.325062, Actual: 847.285186
2020/09/25 10:32:31	Tuning BiFi				Setpoint: 846.325062, Actual: 847.285186
2020/09/25 10:32:31	Tuning BiFi				Setpoint: 846.325062, Actual: 847.285269
2020/09/25 10:32:31	Tuning BiFi				Setpoint: 846.325062, Actual: 847.285234
2020/09/25 10:32:31	Tuning BiFi				Setpoint: 846.325062, Actual: 847.285264
2020/09/25 10:32:32	Tuning BiFi				Setpoint: 846.325062, Actual: 847.285264
2020/09/25 10:32:32	Tuning BiFi				Setpoint: 846.325062, Actual: 846.800672
2020/09/25 10:32:32	Tuning BiFi				Setpoint: 846.325062, Actual: 846.800734
2020/09/25 10:32:32	Tuning BiFi				Setpoint: 846.325062, Actual: 846.800753
2020/09/25 10:32:32	Tuning BiFi				Setpoint: 846.325062, Actual: 846.800664
2020/09/25 10:32:32	Tuning BiFi				Setpoint: 846.325062, Actual: 846.800664
2020/09/25 10:32:32	Tuning BiFi				Setpoint: 846.325062, Actual: 846.800662
2020/09/25 10:32:32	Tuning BiFi				Setpoint: 846.325062, Actual: 846.800679
2020/09/25 10:32:32	Tuning BiFi				Setpoint: 846.325062, Actual: 846.800723
2020/09/25 10:32:32	Tuning BiFi				Setpoint: 846.325062, Actual: 846.800663
2020/09/25 10:32:32	Tuning BiFi				Setpoint: 846.325062, Actual: 846.800663
2020/09/25 10:32:32	Tuning BiFi				Setpoint: 846.325062, Actual: 846.800676
2020/09/25 10:32:32	Tuning BiFi				Setpoint: 846.325062, Actual: 846.800675
2020/09/25 10:32:32	Tuning BiFi				Setpoint: 846.325062, Actual: 846.800673
2020/09/25 10:32:32	Tuning BiFi				Setpoint: 846.325062, Actual: 846.800673
2020/09/25 10:32:32	Tuning BiFi				Setpoint: 846.325062, Actual: 846.800633
2020/09/25 10:32:32	Tuning BiFi				Setpoint: 846.325062, Actual: 846.800646
2020/09/25 10:32:32	Tuning BiFi				Setpoint: 846.325062, Actual: 846.800652
2020/09/25 10:32:32	Tuning BiFi				Setpoint: 846.325062, Actual: 846.800638
2020/09/25 10:32:32	Tuning BiFi				Setpoint: 846.325062, Actual: 846.800638
2020/09/25 10:32:33	Tuning BiFi				Setpoint: 846.325062, Actual: 846.316643
2020/09/25 10:32:33	Tuning BiFi				Setpoint: 846.325062, Actual: 846.316684
2020/09/25 10:32:33	Tuning BiFi				Setpoint: 846.325062, Actual: 846.316723
2020/09/25 10:32:33	Tuning BiFi				Setpoint: 846.325062, Actual: 846.316712
2020/09/25 10:32:33	Tuning BiFi				Setpoint: 846.325062, Actual: 846.316712
2020/09/25 10:32:33	Tuning BiFi				Setpoint: 846.325062, Actual: 846.316717
2020/09/25 10:32:33	Tuning BiFi				Setpoint: 846.325062, Actual: 846.316694
2020/09/25 10:32:33	Tuning BiFi				Setpoint: 846.325062, Actual: 846.315520
2020/09/25 10:32:33	Tuning BiFi				Setpoint: 846.325062, Actual: 845.833282
2020/09/25 10:32:33	Tuning BiFi				Setpoint: 846.325062, Actual: 845.833282
2020/09/25 10:32:33	Tuning BiFi				Setpoint: 846.325062, Actual: 845.833294
2020/09/25 10:32:33	Tuning BiFi				Setpoint: 846.325062, Actual: 845.833276
2020/09/25 10:32:33	Tuning BiFi				Setpoint: 846.325062, Actual: 845.833279
2020/09/25 10:32:33	Tuning BiFi				Setpoint: 846.325062, Actual: 845.833266
2020/09/25 10:32:33	Tuning BiFi				Setpoint: 846.325062, Actual: 845.833266
2020/09/25 10:32:33	Tuning BiFi				Setpoint: 846.325062, Actual: 845.833275
2020/09/25 10:32:33	Tuning BiFi				Setpoint: 846.325062, Actual: 845.833305
2020/09/25 10:32:33	Tuning BiFi				Setpoint: 846.325062, Actual: 845.833246
2020/09/25 10:32:33	Tuning BiFi				Setpoint: 846.325062, Actual: 845.833313
2020/09/25 10:32:33	Tuning BiFi				Setpoint: 846.325062, Actual: 845.833313
2020/09/25 10:32:34	Tuning BiFi				Setpoint: 846.325062, Actual: 845.833306
2020/09/25 10:32:34	Tuning BiFi				Setpoint: 846.325062, Actual: 845.833288
2020/09/25 10:32:34	Tuning BiFi				Setpoint: 846.325062, Actual: 845.833235
2020/09/25 10:32:34	Tuning BiFi				Setpoint: 846.325062, Actual: 845.833212
2020/09/25 10:32:34	Tuning BiFi				Setpoint: 846.325062, Actual: 845.833212
2020/09/25 10:32:34	Tuning BiFi				Setpoint: 846.325062, Actual: 845.833226
2020/09/25 10:32:34	Tuning BiFi				Setpoint: 846.325062, Actual: 845.833245
2020/09/25 10:32:34	Tuning BiFi				Setpoint: 846.325062, Actual: 845.350416
2020/09/25 10:32:34	Tuning BiFi				Setpoint: 846.325062, Actual: 845.350360
2020/09/25 10:32:34	Tuning BiFi				Setpoint: 846.325062, Actual: 845.350360
2020/09/25 10:32:34	Tuning BiFi				Setpoint: 846.325062, Actual: 845.350417
2020/09/25 10:32:34	Tuning BiFi				Setpoint: 846.325062, Actual: 845.350462
2020/09/25 10:32:34	Tuning BiFi				Setpoint: 846.325062, Actual: 845.350480
2020/09/25 10:32:34	Tuning BiFi				Setpoint: 846.325062, Actual: 845.350397
2020/09/25 10:32:34	Tuning BiFi				Setpoint: 846.325062, Actual: 845.350397
2020/09/25 10:32:34	Tuning BiFi				Setpoint: 846.325062, Actual: 845.350434
2020/09/25 10:32:34	Tuning BiFi				Setpoint: 846.325062, Actual: 845.350434
2020/09/25 10:32:34	Tuning BiFi				Setpoint: 846.325062, Actual: 844.868134
2020/09/25 10:32:34	Tuning BiFi				Setpoint: 846.325062, Actual: 844.868133
2020/09/25 10:32:34	Tuning BiFi				Setpoint: 846.325062, Actual: 844.868133
2020/09/25 10:32:35	Tuning BiFi				Setpoint: 846.325062, Actual: 844.868111
2020/09/25 10:32:35	Tuning BiFi				Setpoint: 846.325062, Actual: 844.868088
2020/09/25 10:32:35	Tuning BiFi				Setpoint: 846.325062, Actual: 844.868076
2020/09/25 10:32:35	Bifi Motor: 135038, Wavelength: 846.316551	Setpoint: 846.325062, Actual: 845.833222
2020/09/25 10:32:35	Tuning Thin Etalon		Setpoint: 846.325062, Actual: 845.833222
2020/09/25 10:32:36	Tuning Thin Etalon		Setpoint: 846.325062, Actual: 845.833222
2020/09/25 10:32:36	Tuning Thin Etalon		Setpoint: 846.325062, Actual: 845.833222
2020/09/25 10:32:36	Tuning Thin Etalon		Setpoint: 846.325062, Actual: 845.833222
2020/09/25 10:32:36	Tuning Thin Etalon		Setpoint: 846.325062, Actual: 845.833222
2020/09/25 10:32:36	Tuning Thin Etalon		Setpoint: 846.325062, Actual: 845.833222
2020/09/25 10:32:36	Tuning Thin Etalon		Setpoint: 846.325062, Actual: 845.833222
2020/09/25 10:32:36	Tuning Thin Etalon		Setpoint: 846.325062, Actual: 845.833222
2020/09/25 10:32:37	Tuning Thin Etalon		Setpoint: 846.325062, Actual: 845.833222
2020/09/25 10:32:37	Tuning Thin Etalon		Setpoint: 846.325062, Actual: 845.833222
2020/09/25 10:32:37	Tuning Thin Etalon		Setpoint: 846.325062, Actual: 845.833222
2020/09/25 10:32:37	Tuning Thin Etalon		Setpoint: 846.325062, Actual: 845.833222
2020/09/25 10:32:37	Tuning Thin Etalon		Setpoint: 846.325062, Actual: 845.833222
2020/09/25 10:32:37	Tuning Thin Etalon		Setpoint: 846.325062, Actual: 845.833222
2020/09/25 10:32:37	Tuning Thin Etalon		Setpoint: 846.325062, Actual: 845.833222
2020/09/25 10:32:37	Tuning Thin Etalon		Setpoint: 846.325062, Actual: 845.833222
2020/09/25 10:32:38	Tuning Thin Etalon		Setpoint: 846.325062, Actual: 845.833222
2020/09/25 10:32:38	Tuning Thin Etalon		Setpoint: 846.325062, Actual: 845.833222
2020/09/25 10:32:38	Tuning Thin Etalon		Setpoint: 846.325062, Actual: 845.833222
2020/09/25 10:32:38	Tuning Thin Etalon		Setpoint: 846.325062, Actual: 845.833222
2020/09/25 10:32:38	Tuning Thin Etalon		Setpoint: 846.325062, Actual: 845.833222
2020/09/25 10:32:38	Tuning Thin Etalon		Setpoint: 846.325062, Actual: 845.833222
2020/09/25 10:32:38	Tuning Thin Etalon		Setpoint: 846.325062, Actual: 845.833222
2020/09/25 10:32:39	Tuning Thin Etalon		Setpoint: 846.325062, Actual: 845.833222
2020/09/25 10:32:39	Tuning Thin Etalon		Setpoint: 846.325062, Actual: 845.833222
2020/09/25 10:32:39	Tuning Thin Etalon		Setpoint: 846.325062, Actual: 845.833222
2020/09/25 10:32:39	Tuning Thin Etalon		Setpoint: 846.325062, Actual: 845.833222
2020/09/25 10:32:39	Tuning Thin Etalon		Setpoint: 846.325062, Actual: 845.833222
2020/09/25 10:32:39	Tuning Thin Etalon		Setpoint: 846.325062, Actual: 845.833222
2020/09/25 10:32:39	Tuning Thin Etalon		Setpoint: 846.325062, Actual: 845.833222
2020/09/25 10:32:40	Tuning Thin Etalon		Setpoint: 846.325062, Actual: 845.833222
2020/09/25 10:32:40	Tuning Thin Etalon		Setpoint: 846.325062, Actual: 845.833222
2020/09/25 10:32:40	Tuning Thin Etalon		Setpoint: 846.325062, Actual: 845.833222
2020/09/25 10:32:40	Tuning Thin Etalon		Setpoint: 846.325062, Actual: 845.833222
2020/09/25 10:32:40	Tuning Thin Etalon		Setpoint: 846.325062, Actual: 845.833222
2020/09/25 10:32:40	Tuning Thin Etalon		Setpoint: 846.325062, Actual: 845.833222
2020/09/25 10:32:40	Tuning Thin Etalon		Setpoint: 846.325062, Actual: 845.833222
2020/09/25 10:32:40	Tuning Thin Etalon		Setpoint: 846.325062, Actual: 845.833222
2020/09/25 10:32:41	Tuning Thin Etalon		Setpoint: 846.325062, Actual: 845.833222
2020/09/25 10:32:41	Tuning Thin Etalon		Setpoint: 846.325062, Actual: 845.833222
2020/09/25 10:32:41	Tuning Thin Etalon		Setpoint: 846.325062, Actual: 845.833222
2020/09/25 10:32:41	Tuning Thin Etalon		Setpoint: 846.325062, Actual: 845.833222
2020/09/25 10:32:41	Tuning Thin Etalon		Setpoint: 846.325062, Actual: 845.833222
2020/09/25 10:32:41	Tuning Thin Etalon		Setpoint: 846.325062, Actual: 845.833222
2020/09/25 10:32:41	Tuning Thin Etalon		Setpoint: 846.325062, Actual: 845.833222
2020/09/25 10:32:42	Tuning Thin Etalon		Setpoint: 846.325062, Actual: 845.833222
2020/09/25 10:32:42	Tuning Thin Etalon		Setpoint: 846.325062, Actual: 845.833222
2020/09/25 10:32:42	Tuning Thin Etalon		Setpoint: 846.325062, Actual: 845.833222
2020/09/25 10:32:42	Tuning Thin Etalon		Setpoint: 846.325062, Actual: 845.833222
2020/09/25 10:32:42	Tuning Thin Etalon		Setpoint: 846.325062, Actual: 845.833222
2020/09/25 10:32:42	Tuning Thin Etalon		Setpoint: 846.325062, Actual: 845.833222
2020/09/25 10:32:42	Tuning Thin Etalon		Setpoint: 846.325062, Actual: 845.833222
2020/09/25 10:32:43	Tuning Thin Etalon		Setpoint: 846.325062, Actual: 845.833222
2020/09/25 10:32:43	Tuning Thin Etalon		Setpoint: 846.325062, Actual: 845.833222
2020/09/25 10:32:43	Tuning Thin Etalon		Setpoint: 846.325062, Actual: 845.833222
2020/09/25 10:32:43	Tuning Thin Etalon		Setpoint: 846.325062, Actual: 845.833222
2020/09/25 10:32:43	Tuning Thin Etalon		Setpoint: 846.325062, Actual: 845.833222
2020/09/25 10:32:43	Tuning Thin Etalon		Setpoint: 846.325062, Actual: 845.833222
2020/09/25 10:32:43	Tuning Thin Etalon		Setpoint: 846.325062, Actual: 845.833222
2020/09/25 10:32:44	Tuning Thin Etalon		Setpoint: 846.325062, Actual: 845.833222
2020/09/25 10:32:44	Tuning Thin Etalon		Setpoint: 846.325062, Actual: 845.833222
2020/09/25 10:32:44	Tuning Thin Etalon		Setpoint: 846.325062, Actual: 845.833222
2020/09/25 10:32:44	Tuning Thin Etalon		Setpoint: 846.325062, Actual: 845.833222
2020/09/25 10:32:44	Tuning Thin Etalon		Setpoint: 846.325062, Actual: 845.833222
2020/09/25 10:32:44	Tuning Thin Etalon		Setpoint: 846.325062, Actual: 845.833222
2020/09/25 10:32:44	Tuning Thin Etalon		Setpoint: 846.325062, Actual: 845.833222
2020/09/25 10:32:44	Tuning Thin Etalon		Setpoint: 846.325062, Actual: 845.833222
2020/09/25 10:32:45	Tuning Thin Etalon		Setpoint: 846.325062, Actual: 845.833222
2020/09/25 10:32:45	Tuning Thin Etalon		Setpoint: 846.325062, Actual: 845.833222
2020/09/25 10:32:45	Tuning Thin Etalon		Setpoint: 846.325062, Actual: 845.833222
2020/09/25 10:32:45	Tuning Thin Etalon		Setpoint: 846.325062, Actual: 845.833222
2020/09/25 10:32:45	Tuning Thin Etalon		Setpoint: 846.325062, Actual: 845.833222
2020/09/25 10:32:45	Tuning Thin Etalon		Setpoint: 846.325062, Actual: 845.833222
2020/09/25 10:32:45	Tuning Thin Etalon		Setpoint: 846.325062, Actual: 845.833222
2020/09/25 10:32:46	Tuning Thin Etalon		Setpoint: 846.325062, Actual: 845.833222
2020/09/25 10:32:46	Tuning Thin Etalon		Setpoint: 846.325062, Actual: 845.833222
2020/09/25 10:32:46	Tuning Thin Etalon		Setpoint: 846.325062, Actual: 845.833222
2020/09/25 10:32:46	Tuning Thin Etalon		Setpoint: 846.325062, Actual: 845.833222
2020/09/25 10:32:46	Tuning Thin Etalon		Setpoint: 846.325062, Actual: 845.833222
2020/09/25 10:32:46	Tuning Thin Etalon		Setpoint: 846.325062, Actual: 845.833222
2020/09/25 10:32:46	Tuning Thin Etalon		Setpoint: 846.325062, Actual: 845.833222
2020/09/25 10:32:47	Tuning Thin Etalon		Setpoint: 846.325062, Actual: 845.833222
2020/09/25 10:32:47	Tuning Thin Etalon		Setpoint: 846.325062, Actual: 845.833222
2020/09/25 10:32:47	Tuning Thin Etalon		Setpoint: 846.325062, Actual: 845.833222
2020/09/25 10:32:47	Tuning Thin Etalon		Setpoint: 846.325062, Actual: 845.833222
2020/09/25 10:32:47	Tuning Thin Etalon		Setpoint: 846.325062, Actual: 845.833222
2020/09/25 10:32:47	Tuning Thin Etalon		Setpoint: 846.325062, Actual: 845.833222
2020/09/25 10:32:47	Tuning Thin Etalon		Setpoint: 846.325062, Actual: 845.833222
2020/09/25 10:32:48	Tuning Thin Etalon		Setpoint: 846.325062, Actual: 845.833222
2020/09/25 10:32:48	Tuning Thin Etalon		Setpoint: 846.325062, Actual: 845.833222
2020/09/25 10:32:48	Tuning Thin Etalon		Setpoint: 846.325062, Actual: 845.833222
2020/09/25 10:32:48	Tuning Thin Etalon		Setpoint: 846.325062, Actual: 845.833222
2020/09/25 10:32:48	Tuning Thin Etalon		Setpoint: 846.325062, Actual: 845.833222
2020/09/25 10:32:48	Tuning Thin Etalon		Setpoint: 846.325062, Actual: 845.833222
2020/09/25 10:32:48	Tuning Thin Etalon		Setpoint: 846.325062, Actual: 845.833222
2020/09/25 10:32:48	Tuning Thin Etalon		Setpoint: 846.325062, Actual: 845.833222
2020/09/25 10:32:49	Tuning Thin Etalon		Setpoint: 846.325062, Actual: 845.833222
2020/09/25 10:32:49	Tuning Thin Etalon		Setpoint: 846.325062, Actual: 846.404624
2020/09/25 10:32:49	Tuning Thin Etalon		Setpoint: 846.325062, Actual: 846.404624
2020/09/25 10:32:49	Tuning Thin Etalon		Setpoint: 846.325062, Actual: 846.404624
2020/09/25 10:32:49	Tuning Thin Etalon		Setpoint: 846.325062, Actual: 846.404625
2020/09/25 10:32:49	Tuning Thin Etalon		Setpoint: 846.325062, Actual: 846.404623
2020/09/25 10:32:49	Tuning Thin Etalon		Setpoint: 846.325062, Actual: 846.404623
2020/09/25 10:32:50	Tuning Thin Etalon		Setpoint: 846.325062, Actual: 846.404591
2020/09/25 10:32:50	Tuning Thin Etalon		Setpoint: 846.325062, Actual: 846.404596
2020/09/25 10:32:50	Tuning Thin Etalon		Setpoint: 846.325062, Actual: 846.404625
2020/09/25 10:32:50	Tuning Thin Etalon		Setpoint: 846.325062, Actual: 846.448451
2020/09/25 10:32:50	Tuning Thin Etalon		Setpoint: 846.325062, Actual: 846.448451
2020/09/25 10:32:50	Tuning Thin Etalon		Setpoint: 846.325062, Actual: 846.448448
2020/09/25 10:32:50	Tuning Thin Etalon		Setpoint: 846.325062, Actual: 846.448452
2020/09/25 10:32:51	Tuning Thin Etalon		Setpoint: 846.325062, Actual: 846.448446
2020/09/25 10:32:51	Tuning Thin Etalon		Setpoint: 846.325062, Actual: 846.448443
2020/09/25 10:32:51	Tuning Thin Etalon		Setpoint: 846.325062, Actual: 846.448443
2020/09/25 10:32:51	Tuning Thin Etalon		Setpoint: 846.325062, Actual: 846.448456
2020/09/25 10:32:51	Tuning Thin Etalon		Setpoint: 846.325062, Actual: 846.448454
2020/09/25 10:32:51	Tuning Thin Etalon		Setpoint: 846.325062, Actual: 846.448441
2020/09/25 10:32:51	Tuning Thin Etalon		Setpoint: 846.325062, Actual: 846.448440
2020/09/25 10:32:52	Tuning Thin Etalon		Setpoint: 846.325062, Actual: 846.448441
2020/09/25 10:32:52	Tuning Thin Etalon		Setpoint: 846.325062, Actual: 846.448440
2020/09/25 10:32:52	Tuning Thin Etalon		Setpoint: 846.325062, Actual: 846.448439
2020/09/25 10:32:52	Tuning Thin Etalon		Setpoint: 846.325062, Actual: 846.448438
2020/09/25 10:32:53	Thin Etalon Motor: 11875, Wavelength: 846.404621, Flank:Left	Setpoint: 846.325062, Actual: 846.404618
2020/09/25 10:32:53	Tuning Piezo Etalon	Setpoint: 846.325062, Actual: 846.404618
2020/09/25 10:33:05	Piezos Reset			Setpoint: 846.325062, Actual: 846.401142
2020/09/25 10:33:05	AutoLock Mode Off		Setpoint: 846.325062, Actual: 846.401142
2020/09/25 10:33:19	AutoLock Mode On		Setpoint: 846.325062, Actual: 846.401942
2020/09/25 10:33:19	Piezos Reset			Setpoint: 846.325062, Actual: 846.401943
2020/09/25 10:33:20	Tuning BiFi				Setpoint: 846.325062, Actual: 846.401943
2020/09/25 10:33:21	Tuning BiFi				Setpoint: 846.325062, Actual: 847.370782
2020/09/25 10:33:21	Tuning BiFi				Setpoint: 846.325062, Actual: 847.855878
2020/09/25 10:33:21	Tuning BiFi				Setpoint: 846.325062, Actual: 847.855878
2020/09/25 10:33:21	Tuning BiFi				Setpoint: 846.325062, Actual: 847.855883
2020/09/25 10:33:21	Tuning BiFi				Setpoint: 846.325062, Actual: 847.893829
2020/09/25 10:33:21	Tuning BiFi				Setpoint: 846.325062, Actual: 847.370717
2020/09/25 10:33:21	Tuning BiFi				Setpoint: 846.325062, Actual: 847.370734
2020/09/25 10:33:21	Tuning BiFi				Setpoint: 846.325062, Actual: 847.370734
2020/09/25 10:33:21	Tuning BiFi				Setpoint: 846.325062, Actual: 847.370710
2020/09/25 10:33:21	Tuning BiFi				Setpoint: 846.325062, Actual: 847.370724
2020/09/25 10:33:21	Tuning BiFi				Setpoint: 846.325062, Actual: 847.370724
2020/09/25 10:33:21	Tuning BiFi				Setpoint: 846.325062, Actual: 847.370775
2020/09/25 10:33:21	Tuning BiFi				Setpoint: 846.325062, Actual: 847.370775
2020/09/25 10:33:21	Tuning BiFi				Setpoint: 846.325062, Actual: 847.370754
2020/09/25 10:33:22	Tuning BiFi				Setpoint: 846.325062, Actual: 847.370739
2020/09/25 10:33:22	Tuning BiFi				Setpoint: 846.325062, Actual: 847.370734
2020/09/25 10:33:22	Tuning BiFi				Setpoint: 846.325062, Actual: 846.886112
2020/09/25 10:33:22	Tuning BiFi				Setpoint: 846.325062, Actual: 846.886112
2020/09/25 10:33:22	Tuning BiFi				Setpoint: 846.325062, Actual: 846.886111
2020/09/25 10:33:22	Tuning BiFi				Setpoint: 846.325062, Actual: 846.886110
2020/09/25 10:33:22	Tuning BiFi				Setpoint: 846.325062, Actual: 846.886150
2020/09/25 10:33:22	Tuning BiFi				Setpoint: 846.325062, Actual: 846.886061
2020/09/25 10:33:22	Tuning BiFi				Setpoint: 846.325062, Actual: 846.886061
2020/09/25 10:33:22	Tuning BiFi				Setpoint: 846.325062, Actual: 846.886101
2020/09/25 10:33:22	Tuning BiFi				Setpoint: 846.325062, Actual: 846.886081
2020/09/25 10:33:22	Tuning BiFi				Setpoint: 846.325062, Actual: 846.886071
2020/09/25 10:33:22	Tuning BiFi				Setpoint: 846.325062, Actual: 846.886120
2020/09/25 10:33:22	Tuning BiFi				Setpoint: 846.325062, Actual: 846.886120
2020/09/25 10:33:22	Tuning BiFi				Setpoint: 846.325062, Actual: 846.886170
2020/09/25 10:33:22	Tuning BiFi				Setpoint: 846.325062, Actual: 846.886138
2020/09/25 10:33:22	Tuning BiFi				Setpoint: 846.325062, Actual: 846.884838
2020/09/25 10:33:22	Tuning BiFi				Setpoint: 846.325062, Actual: 846.402068
2020/09/25 10:33:22	Tuning BiFi				Setpoint: 846.325062, Actual: 846.402068
2020/09/25 10:33:22	Tuning BiFi				Setpoint: 846.325062, Actual: 846.402060
2020/09/25 10:33:23	Tuning BiFi				Setpoint: 846.325062, Actual: 846.402074
2020/09/25 10:33:23	Tuning BiFi				Setpoint: 846.325062, Actual: 846.402109
2020/09/25 10:33:23	Tuning BiFi				Setpoint: 846.325062, Actual: 846.402101
2020/09/25 10:33:23	Tuning BiFi				Setpoint: 846.325062, Actual: 846.402101
2020/09/25 10:33:23	Tuning BiFi				Setpoint: 846.325062, Actual: 846.402060
2020/09/25 10:33:23	Tuning BiFi				Setpoint: 846.325062, Actual: 846.402093
2020/09/25 10:33:23	Tuning BiFi				Setpoint: 846.325062, Actual: 846.402072
2020/09/25 10:33:23	Tuning BiFi				Setpoint: 846.325062, Actual: 846.402084
2020/09/25 10:33:23	Tuning BiFi				Setpoint: 846.325062, Actual: 846.402084
2020/09/25 10:33:23	Tuning BiFi				Setpoint: 846.325062, Actual: 846.402105
2020/09/25 10:33:23	Tuning BiFi				Setpoint: 846.325062, Actual: 846.402018
2020/09/25 10:33:23	Tuning BiFi				Setpoint: 846.325062, Actual: 845.918556
2020/09/25 10:33:23	Tuning BiFi				Setpoint: 846.325062, Actual: 845.918613
2020/09/25 10:33:23	Tuning BiFi				Setpoint: 846.325062, Actual: 845.918613
2020/09/25 10:33:23	Tuning BiFi				Setpoint: 846.325062, Actual: 845.918591
2020/09/25 10:33:23	Tuning BiFi				Setpoint: 846.325062, Actual: 845.918603
2020/09/25 10:33:23	Tuning BiFi				Setpoint: 846.325062, Actual: 845.918588
2020/09/25 10:33:23	Tuning BiFi				Setpoint: 846.325062, Actual: 845.918594
2020/09/25 10:33:23	Tuning BiFi				Setpoint: 846.325062, Actual: 845.918594
2020/09/25 10:33:23	Tuning BiFi				Setpoint: 846.325062, Actual: 845.918552
2020/09/25 10:33:24	Tuning BiFi				Setpoint: 846.325062, Actual: 845.918584
2020/09/25 10:33:24	Tuning BiFi				Setpoint: 846.325062, Actual: 845.918572
2020/09/25 10:33:24	Tuning BiFi				Setpoint: 846.325062, Actual: 845.918601
2020/09/25 10:33:24	Tuning BiFi				Setpoint: 846.325062, Actual: 845.918601
2020/09/25 10:33:24	Tuning BiFi				Setpoint: 846.325062, Actual: 845.918599
2020/09/25 10:33:24	Tuning BiFi				Setpoint: 846.325062, Actual: 845.435647
2020/09/25 10:33:24	Tuning BiFi				Setpoint: 846.325062, Actual: 845.435751
2020/09/25 10:33:24	Tuning BiFi				Setpoint: 846.325062, Actual: 845.435654
2020/09/25 10:33:24	Tuning BiFi				Setpoint: 846.325062, Actual: 845.435654
2020/09/25 10:33:24	Tuning BiFi				Setpoint: 846.325062, Actual: 845.435607
2020/09/25 10:33:24	Tuning BiFi				Setpoint: 846.325062, Actual: 845.435676
2020/09/25 10:33:24	Tuning BiFi				Setpoint: 846.325062, Actual: 845.435666
2020/09/25 10:33:24	Tuning BiFi				Setpoint: 846.325062, Actual: 845.435643
2020/09/25 10:33:24	Tuning BiFi				Setpoint: 846.325062, Actual: 845.435643
2020/09/25 10:33:24	Tuning BiFi				Setpoint: 846.325062, Actual: 845.435687
2020/09/25 10:33:24	Tuning BiFi				Setpoint: 846.325062, Actual: 845.435655
2020/09/25 10:33:24	Tuning BiFi				Setpoint: 846.325062, Actual: 845.435634
2020/09/25 10:33:24	Tuning BiFi				Setpoint: 846.325062, Actual: 845.435629
2020/09/25 10:33:24	Tuning BiFi				Setpoint: 846.325062, Actual: 845.435629
2020/09/25 10:33:24	Tuning BiFi				Setpoint: 846.325062, Actual: 845.435628
2020/09/25 10:33:25	Tuning BiFi				Setpoint: 846.325062, Actual: 845.435699
2020/09/25 10:33:25	Tuning BiFi				Setpoint: 846.325062, Actual: 845.435498
2020/09/25 10:33:25	Tuning BiFi				Setpoint: 846.325062, Actual: 844.953242
2020/09/25 10:33:25	Tuning BiFi				Setpoint: 846.325062, Actual: 844.953242
2020/09/25 10:33:25	Tuning BiFi				Setpoint: 846.325062, Actual: 844.953260
2020/09/25 10:33:25	Tuning BiFi				Setpoint: 846.325062, Actual: 844.953240
2020/09/25 10:33:25	Bifi Motor: 134812, Wavelength: 846.402078	Setpoint: 846.325062, Actual: 845.918559
2020/09/25 10:33:25	Tuning Thin Etalon		Setpoint: 846.325062, Actual: NaN
2020/09/25 10:33:26	Tuning Thin Etalon		Setpoint: 846.325062, Actual: 846.709721
2020/09/25 10:33:26	Tuning Thin Etalon		Setpoint: 846.325062, Actual: 846.182259
2020/09/25 10:33:26	Tuning Thin Etalon		Setpoint: 846.325062, Actual: 846.182200
2020/09/25 10:33:26	Tuning Thin Etalon		Setpoint: 846.325062, Actual: 846.182205
2020/09/25 10:33:26	Tuning Thin Etalon		Setpoint: 846.325062, Actual: 846.182252
2020/09/25 10:33:27	Tuning Thin Etalon		Setpoint: 846.325062, Actual: 846.182225
2020/09/25 10:33:27	Tuning Thin Etalon		Setpoint: 846.325062, Actual: 846.182249
2020/09/25 10:33:27	Tuning Thin Etalon		Setpoint: 846.325062, Actual: 846.182265
2020/09/25 10:33:27	Tuning Thin Etalon		Setpoint: 846.325062, Actual: 846.710030
2020/09/25 10:33:27	Tuning Thin Etalon		Setpoint: 846.325062, Actual: 846.710030
2020/09/25 10:33:27	Tuning Thin Etalon		Setpoint: 846.325062, Actual: 846.710030
2020/09/25 10:33:27	Tuning Thin Etalon		Setpoint: 846.325062, Actual: 846.710031
2020/09/25 10:33:28	Tuning Thin Etalon		Setpoint: 846.325062, Actual: 846.710032
2020/09/25 10:33:28	Tuning Thin Etalon		Setpoint: 846.325062, Actual: 846.710032
2020/09/25 10:33:28	Tuning Thin Etalon		Setpoint: 846.325062, Actual: 846.710027
2020/09/25 10:33:28	Tuning Thin Etalon		Setpoint: 846.325062, Actual: 846.710032
2020/09/25 10:33:28	Tuning Thin Etalon		Setpoint: 846.325062, Actual: 846.226349
2020/09/25 10:33:28	Tuning Thin Etalon		Setpoint: 846.325062, Actual: 846.226325
2020/09/25 10:33:28	Tuning Thin Etalon		Setpoint: 846.325062, Actual: 846.226332
2020/09/25 10:33:28	Tuning Thin Etalon		Setpoint: 846.325062, Actual: 846.226318
2020/09/25 10:33:29	Tuning Thin Etalon		Setpoint: 846.325062, Actual: 846.226317
2020/09/25 10:33:29	Tuning Thin Etalon		Setpoint: 846.325062, Actual: 846.226316
2020/09/25 10:33:29	Tuning Thin Etalon		Setpoint: 846.325062, Actual: 846.226315
2020/09/25 10:33:29	Tuning Thin Etalon		Setpoint: 846.325062, Actual: 846.226303
2020/09/25 10:33:29	Tuning Thin Etalon		Setpoint: 846.325062, Actual: 846.226313
2020/09/25 10:33:29	Tuning Thin Etalon		Setpoint: 846.325062, Actual: 846.226323
2020/09/25 10:33:29	Tuning Thin Etalon		Setpoint: 846.325062, Actual: 846.270128
2020/09/25 10:33:30	Tuning Thin Etalon		Setpoint: 846.325062, Actual: 846.270131
2020/09/25 10:33:30	Tuning Thin Etalon		Setpoint: 846.325062, Actual: 846.270133
2020/09/25 10:33:30	Tuning Thin Etalon		Setpoint: 846.325062, Actual: 846.270134
2020/09/25 10:33:30	Tuning Thin Etalon		Setpoint: 846.325062, Actual: 846.270134
2020/09/25 10:33:30	Tuning Thin Etalon		Setpoint: 846.325062, Actual: 846.270205
2020/09/25 10:33:30	Tuning Thin Etalon		Setpoint: 846.325062, Actual: 846.270137
2020/09/25 10:33:30	Tuning Thin Etalon		Setpoint: 846.325062, Actual: 846.270137
2020/09/25 10:33:31	Tuning Thin Etalon		Setpoint: 846.325062, Actual: 846.270137
2020/09/25 10:33:31	Tuning Thin Etalon		Setpoint: 846.325062, Actual: 846.270184
2020/09/25 10:33:31	Tuning Thin Etalon		Setpoint: 846.325062, Actual: 846.270136
2020/09/25 10:33:31	Tuning Thin Etalon		Setpoint: 846.325062, Actual: 846.270138
2020/09/25 10:33:31	Tuning Thin Etalon		Setpoint: 846.325062, Actual: 846.270137
2020/09/25 10:33:31	Tuning Thin Etalon		Setpoint: 846.325062, Actual: 846.270182
2020/09/25 10:33:31	Tuning Thin Etalon		Setpoint: 846.325062, Actual: 846.270186
2020/09/25 10:33:32	Tuning Thin Etalon		Setpoint: 846.325062, Actual: 846.270137
2020/09/25 10:33:32	Tuning Thin Etalon		Setpoint: 846.325062, Actual: 846.270138
2020/09/25 10:33:32	Tuning Thin Etalon		Setpoint: 846.325062, Actual: 846.270256
2020/09/25 10:33:32	Tuning Thin Etalon		Setpoint: 846.325062, Actual: 846.270141
2020/09/25 10:33:32	Tuning Thin Etalon		Setpoint: 846.325062, Actual: 846.270146
2020/09/25 10:33:32	Tuning Thin Etalon		Setpoint: 846.325062, Actual: 846.270159
2020/09/25 10:33:32	Tuning Thin Etalon		Setpoint: 846.325062, Actual: 846.314336
2020/09/25 10:33:33	Tuning Thin Etalon		Setpoint: 846.325062, Actual: 846.314282
2020/09/25 10:33:33	Tuning Thin Etalon		Setpoint: 846.325062, Actual: 846.314331
2020/09/25 10:33:33	Tuning Thin Etalon		Setpoint: 846.325062, Actual: 846.314330
2020/09/25 10:33:33	Tuning Thin Etalon		Setpoint: 846.325062, Actual: 846.314328
2020/09/25 10:33:33	Tuning Thin Etalon		Setpoint: 846.325062, Actual: 846.314318
2020/09/25 10:33:33	Tuning Thin Etalon		Setpoint: 846.325062, Actual: 846.314325
2020/09/25 10:33:33	Tuning Thin Etalon		Setpoint: 846.325062, Actual: 846.314325
2020/09/25 10:33:34	Tuning Thin Etalon		Setpoint: 846.325062, Actual: 846.314323
2020/09/25 10:33:34	Tuning Thin Etalon		Setpoint: 846.325062, Actual: 846.314310
2020/09/25 10:33:34	Tuning Thin Etalon		Setpoint: 846.325062, Actual: 846.314322
2020/09/25 10:33:34	Tuning Thin Etalon		Setpoint: 846.325062, Actual: 846.314320
2020/09/25 10:33:34	Tuning Thin Etalon		Setpoint: 846.325062, Actual: 846.314321
2020/09/25 10:33:34	Tuning Thin Etalon		Setpoint: 846.325062, Actual: 846.314319
2020/09/25 10:33:34	Tuning Thin Etalon		Setpoint: 846.325062, Actual: 846.314284
2020/09/25 10:33:34	Tuning Thin Etalon		Setpoint: 846.325062, Actual: 846.314318
2020/09/25 10:33:35	Tuning Thin Etalon		Setpoint: 846.325062, Actual: 846.314318
2020/09/25 10:33:35	Tuning Thin Etalon		Setpoint: 846.325062, Actual: 846.358138
2020/09/25 10:33:35	Tuning Thin Etalon		Setpoint: 846.325062, Actual: 846.358140
2020/09/25 10:33:35	Tuning Thin Etalon		Setpoint: 846.325062, Actual: 846.358140
2020/09/25 10:33:35	Tuning Thin Etalon		Setpoint: 846.325062, Actual: 846.358142
2020/09/25 10:33:35	Tuning Thin Etalon		Setpoint: 846.325062, Actual: 846.358141
2020/09/25 10:33:35	Tuning Thin Etalon		Setpoint: 846.325062, Actual: 846.358140
2020/09/25 10:33:36	Tuning Thin Etalon		Setpoint: 846.325062, Actual: 846.358141
2020/09/25 10:33:36	Tuning Thin Etalon		Setpoint: 846.325062, Actual: 846.358175
2020/09/25 10:33:36	Tuning Thin Etalon		Setpoint: 846.325062, Actual: 846.358141
2020/09/25 10:33:36	Tuning Thin Etalon		Setpoint: 846.325062, Actual: 846.358140
2020/09/25 10:33:36	Tuning Thin Etalon		Setpoint: 846.325062, Actual: 846.358141
2020/09/25 10:33:36	Tuning Thin Etalon		Setpoint: 846.325062, Actual: 846.358140
2020/09/25 10:33:36	Tuning Thin Etalon		Setpoint: 846.325062, Actual: 846.358141
2020/09/25 10:33:37	Tuning Thin Etalon		Setpoint: 846.325062, Actual: 846.358140
2020/09/25 10:33:37	Tuning Thin Etalon		Setpoint: 846.325062, Actual: 846.358140
2020/09/25 10:33:37	Tuning Thin Etalon		Setpoint: 846.325062, Actual: 846.358141
2020/09/25 10:33:37	Tuning Thin Etalon		Setpoint: 846.325062, Actual: 846.358140
2020/09/25 10:33:37	Tuning Thin Etalon		Setpoint: 846.325062, Actual: 846.358141
2020/09/25 10:33:37	Tuning Thin Etalon		Setpoint: 846.325062, Actual: 846.358141
2020/09/25 10:33:37	Tuning Thin Etalon		Setpoint: 846.325062, Actual: 846.358140
2020/09/25 10:33:38	Tuning Thin Etalon		Setpoint: 846.325062, Actual: 846.402343
2020/09/25 10:33:38	Tuning Thin Etalon		Setpoint: 846.325062, Actual: 846.402327
2020/09/25 10:33:38	Tuning Thin Etalon		Setpoint: 846.325062, Actual: 846.402342
2020/09/25 10:33:38	Tuning Thin Etalon		Setpoint: 846.325062, Actual: 846.402342
2020/09/25 10:33:38	Tuning Thin Etalon		Setpoint: 846.325062, Actual: 846.402341
2020/09/25 10:33:38	Tuning Thin Etalon		Setpoint: 846.325062, Actual: 846.402341
2020/09/25 10:33:38	Tuning Thin Etalon		Setpoint: 846.325062, Actual: 846.402339
2020/09/25 10:33:39	Tuning Thin Etalon		Setpoint: 846.325062, Actual: 846.402339
2020/09/25 10:33:39	Tuning Thin Etalon		Setpoint: 846.325062, Actual: 846.402339
2020/09/25 10:33:39	Tuning Thin Etalon		Setpoint: 846.325062, Actual: 846.402339
2020/09/25 10:33:39	Tuning Thin Etalon		Setpoint: 846.325062, Actual: 846.402339
2020/09/25 10:33:39	Tuning Thin Etalon		Setpoint: 846.325062, Actual: 846.402337
2020/09/25 10:33:39	Tuning Thin Etalon		Setpoint: 846.325062, Actual: 846.402337
2020/09/25 10:33:39	Tuning Thin Etalon		Setpoint: 846.325062, Actual: 846.402336
2020/09/25 10:33:39	Tuning Thin Etalon		Setpoint: 846.325062, Actual: 846.402303
2020/09/25 10:33:40	Tuning Thin Etalon		Setpoint: 846.325062, Actual: 846.402338
2020/09/25 10:33:40	Tuning Thin Etalon		Setpoint: 846.325062, Actual: 846.402337
2020/09/25 10:33:40	Tuning Thin Etalon		Setpoint: 846.325062, Actual: 846.402337
2020/09/25 10:33:40	Tuning Thin Etalon		Setpoint: 846.325062, Actual: 846.402299
2020/09/25 10:33:40	Tuning Thin Etalon		Setpoint: 846.325062, Actual: 846.402338
2020/09/25 10:33:40	Tuning Thin Etalon		Setpoint: 846.325062, Actual: 846.446167
2020/09/25 10:33:40	Tuning Thin Etalon		Setpoint: 846.325062, Actual: 846.446164
2020/09/25 10:33:41	Tuning Thin Etalon		Setpoint: 846.325062, Actual: 846.446164
2020/09/25 10:33:41	Tuning Thin Etalon		Setpoint: 846.325062, Actual: 846.446162
2020/09/25 10:33:41	Tuning Thin Etalon		Setpoint: 846.325062, Actual: 846.446161
2020/09/25 10:33:41	Tuning Thin Etalon		Setpoint: 846.325062, Actual: 846.446160
2020/09/25 10:33:41	Tuning Thin Etalon		Setpoint: 846.325062, Actual: 846.446158
2020/09/25 10:33:41	Tuning Thin Etalon		Setpoint: 846.325062, Actual: 846.446157
2020/09/25 10:33:41	Tuning Thin Etalon		Setpoint: 846.325062, Actual: 846.446186
2020/09/25 10:33:42	Tuning Thin Etalon		Setpoint: 846.325062, Actual: 846.446155
2020/09/25 10:33:42	Tuning Thin Etalon		Setpoint: 846.325062, Actual: 846.446155
2020/09/25 10:33:42	Tuning Thin Etalon		Setpoint: 846.325062, Actual: 846.446153
2020/09/25 10:33:42	Tuning Thin Etalon		Setpoint: 846.325062, Actual: 846.446152
2020/09/25 10:33:42	Tuning Thin Etalon		Setpoint: 846.325062, Actual: 846.446165
2020/09/25 10:33:42	Tuning Thin Etalon		Setpoint: 846.325062, Actual: 846.446151
2020/09/25 10:33:42	Tuning Thin Etalon		Setpoint: 846.325062, Actual: 846.446152
2020/09/25 10:33:43	Thin Etalon Motor: 10825, Wavelength: 846.314319, Flank:Right	Setpoint: 846.325062, Actual: 846.314321
2020/09/25 10:33:43	Tuning Piezo Etalon	Setpoint: 846.325062, Actual: 846.314321
2020/09/25 10:34:18	Program Exited			Setpoint: 846.325062, Actual: 846.325061
