2020/09/23 17:14:28	Program Started
2020/09/23 17:14:32	AutoLock Mode On		Setpoint: 846.324056, Actual: 846.324060
2020/09/23 17:14:32	Tuning Piezo Etalon	Setpoint: 846.324056, Actual: 846.324060
2020/09/23 17:15:21	Program Exited			Setpoint: 846.324087, Actual: 846.324089
