2020/09/23 17:13:13	Program Started
2020/09/23 17:13:22	AutoLock Mode On		Setpoint: 846.324054, Actual: 846.324054
2020/09/23 17:13:22	Tuning Piezo Etalon	Setpoint: 846.324054, Actual: 846.324054
2020/09/23 17:13:36	Setpoint Updated		Setpoint: 846.324054, Actual: 846.324053
2020/09/23 17:13:36	Setpoint Updated		Setpoint: 846.324049, Actual: 846.324053
2020/09/23 17:13:37	Setpoint Updated		Setpoint: 846.324046, Actual: 846.324047
2020/09/23 17:13:37	Setpoint Updated		Setpoint: 846.324049, Actual: 846.324045
2020/09/23 17:13:38	Setpoint Updated		Setpoint: 846.324051, Actual: 846.324051
2020/09/23 17:13:38	Setpoint Updated		Setpoint: 846.324054, Actual: 846.324051
2020/09/23 17:13:38	Setpoint Updated		Setpoint: 846.324056, Actual: 846.324053
2020/09/23 17:13:51	Program Exited			Setpoint: 846.324056, Actual: 846.324055
