2021/10/13 14:49:44	Program Started
2021/10/13 14:49:50	AutoLock Mode On		Setpoint: 845.584000, Actual: 845.580514
2021/10/13 14:49:50	Piezos Reset			Setpoint: 845.584000, Actual: 845.580511
2021/10/13 14:49:51	Tuning BiFi				Setpoint: 845.584000, Actual: 845.588872
2021/10/13 14:49:51	Tuning BiFi				Setpoint: 845.584000, Actual: 846.072188
2021/10/13 14:49:51	Tuning BiFi				Setpoint: 845.584000, Actual: 846.555911
2021/10/13 14:49:51	Tuning BiFi				Setpoint: 845.584000, Actual: 846.555967
2021/10/13 14:49:51	Tuning BiFi				Setpoint: 845.584000, Actual: 846.555967
2021/10/13 14:49:51	Tuning BiFi				Setpoint: 845.584000, Actual: 846.555988
2021/10/13 14:49:51	Tuning BiFi				Setpoint: 845.584000, Actual: 846.555988
2021/10/13 14:49:51	Tuning BiFi				Setpoint: 845.584000, Actual: 846.555851
2021/10/13 14:49:52	Tuning BiFi				Setpoint: 845.584000, Actual: 846.555851
2021/10/13 14:49:52	Tuning BiFi				Setpoint: 845.584000, Actual: NaN
2021/10/13 14:49:52	Tuning BiFi				Setpoint: 845.584000, Actual: NaN
2021/10/13 14:49:52	Tuning BiFi				Setpoint: 845.584000, Actual: 846.072231
2021/10/13 14:49:52	Tuning BiFi				Setpoint: 845.584000, Actual: 846.072231
2021/10/13 14:49:52	Tuning BiFi				Setpoint: 845.584000, Actual: 846.072245
2021/10/13 14:49:52	Tuning BiFi				Setpoint: 845.584000, Actual: 846.072259
2021/10/13 14:49:52	Tuning BiFi				Setpoint: 845.584000, Actual: 846.072259
2021/10/13 14:49:52	Tuning BiFi				Setpoint: 845.584000, Actual: 846.072236
2021/10/13 14:49:52	Tuning BiFi				Setpoint: 845.584000, Actual: 846.072236
2021/10/13 14:49:52	Tuning BiFi				Setpoint: 845.584000, Actual: 846.072273
2021/10/13 14:49:52	Tuning BiFi				Setpoint: 845.584000, Actual: 846.072273
2021/10/13 14:49:52	Tuning BiFi				Setpoint: 845.584000, Actual: 846.072242
2021/10/13 14:49:52	Tuning BiFi				Setpoint: 845.584000, Actual: 846.072284
2021/10/13 14:49:52	Tuning BiFi				Setpoint: 845.584000, Actual: 846.072284
2021/10/13 14:49:52	Tuning BiFi				Setpoint: 845.584000, Actual: 846.072254
2021/10/13 14:49:52	Tuning BiFi				Setpoint: 845.584000, Actual: 846.072254
2021/10/13 14:49:52	Tuning BiFi				Setpoint: 845.584000, Actual: 846.072284
2021/10/13 14:49:52	Tuning BiFi				Setpoint: 845.584000, Actual: 846.072284
2021/10/13 14:49:52	Tuning BiFi				Setpoint: 845.584000, Actual: 846.072273
2021/10/13 14:49:52	Tuning BiFi				Setpoint: 845.584000, Actual: NaN
2021/10/13 14:49:53	Tuning BiFi				Setpoint: 845.584000, Actual: NaN
2021/10/13 14:49:53	Tuning BiFi				Setpoint: 845.584000, Actual: 845.589132
2021/10/13 14:49:53	Tuning BiFi				Setpoint: 845.584000, Actual: 845.589161
2021/10/13 14:49:53	Tuning BiFi				Setpoint: 845.584000, Actual: 845.589161
2021/10/13 14:49:53	Tuning BiFi				Setpoint: 845.584000, Actual: 845.589151
2021/10/13 14:49:53	Tuning BiFi				Setpoint: 845.584000, Actual: 845.589150
2021/10/13 14:49:53	Tuning BiFi				Setpoint: 845.584000, Actual: 845.589150
2021/10/13 14:49:53	Tuning BiFi				Setpoint: 845.584000, Actual: 845.589126
2021/10/13 14:49:53	Tuning BiFi				Setpoint: 845.584000, Actual: 845.587929
2021/10/13 14:49:53	Tuning BiFi				Setpoint: 845.584000, Actual: 845.106554
2021/10/13 14:49:53	Tuning BiFi				Setpoint: 845.584000, Actual: 845.106554
2021/10/13 14:49:53	Tuning BiFi				Setpoint: 845.584000, Actual: 845.106569
2021/10/13 14:49:53	Tuning BiFi				Setpoint: 845.584000, Actual: 845.106541
2021/10/13 14:49:53	Tuning BiFi				Setpoint: 845.584000, Actual: 845.106541
2021/10/13 14:49:53	Tuning BiFi				Setpoint: 845.584000, Actual: 845.106559
2021/10/13 14:49:53	Tuning BiFi				Setpoint: 845.584000, Actual: 845.106550
2021/10/13 14:49:53	Tuning BiFi				Setpoint: 845.584000, Actual: 845.106550
2021/10/13 14:49:53	Tuning BiFi				Setpoint: 845.584000, Actual: 845.106544
2021/10/13 14:49:53	Tuning BiFi				Setpoint: 845.584000, Actual: 845.106577
2021/10/13 14:49:53	Tuning BiFi				Setpoint: 845.584000, Actual: 845.106547
2021/10/13 14:49:54	Tuning BiFi				Setpoint: 845.584000, Actual: 845.106547
2021/10/13 14:49:54	Tuning BiFi				Setpoint: 845.584000, Actual: 845.106566
2021/10/13 14:49:54	Tuning BiFi				Setpoint: 845.584000, Actual: 845.106565
2021/10/13 14:49:54	Tuning BiFi				Setpoint: 845.584000, Actual: 845.106565
2021/10/13 14:49:54	Tuning BiFi				Setpoint: 845.584000, Actual: 845.106572
2021/10/13 14:49:54	Bifi Motor: 146438, Wavelength: 845.588995	Setpoint: 845.584000, Actual: 845.107413
2021/10/13 14:49:54	Tuning Thin Etalon		Setpoint: 845.584000, Actual: 845.107413
2021/10/13 14:49:55	Tuning Thin Etalon		Setpoint: 845.584000, Actual: 845.282160
2021/10/13 14:49:55	Tuning Thin Etalon		Setpoint: 845.584000, Actual: 845.282185
2021/10/13 14:49:55	Tuning Thin Etalon		Setpoint: 845.584000, Actual: 845.282168
2021/10/13 14:49:55	Tuning Thin Etalon		Setpoint: 845.584000, Actual: 845.282140
2021/10/13 14:49:55	Tuning Thin Etalon		Setpoint: 845.584000, Actual: 845.282134
2021/10/13 14:49:55	Tuning Thin Etalon		Setpoint: 845.584000, Actual: 845.282184
2021/10/13 14:49:56	Tuning Thin Etalon		Setpoint: 845.584000, Actual: 845.282177
2021/10/13 14:49:56	Tuning Thin Etalon		Setpoint: 845.584000, Actual: 845.282139
2021/10/13 14:49:56	Tuning Thin Etalon		Setpoint: 845.584000, Actual: 845.282106
2021/10/13 14:49:56	Tuning Thin Etalon		Setpoint: 845.584000, Actual: 845.282089
2021/10/13 14:49:56	Tuning Thin Etalon		Setpoint: 845.584000, Actual: 845.282128
2021/10/13 14:49:56	Tuning Thin Etalon		Setpoint: 845.584000, Actual: 845.282122
2021/10/13 14:49:56	Tuning Thin Etalon		Setpoint: 845.584000, Actual: 845.326055
2021/10/13 14:49:57	Tuning Thin Etalon		Setpoint: 845.584000, Actual: 845.326065
2021/10/13 14:49:57	Tuning Thin Etalon		Setpoint: 845.584000, Actual: 845.326032
2021/10/13 14:49:57	Tuning Thin Etalon		Setpoint: 845.584000, Actual: 845.326009
2021/10/13 14:49:57	Tuning Thin Etalon		Setpoint: 845.584000, Actual: 845.326094
2021/10/13 14:49:57	Tuning Thin Etalon		Setpoint: 845.584000, Actual: 845.326074
2021/10/13 14:49:57	Tuning Thin Etalon		Setpoint: 845.584000, Actual: 845.326049
2021/10/13 14:49:57	Tuning Thin Etalon		Setpoint: 845.584000, Actual: 845.326050
2021/10/13 14:49:58	Tuning Thin Etalon		Setpoint: 845.584000, Actual: 845.326043
2021/10/13 14:49:58	Tuning Thin Etalon		Setpoint: 845.584000, Actual: 845.326088
2021/10/13 14:49:58	Tuning Thin Etalon		Setpoint: 845.584000, Actual: 845.326059
2021/10/13 14:49:58	Tuning Thin Etalon		Setpoint: 845.584000, Actual: 845.326024
2021/10/13 14:49:58	Tuning Thin Etalon		Setpoint: 845.584000, Actual: 845.326007
2021/10/13 14:49:58	Tuning Thin Etalon		Setpoint: 845.584000, Actual: 845.326043
2021/10/13 14:49:58	Tuning Thin Etalon		Setpoint: 845.584000, Actual: 845.326022
2021/10/13 14:49:59	Tuning Thin Etalon		Setpoint: 845.584000, Actual: 845.326009
2021/10/13 14:49:59	Tuning Thin Etalon		Setpoint: 845.584000, Actual: 845.326024
2021/10/13 14:49:59	Tuning Thin Etalon		Setpoint: 845.584000, Actual: 845.326017
2021/10/13 14:49:59	Tuning Thin Etalon		Setpoint: 845.584000, Actual: 845.326049
2021/10/13 14:49:59	Tuning Thin Etalon		Setpoint: 845.584000, Actual: 845.369934
2021/10/13 14:49:59	Tuning Thin Etalon		Setpoint: 845.584000, Actual: 845.369924
2021/10/13 14:49:59	Tuning Thin Etalon		Setpoint: 845.584000, Actual: 845.369990
2021/10/13 14:50:00	Tuning Thin Etalon		Setpoint: 845.584000, Actual: 845.369975
2021/10/13 14:50:00	Tuning Thin Etalon		Setpoint: 845.584000, Actual: 845.369961
2021/10/13 14:50:00	Tuning Thin Etalon		Setpoint: 845.584000, Actual: 845.369964
2021/10/13 14:50:00	Tuning Thin Etalon		Setpoint: 845.584000, Actual: 845.370008
2021/10/13 14:50:00	Tuning Thin Etalon		Setpoint: 845.584000, Actual: 845.370006
2021/10/13 14:50:00	Tuning Thin Etalon		Setpoint: 845.584000, Actual: 845.369961
2021/10/13 14:50:00	Tuning Thin Etalon		Setpoint: 845.584000, Actual: 845.369922
2021/10/13 14:50:01	Tuning Thin Etalon		Setpoint: 845.584000, Actual: 845.369983
2021/10/13 14:50:01	Tuning Thin Etalon		Setpoint: 845.584000, Actual: 845.369970
2021/10/13 14:50:01	Tuning Thin Etalon		Setpoint: 845.584000, Actual: 845.369942
2021/10/13 14:50:01	Tuning Thin Etalon		Setpoint: 845.584000, Actual: 845.369958
2021/10/13 14:50:01	Tuning Thin Etalon		Setpoint: 845.584000, Actual: 845.369943
2021/10/13 14:50:01	Tuning Thin Etalon		Setpoint: 845.584000, Actual: 845.369981
2021/10/13 14:50:01	Tuning Thin Etalon		Setpoint: 845.584000, Actual: 845.369966
2021/10/13 14:50:02	Tuning Thin Etalon		Setpoint: 845.584000, Actual: 845.369930
2021/10/13 14:50:02	Tuning Thin Etalon		Setpoint: 845.584000, Actual: 845.369913
2021/10/13 14:50:02	Tuning Thin Etalon		Setpoint: 845.584000, Actual: 845.369967
2021/10/13 14:50:02	Tuning Thin Etalon		Setpoint: 845.584000, Actual: 845.369973
2021/10/13 14:50:02	Tuning Thin Etalon		Setpoint: 845.584000, Actual: 845.413872
2021/10/13 14:50:02	Tuning Thin Etalon		Setpoint: 845.584000, Actual: 845.413878
2021/10/13 14:50:02	Tuning Thin Etalon		Setpoint: 845.584000, Actual: 845.413868
2021/10/13 14:50:03	Tuning Thin Etalon		Setpoint: 845.584000, Actual: 845.413896
2021/10/13 14:50:03	Tuning Thin Etalon		Setpoint: 845.584000, Actual: 845.413859
2021/10/13 14:50:03	Tuning Thin Etalon		Setpoint: 845.584000, Actual: 845.413864
2021/10/13 14:50:03	Tuning Thin Etalon		Setpoint: 845.584000, Actual: 845.413899
2021/10/13 14:50:03	Tuning Thin Etalon		Setpoint: 845.584000, Actual: 845.413890
2021/10/13 14:50:03	Tuning Thin Etalon		Setpoint: 845.584000, Actual: 845.413902
2021/10/13 14:50:03	Tuning Thin Etalon		Setpoint: 845.584000, Actual: 845.413908
2021/10/13 14:50:03	Tuning Thin Etalon		Setpoint: 845.584000, Actual: 845.413879
2021/10/13 14:50:04	Tuning Thin Etalon		Setpoint: 845.584000, Actual: 845.413880
2021/10/13 14:50:04	Tuning Thin Etalon		Setpoint: 845.584000, Actual: 845.413916
2021/10/13 14:50:04	Tuning Thin Etalon		Setpoint: 845.584000, Actual: 845.413882
2021/10/13 14:50:04	Tuning Thin Etalon		Setpoint: 845.584000, Actual: 845.413879
2021/10/13 14:50:04	Tuning Thin Etalon		Setpoint: 845.584000, Actual: 845.413923
2021/10/13 14:50:04	Tuning Thin Etalon		Setpoint: 845.584000, Actual: 845.413918
2021/10/13 14:50:04	Tuning Thin Etalon		Setpoint: 845.584000, Actual: 845.413916
2021/10/13 14:50:05	Tuning Thin Etalon		Setpoint: 845.584000, Actual: 845.413937
2021/10/13 14:50:05	Tuning Thin Etalon		Setpoint: 845.584000, Actual: 845.457736
2021/10/13 14:50:05	Tuning Thin Etalon		Setpoint: 845.584000, Actual: 845.457730
2021/10/13 14:50:05	Tuning Thin Etalon		Setpoint: 845.584000, Actual: 845.457754
2021/10/13 14:50:05	Tuning Thin Etalon		Setpoint: 845.584000, Actual: 845.457745
2021/10/13 14:50:05	Tuning Thin Etalon		Setpoint: 845.584000, Actual: 845.457745
2021/10/13 14:50:05	Tuning Thin Etalon		Setpoint: 845.584000, Actual: 845.457766
2021/10/13 14:50:06	Tuning Thin Etalon		Setpoint: 845.584000, Actual: 845.457763
2021/10/13 14:50:06	Tuning Thin Etalon		Setpoint: 845.584000, Actual: 845.457762
2021/10/13 14:50:06	Tuning Thin Etalon		Setpoint: 845.584000, Actual: 845.457775
2021/10/13 14:50:06	Tuning Thin Etalon		Setpoint: 845.584000, Actual: 845.457747
2021/10/13 14:50:06	Tuning Thin Etalon		Setpoint: 845.584000, Actual: 845.457753
2021/10/13 14:50:06	Tuning Thin Etalon		Setpoint: 845.584000, Actual: 845.457780
2021/10/13 14:50:06	Tuning Thin Etalon		Setpoint: 845.584000, Actual: 845.457777
2021/10/13 14:50:07	Tuning Thin Etalon		Setpoint: 845.584000, Actual: 845.457788
2021/10/13 14:50:07	Tuning Thin Etalon		Setpoint: 845.584000, Actual: 845.457790
2021/10/13 14:50:07	Tuning Thin Etalon		Setpoint: 845.584000, Actual: 845.457765
2021/10/13 14:50:07	Tuning Thin Etalon		Setpoint: 845.584000, Actual: 845.457796
2021/10/13 14:50:07	Tuning Thin Etalon		Setpoint: 845.584000, Actual: 845.457788
2021/10/13 14:50:07	Tuning Thin Etalon		Setpoint: 845.584000, Actual: 845.457761
2021/10/13 14:50:07	Tuning Thin Etalon		Setpoint: 845.584000, Actual: 845.457803
2021/10/13 14:50:08	Tuning Thin Etalon		Setpoint: 845.584000, Actual: 845.457784
2021/10/13 14:50:08	Tuning Thin Etalon		Setpoint: 845.584000, Actual: 845.457804
2021/10/13 14:50:08	Tuning Thin Etalon		Setpoint: 845.584000, Actual: 845.457813
2021/10/13 14:50:08	Tuning Thin Etalon		Setpoint: 845.584000, Actual: 845.457794
2021/10/13 14:50:08	Tuning Thin Etalon		Setpoint: 845.584000, Actual: 845.457837
2021/10/13 14:50:08	Tuning Thin Etalon		Setpoint: 845.584000, Actual: 845.501623
2021/10/13 14:50:08	Tuning Thin Etalon		Setpoint: 845.584000, Actual: 845.501622
2021/10/13 14:50:08	Tuning Thin Etalon		Setpoint: 845.584000, Actual: 845.501628
2021/10/13 14:50:09	Tuning Thin Etalon		Setpoint: 845.584000, Actual: 845.501628
2021/10/13 14:50:09	Tuning Thin Etalon		Setpoint: 845.584000, Actual: 845.501630
2021/10/13 14:50:09	Tuning Thin Etalon		Setpoint: 845.584000, Actual: 845.501630
2021/10/13 14:50:09	Tuning Thin Etalon		Setpoint: 845.584000, Actual: 845.501632
2021/10/13 14:50:09	Tuning Thin Etalon		Setpoint: 845.584000, Actual: 845.501638
2021/10/13 14:50:09	Tuning Thin Etalon		Setpoint: 845.584000, Actual: 845.501636
2021/10/13 14:50:09	Tuning Thin Etalon		Setpoint: 845.584000, Actual: 845.501635
2021/10/13 14:50:10	Tuning Thin Etalon		Setpoint: 845.584000, Actual: 845.501642
2021/10/13 14:50:10	Tuning Thin Etalon		Setpoint: 845.584000, Actual: 845.501639
2021/10/13 14:50:10	Tuning Thin Etalon		Setpoint: 845.584000, Actual: 845.501641
2021/10/13 14:50:10	Tuning Thin Etalon		Setpoint: 845.584000, Actual: 845.501645
2021/10/13 14:50:10	Tuning Thin Etalon		Setpoint: 845.584000, Actual: 845.501644
2021/10/13 14:50:10	Tuning Thin Etalon		Setpoint: 845.584000, Actual: 845.501651
2021/10/13 14:50:10	Tuning Thin Etalon		Setpoint: 845.584000, Actual: 845.501654
2021/10/13 14:50:11	Tuning Thin Etalon		Setpoint: 845.584000, Actual: 845.501650
2021/10/13 14:50:11	Tuning Thin Etalon		Setpoint: 845.584000, Actual: 845.501681
2021/10/13 14:50:11	Tuning Thin Etalon		Setpoint: 845.584000, Actual: 845.545482
2021/10/13 14:50:11	Tuning Thin Etalon		Setpoint: 845.584000, Actual: 845.545474
2021/10/13 14:50:11	Tuning Thin Etalon		Setpoint: 845.584000, Actual: 845.545496
2021/10/13 14:50:11	Tuning Thin Etalon		Setpoint: 845.584000, Actual: 845.545498
2021/10/13 14:50:11	Tuning Thin Etalon		Setpoint: 845.584000, Actual: 845.545478
2021/10/13 14:50:12	Tuning Thin Etalon		Setpoint: 845.584000, Actual: 845.545496
2021/10/13 14:50:12	Tuning Thin Etalon		Setpoint: 845.584000, Actual: 845.545510
2021/10/13 14:50:12	Tuning Thin Etalon		Setpoint: 845.584000, Actual: 845.545487
2021/10/13 14:50:12	Tuning Thin Etalon		Setpoint: 845.584000, Actual: 845.545507
2021/10/13 14:50:12	Tuning Thin Etalon		Setpoint: 845.584000, Actual: 845.545486
2021/10/13 14:50:12	Tuning Thin Etalon		Setpoint: 845.584000, Actual: 845.545491
2021/10/13 14:50:12	Tuning Thin Etalon		Setpoint: 845.584000, Actual: 845.545501
2021/10/13 14:50:13	Tuning Thin Etalon		Setpoint: 845.584000, Actual: 845.545491
2021/10/13 14:50:13	Tuning Thin Etalon		Setpoint: 845.584000, Actual: 845.545509
2021/10/13 14:50:13	Tuning Thin Etalon		Setpoint: 845.584000, Actual: 845.545520
2021/10/13 14:50:13	Tuning Thin Etalon		Setpoint: 845.584000, Actual: 845.545496
2021/10/13 14:50:13	Tuning Thin Etalon		Setpoint: 845.584000, Actual: 845.545509
2021/10/13 14:50:13	Tuning Thin Etalon		Setpoint: 845.584000, Actual: 845.545510
2021/10/13 14:50:13	Tuning Thin Etalon		Setpoint: 845.584000, Actual: 845.545503
2021/10/13 14:50:14	Tuning Thin Etalon		Setpoint: 845.584000, Actual: 845.545524
2021/10/13 14:50:14	Tuning Thin Etalon		Setpoint: 845.584000, Actual: 845.545536
2021/10/13 14:50:14	Tuning Thin Etalon		Setpoint: 845.584000, Actual: 845.545520
2021/10/13 14:50:14	Tuning Thin Etalon		Setpoint: 845.584000, Actual: 845.589383
2021/10/13 14:50:14	Tuning Thin Etalon		Setpoint: 845.584000, Actual: 845.589386
2021/10/13 14:50:14	Tuning Thin Etalon		Setpoint: 845.584000, Actual: 845.589346
2021/10/13 14:50:14	Tuning Thin Etalon		Setpoint: 845.584000, Actual: 845.589356
2021/10/13 14:50:15	Tuning Thin Etalon		Setpoint: 845.584000, Actual: 845.589335
2021/10/13 14:50:15	Tuning Thin Etalon		Setpoint: 845.584000, Actual: 845.589354
2021/10/13 14:50:15	Tuning Thin Etalon		Setpoint: 845.584000, Actual: 845.589397
2021/10/13 14:50:15	Tuning Thin Etalon		Setpoint: 845.584000, Actual: 845.589349
2021/10/13 14:50:15	Tuning Thin Etalon		Setpoint: 845.584000, Actual: 845.589355
2021/10/13 14:50:15	Tuning Thin Etalon		Setpoint: 845.584000, Actual: 845.589388
2021/10/13 14:50:15	Tuning Thin Etalon		Setpoint: 845.584000, Actual: 845.589371
2021/10/13 14:50:16	Tuning Thin Etalon		Setpoint: 845.584000, Actual: 845.589360
2021/10/13 14:50:16	Tuning Thin Etalon		Setpoint: 845.584000, Actual: 845.589382
2021/10/13 14:50:16	Tuning Thin Etalon		Setpoint: 845.584000, Actual: 845.589348
2021/10/13 14:50:16	Tuning Thin Etalon		Setpoint: 845.584000, Actual: 845.589384
2021/10/13 14:50:16	Tuning Thin Etalon		Setpoint: 845.584000, Actual: 845.589421
2021/10/13 14:50:16	Tuning Thin Etalon		Setpoint: 845.584000, Actual: 845.589374
2021/10/13 14:50:16	Tuning Thin Etalon		Setpoint: 845.584000, Actual: 845.589403
2021/10/13 14:50:16	Tuning Thin Etalon		Setpoint: 845.584000, Actual: 845.589410
2021/10/13 14:50:17	Tuning Thin Etalon		Setpoint: 845.584000, Actual: 845.589373
2021/10/13 14:50:17	Tuning Thin Etalon		Setpoint: 845.584000, Actual: 845.589411
2021/10/13 14:50:17	Tuning Thin Etalon		Setpoint: 845.584000, Actual: 845.589383
2021/10/13 14:50:17	Tuning Thin Etalon		Setpoint: 845.584000, Actual: 845.589412
2021/10/13 14:50:17	Tuning Thin Etalon		Setpoint: 845.584000, Actual: 845.633474
2021/10/13 14:50:17	Tuning Thin Etalon		Setpoint: 845.584000, Actual: 845.633508
2021/10/13 14:50:17	Tuning Thin Etalon		Setpoint: 845.584000, Actual: 845.633507
2021/10/13 14:50:18	Tuning Thin Etalon		Setpoint: 845.584000, Actual: 845.633507
2021/10/13 14:50:18	Tuning Thin Etalon		Setpoint: 845.584000, Actual: 845.633547
2021/10/13 14:50:18	Tuning Thin Etalon		Setpoint: 845.584000, Actual: 845.633525
2021/10/13 14:50:18	Tuning Thin Etalon		Setpoint: 845.584000, Actual: 845.633495
2021/10/13 14:50:18	Tuning Thin Etalon		Setpoint: 845.584000, Actual: 845.633545
2021/10/13 14:50:18	Tuning Thin Etalon		Setpoint: 845.584000, Actual: 845.633497
2021/10/13 14:50:18	Tuning Thin Etalon		Setpoint: 845.584000, Actual: 845.633462
2021/10/13 14:50:19	Tuning Thin Etalon		Setpoint: 845.584000, Actual: 845.633549
2021/10/13 14:50:19	Tuning Thin Etalon		Setpoint: 845.584000, Actual: 845.633523
2021/10/13 14:50:19	Tuning Thin Etalon		Setpoint: 845.584000, Actual: 845.633537
2021/10/13 14:50:19	Tuning Thin Etalon		Setpoint: 845.584000, Actual: 845.633560
2021/10/13 14:50:19	Tuning Thin Etalon		Setpoint: 845.584000, Actual: 845.633228
2021/10/13 14:50:19	Tuning Thin Etalon		Setpoint: 845.584000, Actual: 845.150667
2021/10/13 14:50:19	Tuning Thin Etalon		Setpoint: 845.584000, Actual: 845.150643
2021/10/13 14:50:20	Tuning Thin Etalon		Setpoint: 845.584000, Actual: NaN
2021/10/13 14:50:20	Tuning Thin Etalon		Setpoint: 845.584000, Actual: NaN
2021/10/13 14:50:20	Tuning Thin Etalon		Setpoint: 845.584000, Actual: NaN
2021/10/13 14:50:20	Tuning Thin Etalon		Setpoint: 845.584000, Actual: 845.150667
2021/10/13 14:50:20	Tuning Thin Etalon		Setpoint: 845.584000, Actual: 845.150644
2021/10/13 14:50:20	Tuning Thin Etalon		Setpoint: 845.584000, Actual: 845.677408
2021/10/13 14:50:20	Tuning Thin Etalon		Setpoint: 845.584000, Actual: 845.677310
2021/10/13 14:50:21	Tuning Thin Etalon		Setpoint: 845.584000, Actual: 845.677370
2021/10/13 14:50:21	Tuning Thin Etalon		Setpoint: 845.584000, Actual: 845.677392
2021/10/13 14:50:21	Tuning Thin Etalon		Setpoint: 845.584000, Actual: 845.677414
2021/10/13 14:50:21	Tuning Thin Etalon		Setpoint: 845.584000, Actual: 845.677336
2021/10/13 14:50:21	Tuning Thin Etalon		Setpoint: 845.584000, Actual: 845.677411
2021/10/13 14:50:21	Tuning Thin Etalon		Setpoint: 845.584000, Actual: 845.677388
2021/10/13 14:50:21	Tuning Thin Etalon		Setpoint: 845.584000, Actual: 845.677419
2021/10/13 14:50:22	Tuning Thin Etalon		Setpoint: 845.584000, Actual: 845.677421
2021/10/13 14:50:22	Tuning Thin Etalon		Setpoint: 845.584000, Actual: 845.677421
2021/10/13 14:50:22	Tuning Thin Etalon		Setpoint: 845.584000, Actual: 845.677425
2021/10/13 14:50:22	Tuning Thin Etalon		Setpoint: 845.584000, Actual: 845.677425
2021/10/13 14:50:22	Tuning Thin Etalon		Setpoint: 845.584000, Actual: 845.677418
2021/10/13 14:50:22	Tuning Thin Etalon		Setpoint: 845.584000, Actual: 845.677398
2021/10/13 14:50:22	Tuning Thin Etalon		Setpoint: 845.584000, Actual: 845.677429
2021/10/13 14:50:23	Tuning Thin Etalon		Setpoint: 845.584000, Actual: 845.677432
2021/10/13 14:50:23	Tuning Thin Etalon		Setpoint: 845.584000, Actual: 845.677432
2021/10/13 14:50:23	Thin Etalon Motor: 13300, Wavelength: 845.589377, Flank:Right	Setpoint: 845.584000, Actual: 845.589436
2021/10/13 14:50:24	Tuning Piezo Etalon	Setpoint: 845.584000, Actual: 845.589437
2021/10/13 15:04:48	AutoLock Mode On		Setpoint: 845.584000, Actual: 845.583529
2021/10/13 15:04:48	Tuning Piezo Etalon	Setpoint: 845.584000, Actual: 845.583530
2021/10/13 15:07:37	AutoLock Mode Off		Setpoint: 845.584000, Actual: 845.583523
2021/10/13 15:28:35	Tuning Piezo Etalon	Setpoint: 845.584000, Actual: 845.584260
2021/10/13 15:32:07	Setpoint Updated		Setpoint: 845.584000, Actual: 845.584325
2021/10/13 15:32:13	Setpoint Updated		Setpoint: 845.584000, Actual: 845.584001
2021/10/13 15:32:14	Setpoint Updated		Setpoint: 845.584100, Actual: 845.584100
2021/10/13 15:32:16	Setpoint Updated		Setpoint: 845.584200, Actual: 845.584199
2021/10/13 15:32:16	Setpoint Updated		Setpoint: 845.584100, Actual: 845.584165
2021/10/13 15:33:05	Setpoint Updated		Setpoint: 845.584100, Actual: 845.584000
2021/10/13 15:33:05	Setpoint Updated		Setpoint: 845.584200, Actual: 845.584113
2021/10/13 15:33:05	Setpoint Updated		Setpoint: 845.584300, Actual: 845.584166
2021/10/13 15:33:05	Setpoint Updated		Setpoint: 845.584400, Actual: 845.584294
2021/10/13 15:33:06	Setpoint Updated		Setpoint: 845.584500, Actual: 845.584401
2021/10/13 15:33:06	Setpoint Updated		Setpoint: 845.584600, Actual: 845.584428
2021/10/13 15:33:06	Setpoint Updated		Setpoint: 845.584700, Actual: 845.584572
2021/10/13 15:33:07	Setpoint Updated		Setpoint: 845.584600, Actual: 845.584702
2021/10/13 15:33:08	Setpoint Updated		Setpoint: 845.584500, Actual: 845.584634
2021/10/13 15:33:08	Setpoint Updated		Setpoint: 845.584400, Actual: 845.584513
2021/10/13 15:33:08	Setpoint Updated		Setpoint: 845.584300, Actual: 845.584452
2021/10/13 15:33:08	Setpoint Updated		Setpoint: 845.584200, Actual: 845.584288
2021/10/13 15:33:08	Setpoint Updated		Setpoint: 845.584100, Actual: 845.584280
2021/10/13 15:33:08	Setpoint Updated		Setpoint: 845.584000, Actual: 845.584161
2021/10/13 15:33:09	Setpoint Updated		Setpoint: 845.583900, Actual: 845.584000
2021/10/13 15:33:10	Setpoint Updated		Setpoint: 845.584000, Actual: 845.583899
2021/10/13 16:02:08	Program Exited			Setpoint: 845.584000, Actual: 845.584000
