G04 #@! TF.GenerationSoftware,KiCad,Pcbnew,5.0.2-bee76a0~70~ubuntu18.04.1*
G04 #@! TF.CreationDate,2019-07-04T09:06:03+01:00*
G04 #@! TF.ProjectId,High Current Circuit,48696768-2043-4757-9272-656e74204369,rev?*
G04 #@! TF.SameCoordinates,Original*
G04 #@! TF.FileFunction,Copper,L2,Bot*
G04 #@! TF.FilePolarity,Positive*
%FSLAX46Y46*%
G04 Gerber Fmt 4.6, Leading zero omitted, Abs format (unit mm)*
G04 Created by KiCad (PCBNEW 5.0.2-bee76a0~70~ubuntu18.04.1) date Thu 04 Jul 2019 09:06:03 BST*
%MOMM*%
%LPD*%
G01*
G04 APERTURE LIST*
G04 #@! TA.AperFunction,ComponentPad*
%ADD10O,1.700000X1.950000*%
G04 #@! TD*
G04 #@! TA.AperFunction,Conductor*
%ADD11C,0.100000*%
G04 #@! TD*
G04 #@! TA.AperFunction,ComponentPad*
%ADD12C,1.700000*%
G04 #@! TD*
G04 #@! TA.AperFunction,ComponentPad*
%ADD13O,1.700000X2.000000*%
G04 #@! TD*
G04 #@! TA.AperFunction,ComponentPad*
%ADD14C,1.600000*%
G04 #@! TD*
G04 #@! TA.AperFunction,ComponentPad*
%ADD15O,1.950000X1.700000*%
G04 #@! TD*
G04 #@! TA.AperFunction,ComponentPad*
%ADD16R,1.600000X1.600000*%
G04 #@! TD*
G04 #@! TA.AperFunction,ComponentPad*
%ADD17O,1.600000X1.600000*%
G04 #@! TD*
G04 #@! TA.AperFunction,ComponentPad*
%ADD18O,2.000000X1.700000*%
G04 #@! TD*
G04 #@! TA.AperFunction,Conductor*
%ADD19C,2.000000*%
G04 #@! TD*
G04 #@! TA.AperFunction,Conductor*
%ADD20C,0.800000*%
G04 #@! TD*
G04 #@! TA.AperFunction,Conductor*
%ADD21C,1.200000*%
G04 #@! TD*
G04 #@! TA.AperFunction,Conductor*
%ADD22C,0.254000*%
G04 #@! TD*
G04 APERTURE END LIST*
D10*
G04 #@! TO.P,12VSupply1,3*
G04 #@! TO.N,-12V*
X88916500Y-111887000D03*
G04 #@! TO.P,12VSupply1,2*
G04 #@! TO.N,0V*
X91416500Y-111887000D03*
D11*
G04 #@! TD*
G04 #@! TO.N,+12V*
G04 #@! TO.C,12VSupply1*
G36*
X94541004Y-110913204D02*
X94565273Y-110916804D01*
X94589071Y-110922765D01*
X94612171Y-110931030D01*
X94634349Y-110941520D01*
X94655393Y-110954133D01*
X94675098Y-110968747D01*
X94693277Y-110985223D01*
X94709753Y-111003402D01*
X94724367Y-111023107D01*
X94736980Y-111044151D01*
X94747470Y-111066329D01*
X94755735Y-111089429D01*
X94761696Y-111113227D01*
X94765296Y-111137496D01*
X94766500Y-111162000D01*
X94766500Y-112612000D01*
X94765296Y-112636504D01*
X94761696Y-112660773D01*
X94755735Y-112684571D01*
X94747470Y-112707671D01*
X94736980Y-112729849D01*
X94724367Y-112750893D01*
X94709753Y-112770598D01*
X94693277Y-112788777D01*
X94675098Y-112805253D01*
X94655393Y-112819867D01*
X94634349Y-112832480D01*
X94612171Y-112842970D01*
X94589071Y-112851235D01*
X94565273Y-112857196D01*
X94541004Y-112860796D01*
X94516500Y-112862000D01*
X93316500Y-112862000D01*
X93291996Y-112860796D01*
X93267727Y-112857196D01*
X93243929Y-112851235D01*
X93220829Y-112842970D01*
X93198651Y-112832480D01*
X93177607Y-112819867D01*
X93157902Y-112805253D01*
X93139723Y-112788777D01*
X93123247Y-112770598D01*
X93108633Y-112750893D01*
X93096020Y-112729849D01*
X93085530Y-112707671D01*
X93077265Y-112684571D01*
X93071304Y-112660773D01*
X93067704Y-112636504D01*
X93066500Y-112612000D01*
X93066500Y-111162000D01*
X93067704Y-111137496D01*
X93071304Y-111113227D01*
X93077265Y-111089429D01*
X93085530Y-111066329D01*
X93096020Y-111044151D01*
X93108633Y-111023107D01*
X93123247Y-111003402D01*
X93139723Y-110985223D01*
X93157902Y-110968747D01*
X93177607Y-110954133D01*
X93198651Y-110941520D01*
X93220829Y-110931030D01*
X93243929Y-110922765D01*
X93267727Y-110916804D01*
X93291996Y-110913204D01*
X93316500Y-110912000D01*
X94516500Y-110912000D01*
X94541004Y-110913204D01*
X94541004Y-110913204D01*
G37*
D12*
G04 #@! TO.P,12VSupply1,1*
G04 #@! TO.N,+12V*
X93916500Y-111887000D03*
G04 #@! TD*
D13*
G04 #@! TO.P,80VSupply1,2*
G04 #@! TO.N,0V*
X105323000Y-86741000D03*
D11*
G04 #@! TD*
G04 #@! TO.N,+80V*
G04 #@! TO.C,80VSupply1*
G36*
X108447504Y-85742204D02*
X108471773Y-85745804D01*
X108495571Y-85751765D01*
X108518671Y-85760030D01*
X108540849Y-85770520D01*
X108561893Y-85783133D01*
X108581598Y-85797747D01*
X108599777Y-85814223D01*
X108616253Y-85832402D01*
X108630867Y-85852107D01*
X108643480Y-85873151D01*
X108653970Y-85895329D01*
X108662235Y-85918429D01*
X108668196Y-85942227D01*
X108671796Y-85966496D01*
X108673000Y-85991000D01*
X108673000Y-87491000D01*
X108671796Y-87515504D01*
X108668196Y-87539773D01*
X108662235Y-87563571D01*
X108653970Y-87586671D01*
X108643480Y-87608849D01*
X108630867Y-87629893D01*
X108616253Y-87649598D01*
X108599777Y-87667777D01*
X108581598Y-87684253D01*
X108561893Y-87698867D01*
X108540849Y-87711480D01*
X108518671Y-87721970D01*
X108495571Y-87730235D01*
X108471773Y-87736196D01*
X108447504Y-87739796D01*
X108423000Y-87741000D01*
X107223000Y-87741000D01*
X107198496Y-87739796D01*
X107174227Y-87736196D01*
X107150429Y-87730235D01*
X107127329Y-87721970D01*
X107105151Y-87711480D01*
X107084107Y-87698867D01*
X107064402Y-87684253D01*
X107046223Y-87667777D01*
X107029747Y-87649598D01*
X107015133Y-87629893D01*
X107002520Y-87608849D01*
X106992030Y-87586671D01*
X106983765Y-87563571D01*
X106977804Y-87539773D01*
X106974204Y-87515504D01*
X106973000Y-87491000D01*
X106973000Y-85991000D01*
X106974204Y-85966496D01*
X106977804Y-85942227D01*
X106983765Y-85918429D01*
X106992030Y-85895329D01*
X107002520Y-85873151D01*
X107015133Y-85852107D01*
X107029747Y-85832402D01*
X107046223Y-85814223D01*
X107064402Y-85797747D01*
X107084107Y-85783133D01*
X107105151Y-85770520D01*
X107127329Y-85760030D01*
X107150429Y-85751765D01*
X107174227Y-85745804D01*
X107198496Y-85742204D01*
X107223000Y-85741000D01*
X108423000Y-85741000D01*
X108447504Y-85742204D01*
X108447504Y-85742204D01*
G37*
D12*
G04 #@! TO.P,80VSupply1,1*
G04 #@! TO.N,+80V*
X107823000Y-86741000D03*
G04 #@! TD*
D14*
G04 #@! TO.P,C1,2*
G04 #@! TO.N,0V*
X81367000Y-91059000D03*
G04 #@! TO.P,C1,1*
G04 #@! TO.N,Vcontrol*
X78867000Y-91059000D03*
G04 #@! TD*
G04 #@! TO.P,C2,1*
G04 #@! TO.N,Net-(C2-Pad1)*
X101727000Y-94551500D03*
G04 #@! TO.P,C2,2*
G04 #@! TO.N,Net-(C2-Pad2)*
X99227000Y-94551500D03*
G04 #@! TD*
G04 #@! TO.P,C-OPA+1,1*
G04 #@! TO.N,0V*
X100584000Y-100520500D03*
G04 #@! TO.P,C-OPA+1,2*
G04 #@! TO.N,+12V*
X98084000Y-100520500D03*
G04 #@! TD*
G04 #@! TO.P,C-OPA-1,2*
G04 #@! TO.N,0V*
X82272500Y-105664000D03*
G04 #@! TO.P,C-OPA-1,1*
G04 #@! TO.N,-12V*
X84772500Y-105664000D03*
G04 #@! TD*
D11*
G04 #@! TO.N,Net-(MOSFET1-Pad1)*
G04 #@! TO.C,MOSFET1*
G36*
X119748504Y-93782704D02*
X119772773Y-93786304D01*
X119796571Y-93792265D01*
X119819671Y-93800530D01*
X119841849Y-93811020D01*
X119862893Y-93823633D01*
X119882598Y-93838247D01*
X119900777Y-93854723D01*
X119917253Y-93872902D01*
X119931867Y-93892607D01*
X119944480Y-93913651D01*
X119954970Y-93935829D01*
X119963235Y-93958929D01*
X119969196Y-93982727D01*
X119972796Y-94006996D01*
X119974000Y-94031500D01*
X119974000Y-95231500D01*
X119972796Y-95256004D01*
X119969196Y-95280273D01*
X119963235Y-95304071D01*
X119954970Y-95327171D01*
X119944480Y-95349349D01*
X119931867Y-95370393D01*
X119917253Y-95390098D01*
X119900777Y-95408277D01*
X119882598Y-95424753D01*
X119862893Y-95439367D01*
X119841849Y-95451980D01*
X119819671Y-95462470D01*
X119796571Y-95470735D01*
X119772773Y-95476696D01*
X119748504Y-95480296D01*
X119724000Y-95481500D01*
X118274000Y-95481500D01*
X118249496Y-95480296D01*
X118225227Y-95476696D01*
X118201429Y-95470735D01*
X118178329Y-95462470D01*
X118156151Y-95451980D01*
X118135107Y-95439367D01*
X118115402Y-95424753D01*
X118097223Y-95408277D01*
X118080747Y-95390098D01*
X118066133Y-95370393D01*
X118053520Y-95349349D01*
X118043030Y-95327171D01*
X118034765Y-95304071D01*
X118028804Y-95280273D01*
X118025204Y-95256004D01*
X118024000Y-95231500D01*
X118024000Y-94031500D01*
X118025204Y-94006996D01*
X118028804Y-93982727D01*
X118034765Y-93958929D01*
X118043030Y-93935829D01*
X118053520Y-93913651D01*
X118066133Y-93892607D01*
X118080747Y-93872902D01*
X118097223Y-93854723D01*
X118115402Y-93838247D01*
X118135107Y-93823633D01*
X118156151Y-93811020D01*
X118178329Y-93800530D01*
X118201429Y-93792265D01*
X118225227Y-93786304D01*
X118249496Y-93782704D01*
X118274000Y-93781500D01*
X119724000Y-93781500D01*
X119748504Y-93782704D01*
X119748504Y-93782704D01*
G37*
D12*
G04 #@! TD*
G04 #@! TO.P,MOSFET1,1*
G04 #@! TO.N,Net-(MOSFET1-Pad1)*
X118999000Y-94631500D03*
D15*
G04 #@! TO.P,MOSFET1,2*
G04 #@! TO.N,Net-(MOSFET1-Pad2)*
X118999000Y-97131500D03*
G04 #@! TO.P,MOSFET1,3*
G04 #@! TO.N,Net-(C2-Pad2)*
X118999000Y-99631500D03*
G04 #@! TD*
D16*
G04 #@! TO.P,OPA1,1*
G04 #@! TO.N,Net-(OPA1-Pad1)*
X87630000Y-97917000D03*
D17*
G04 #@! TO.P,OPA1,5*
G04 #@! TO.N,Net-(OPA1-Pad5)*
X95250000Y-105537000D03*
G04 #@! TO.P,OPA1,2*
G04 #@! TO.N,Net-(C2-Pad2)*
X87630000Y-100457000D03*
G04 #@! TO.P,OPA1,6*
G04 #@! TO.N,Net-(C2-Pad1)*
X95250000Y-102997000D03*
G04 #@! TO.P,OPA1,3*
G04 #@! TO.N,Vcontrol*
X87630000Y-102997000D03*
G04 #@! TO.P,OPA1,7*
G04 #@! TO.N,+12V*
X95250000Y-100457000D03*
G04 #@! TO.P,OPA1,4*
G04 #@! TO.N,-12V*
X87630000Y-105537000D03*
G04 #@! TO.P,OPA1,8*
G04 #@! TO.N,Net-(OPA1-Pad8)*
X95250000Y-97917000D03*
G04 #@! TD*
D14*
G04 #@! TO.P,PowerResistor1,1*
G04 #@! TO.N,Net-(C2-Pad2)*
X117983000Y-105664000D03*
D17*
G04 #@! TO.P,PowerResistor1,2*
G04 #@! TO.N,0V*
X110363000Y-105664000D03*
G04 #@! TD*
G04 #@! TO.P,R_MOSFET1,2*
G04 #@! TO.N,Net-(C2-Pad1)*
X105537000Y-94615000D03*
D14*
G04 #@! TO.P,R_MOSFET1,1*
G04 #@! TO.N,Net-(MOSFET1-Pad1)*
X113157000Y-94615000D03*
G04 #@! TD*
D11*
G04 #@! TO.N,Net-(MOSFET1-Pad2)*
G04 #@! TO.C,RLoad1*
G36*
X119052004Y-85805704D02*
X119076273Y-85809304D01*
X119100071Y-85815265D01*
X119123171Y-85823530D01*
X119145349Y-85834020D01*
X119166393Y-85846633D01*
X119186098Y-85861247D01*
X119204277Y-85877723D01*
X119220753Y-85895902D01*
X119235367Y-85915607D01*
X119247980Y-85936651D01*
X119258470Y-85958829D01*
X119266735Y-85981929D01*
X119272696Y-86005727D01*
X119276296Y-86029996D01*
X119277500Y-86054500D01*
X119277500Y-87554500D01*
X119276296Y-87579004D01*
X119272696Y-87603273D01*
X119266735Y-87627071D01*
X119258470Y-87650171D01*
X119247980Y-87672349D01*
X119235367Y-87693393D01*
X119220753Y-87713098D01*
X119204277Y-87731277D01*
X119186098Y-87747753D01*
X119166393Y-87762367D01*
X119145349Y-87774980D01*
X119123171Y-87785470D01*
X119100071Y-87793735D01*
X119076273Y-87799696D01*
X119052004Y-87803296D01*
X119027500Y-87804500D01*
X117827500Y-87804500D01*
X117802996Y-87803296D01*
X117778727Y-87799696D01*
X117754929Y-87793735D01*
X117731829Y-87785470D01*
X117709651Y-87774980D01*
X117688607Y-87762367D01*
X117668902Y-87747753D01*
X117650723Y-87731277D01*
X117634247Y-87713098D01*
X117619633Y-87693393D01*
X117607020Y-87672349D01*
X117596530Y-87650171D01*
X117588265Y-87627071D01*
X117582304Y-87603273D01*
X117578704Y-87579004D01*
X117577500Y-87554500D01*
X117577500Y-86054500D01*
X117578704Y-86029996D01*
X117582304Y-86005727D01*
X117588265Y-85981929D01*
X117596530Y-85958829D01*
X117607020Y-85936651D01*
X117619633Y-85915607D01*
X117634247Y-85895902D01*
X117650723Y-85877723D01*
X117668902Y-85861247D01*
X117688607Y-85846633D01*
X117709651Y-85834020D01*
X117731829Y-85823530D01*
X117754929Y-85815265D01*
X117778727Y-85809304D01*
X117802996Y-85805704D01*
X117827500Y-85804500D01*
X119027500Y-85804500D01*
X119052004Y-85805704D01*
X119052004Y-85805704D01*
G37*
D12*
G04 #@! TD*
G04 #@! TO.P,RLoad1,1*
G04 #@! TO.N,Net-(MOSFET1-Pad2)*
X118427500Y-86804500D03*
D13*
G04 #@! TO.P,RLoad1,2*
G04 #@! TO.N,+80V*
X115927500Y-86804500D03*
G04 #@! TD*
D11*
G04 #@! TO.N,Vcontrol*
G04 #@! TO.C,Vcontrol1*
G36*
X80062504Y-95163204D02*
X80086773Y-95166804D01*
X80110571Y-95172765D01*
X80133671Y-95181030D01*
X80155849Y-95191520D01*
X80176893Y-95204133D01*
X80196598Y-95218747D01*
X80214777Y-95235223D01*
X80231253Y-95253402D01*
X80245867Y-95273107D01*
X80258480Y-95294151D01*
X80268970Y-95316329D01*
X80277235Y-95339429D01*
X80283196Y-95363227D01*
X80286796Y-95387496D01*
X80288000Y-95412000D01*
X80288000Y-96612000D01*
X80286796Y-96636504D01*
X80283196Y-96660773D01*
X80277235Y-96684571D01*
X80268970Y-96707671D01*
X80258480Y-96729849D01*
X80245867Y-96750893D01*
X80231253Y-96770598D01*
X80214777Y-96788777D01*
X80196598Y-96805253D01*
X80176893Y-96819867D01*
X80155849Y-96832480D01*
X80133671Y-96842970D01*
X80110571Y-96851235D01*
X80086773Y-96857196D01*
X80062504Y-96860796D01*
X80038000Y-96862000D01*
X78538000Y-96862000D01*
X78513496Y-96860796D01*
X78489227Y-96857196D01*
X78465429Y-96851235D01*
X78442329Y-96842970D01*
X78420151Y-96832480D01*
X78399107Y-96819867D01*
X78379402Y-96805253D01*
X78361223Y-96788777D01*
X78344747Y-96770598D01*
X78330133Y-96750893D01*
X78317520Y-96729849D01*
X78307030Y-96707671D01*
X78298765Y-96684571D01*
X78292804Y-96660773D01*
X78289204Y-96636504D01*
X78288000Y-96612000D01*
X78288000Y-95412000D01*
X78289204Y-95387496D01*
X78292804Y-95363227D01*
X78298765Y-95339429D01*
X78307030Y-95316329D01*
X78317520Y-95294151D01*
X78330133Y-95273107D01*
X78344747Y-95253402D01*
X78361223Y-95235223D01*
X78379402Y-95218747D01*
X78399107Y-95204133D01*
X78420151Y-95191520D01*
X78442329Y-95181030D01*
X78465429Y-95172765D01*
X78489227Y-95166804D01*
X78513496Y-95163204D01*
X78538000Y-95162000D01*
X80038000Y-95162000D01*
X80062504Y-95163204D01*
X80062504Y-95163204D01*
G37*
D12*
G04 #@! TD*
G04 #@! TO.P,Vcontrol1,1*
G04 #@! TO.N,Vcontrol*
X79288000Y-96012000D03*
D18*
G04 #@! TO.P,Vcontrol1,2*
G04 #@! TO.N,0V*
X79288000Y-98512000D03*
G04 #@! TD*
D19*
G04 #@! TO.N,+80V*
X115864000Y-86741000D02*
X115927500Y-86804500D01*
X107823000Y-86741000D02*
X115864000Y-86741000D01*
D20*
G04 #@! TO.N,Vcontrol*
X80388000Y-96012000D02*
X84836000Y-100460000D01*
X79288000Y-96012000D02*
X80388000Y-96012000D01*
X84836000Y-100460000D02*
X84836000Y-101473000D01*
X86360000Y-102997000D02*
X87630000Y-102997000D01*
X84836000Y-101473000D02*
X86360000Y-102997000D01*
X78867000Y-91059000D02*
X78867000Y-93726000D01*
X79288000Y-94147000D02*
X79288000Y-96012000D01*
X78867000Y-93726000D02*
X79288000Y-94147000D01*
D21*
G04 #@! TO.N,-12V*
X88916500Y-109712000D02*
X87566500Y-108362000D01*
X88916500Y-111887000D02*
X88916500Y-109712000D01*
X87630000Y-108298500D02*
X87630000Y-105537000D01*
X87566500Y-108362000D02*
X87630000Y-108298500D01*
X87503000Y-105664000D02*
X87630000Y-105537000D01*
X84772500Y-105664000D02*
X87503000Y-105664000D01*
G04 #@! TO.N,+12V*
X93916500Y-111887000D02*
X93916500Y-109156500D01*
X93916500Y-109156500D02*
X92519500Y-107759500D01*
X92519500Y-107759500D02*
X92519500Y-101663500D01*
X93726000Y-100457000D02*
X95250000Y-100457000D01*
X92519500Y-101663500D02*
X93726000Y-100457000D01*
X98020500Y-100457000D02*
X98084000Y-100520500D01*
X95250000Y-100457000D02*
X98020500Y-100457000D01*
D20*
G04 #@! TO.N,Net-(C2-Pad1)*
X95250000Y-102997000D02*
X102235000Y-102997000D01*
X102235000Y-102997000D02*
X103695500Y-101536500D01*
X103695500Y-101536500D02*
X103822500Y-101409500D01*
X103695500Y-101536500D02*
X105537000Y-99695000D01*
X105473500Y-94551500D02*
X105537000Y-94615000D01*
X101727000Y-94551500D02*
X105473500Y-94551500D01*
X105537000Y-99695000D02*
X105537000Y-94615000D01*
G04 #@! TO.N,Net-(C2-Pad2)*
X93535500Y-94551500D02*
X99227000Y-94551500D01*
X87630000Y-100457000D02*
X93535500Y-94551500D01*
X99227000Y-93420130D02*
X100445130Y-92202000D01*
X99227000Y-94551500D02*
X99227000Y-93420130D01*
X100445130Y-92202000D02*
X106235500Y-92202000D01*
X106235500Y-92202000D02*
X106299000Y-92138500D01*
X106299000Y-92138500D02*
X107124500Y-92138500D01*
X107124500Y-92138500D02*
X110045500Y-95059500D01*
X110045500Y-95059500D02*
X110045500Y-97409000D01*
X112268000Y-99631500D02*
X118999000Y-99631500D01*
X110045500Y-97409000D02*
X112268000Y-99631500D01*
D19*
X118999000Y-99631500D02*
X118999000Y-102870000D01*
X118999000Y-102870000D02*
X117983000Y-103886000D01*
X117983000Y-103886000D02*
X117983000Y-105664000D01*
D20*
G04 #@! TO.N,Net-(MOSFET1-Pad1)*
X118982500Y-94615000D02*
X118999000Y-94631500D01*
X113157000Y-94615000D02*
X118982500Y-94615000D01*
D19*
G04 #@! TO.N,Net-(MOSFET1-Pad2)*
X121245000Y-97131500D02*
X118999000Y-97131500D01*
X121920000Y-96456500D02*
X121245000Y-97131500D01*
X121920000Y-87884000D02*
X121920000Y-96456500D01*
X118427500Y-86804500D02*
X120840500Y-86804500D01*
X120840500Y-86804500D02*
X121920000Y-87884000D01*
G04 #@! TD*
D22*
G04 #@! TO.N,0V*
G36*
X122773000Y-85728969D02*
X122492647Y-85448616D01*
X122373981Y-85271019D01*
X121670414Y-84800910D01*
X121049989Y-84677500D01*
X121049984Y-84677500D01*
X120840500Y-84635831D01*
X120631016Y-84677500D01*
X119138498Y-84677500D01*
X119027500Y-84655421D01*
X117827500Y-84655421D01*
X117292096Y-84761920D01*
X117011346Y-84949511D01*
X116693914Y-84737410D01*
X116073489Y-84614000D01*
X116073484Y-84614000D01*
X115864000Y-84572331D01*
X115654516Y-84614000D01*
X108533998Y-84614000D01*
X108423000Y-84591921D01*
X107223000Y-84591921D01*
X106687596Y-84698420D01*
X106233702Y-85001702D01*
X106026475Y-85311840D01*
X105692260Y-85151447D01*
X105679890Y-85149524D01*
X105450000Y-85270845D01*
X105450000Y-86614000D01*
X105470000Y-86614000D01*
X105470000Y-86868000D01*
X105450000Y-86868000D01*
X105450000Y-88211155D01*
X105679890Y-88332476D01*
X105692260Y-88330553D01*
X106026475Y-88170160D01*
X106233702Y-88480298D01*
X106687596Y-88783580D01*
X107223000Y-88890079D01*
X108423000Y-88890079D01*
X108533998Y-88868000D01*
X115398777Y-88868000D01*
X115927500Y-88973169D01*
X116757414Y-88808090D01*
X116995578Y-88648953D01*
X117292096Y-88847080D01*
X117827500Y-88953579D01*
X119027500Y-88953579D01*
X119138498Y-88931500D01*
X119793000Y-88931500D01*
X119793001Y-92646146D01*
X119724000Y-92632421D01*
X118274000Y-92632421D01*
X117738596Y-92738920D01*
X117284702Y-93042202D01*
X117254101Y-93088000D01*
X114355190Y-93088000D01*
X114248558Y-92981368D01*
X113540304Y-92688000D01*
X112773696Y-92688000D01*
X112065442Y-92981368D01*
X111523368Y-93523442D01*
X111267842Y-94140337D01*
X111231596Y-94086091D01*
X111231594Y-94086089D01*
X111146405Y-93958595D01*
X111018911Y-93873406D01*
X108310598Y-91165094D01*
X108225405Y-91037595D01*
X107720306Y-90700098D01*
X107274893Y-90611500D01*
X107274889Y-90611500D01*
X107124500Y-90581586D01*
X106974111Y-90611500D01*
X106449393Y-90611500D01*
X106299000Y-90581585D01*
X106148607Y-90611500D01*
X105829370Y-90675000D01*
X100595519Y-90675000D01*
X100445130Y-90645086D01*
X100294741Y-90675000D01*
X100294737Y-90675000D01*
X99849324Y-90763598D01*
X99344225Y-91101095D01*
X99259034Y-91228592D01*
X98253592Y-92234035D01*
X98126096Y-92319225D01*
X97788598Y-92824324D01*
X97748781Y-93024500D01*
X93685888Y-93024500D01*
X93535499Y-92994586D01*
X93385110Y-93024500D01*
X93385107Y-93024500D01*
X92939694Y-93113098D01*
X92434595Y-93450595D01*
X92349404Y-93578092D01*
X89394927Y-96532569D01*
X89242522Y-96304478D01*
X88869733Y-96055389D01*
X88430000Y-95967921D01*
X86830000Y-95967921D01*
X86390267Y-96055389D01*
X86017478Y-96304478D01*
X85768389Y-96677267D01*
X85680921Y-97117000D01*
X85680921Y-98717000D01*
X85768389Y-99156733D01*
X85876742Y-99318896D01*
X85809411Y-99273907D01*
X81574098Y-95038595D01*
X81488905Y-94911095D01*
X81244525Y-94747805D01*
X81027298Y-94422702D01*
X80817904Y-94282790D01*
X80844914Y-94147000D01*
X80815000Y-93996611D01*
X80815000Y-93996607D01*
X80726402Y-93551194D01*
X80497126Y-93208058D01*
X80474096Y-93173592D01*
X80394000Y-93053720D01*
X80394000Y-92257190D01*
X80500632Y-92150558D01*
X80532863Y-92072745D01*
X80538861Y-92066747D01*
X80612995Y-92312864D01*
X81150223Y-92505965D01*
X81720454Y-92478778D01*
X82121005Y-92312864D01*
X82195139Y-92066745D01*
X81367000Y-91238605D01*
X81352858Y-91252748D01*
X81173253Y-91073143D01*
X81187395Y-91059000D01*
X81546605Y-91059000D01*
X82374745Y-91887139D01*
X82620864Y-91813005D01*
X82813965Y-91275777D01*
X82786778Y-90705546D01*
X82620864Y-90304995D01*
X82374745Y-90230861D01*
X81546605Y-91059000D01*
X81187395Y-91059000D01*
X81173253Y-91044858D01*
X81352858Y-90865252D01*
X81367000Y-90879395D01*
X82195139Y-90051255D01*
X82121005Y-89805136D01*
X81583777Y-89612035D01*
X81013546Y-89639222D01*
X80612995Y-89805136D01*
X80538861Y-90051253D01*
X80532863Y-90045255D01*
X80500632Y-89967442D01*
X79958558Y-89425368D01*
X79250304Y-89132000D01*
X78483696Y-89132000D01*
X77775442Y-89425368D01*
X77233368Y-89967442D01*
X76940000Y-90675696D01*
X76940000Y-91442304D01*
X77233368Y-92150558D01*
X77340000Y-92257190D01*
X77340001Y-93575606D01*
X77310086Y-93726000D01*
X77428598Y-94321805D01*
X77522359Y-94462127D01*
X77245420Y-94876596D01*
X77138921Y-95412000D01*
X77138921Y-96612000D01*
X77245420Y-97147404D01*
X77548702Y-97601298D01*
X77858840Y-97808525D01*
X77698447Y-98142740D01*
X77696524Y-98155110D01*
X77817845Y-98385000D01*
X79161000Y-98385000D01*
X79161000Y-98365000D01*
X79415000Y-98365000D01*
X79415000Y-98385000D01*
X79435000Y-98385000D01*
X79435000Y-98639000D01*
X79415000Y-98639000D01*
X79415000Y-99839231D01*
X79647742Y-99983284D01*
X80194812Y-99791024D01*
X80626664Y-99404045D01*
X80877553Y-98881260D01*
X80879476Y-98868890D01*
X80758156Y-98639002D01*
X80855498Y-98639002D01*
X83309000Y-101092505D01*
X83309000Y-101322611D01*
X83279086Y-101473000D01*
X83309000Y-101623389D01*
X83309000Y-101623393D01*
X83397598Y-102068806D01*
X83735096Y-102573905D01*
X83862592Y-102659096D01*
X84940496Y-103737000D01*
X84389196Y-103737000D01*
X83680942Y-104030368D01*
X83138868Y-104572442D01*
X83106637Y-104650255D01*
X83100639Y-104656253D01*
X83026505Y-104410136D01*
X82489277Y-104217035D01*
X81919046Y-104244222D01*
X81518495Y-104410136D01*
X81444361Y-104656255D01*
X82272500Y-105484395D01*
X82286642Y-105470252D01*
X82466248Y-105649858D01*
X82452105Y-105664000D01*
X82466248Y-105678143D01*
X82286642Y-105857748D01*
X82272500Y-105843605D01*
X81444361Y-106671745D01*
X81518495Y-106917864D01*
X82055723Y-107110965D01*
X82625954Y-107083778D01*
X83026505Y-106917864D01*
X83100639Y-106671747D01*
X83106637Y-106677745D01*
X83138868Y-106755558D01*
X83680942Y-107297632D01*
X84389196Y-107591000D01*
X85155804Y-107591000D01*
X85638647Y-107391000D01*
X85903000Y-107391000D01*
X85903000Y-107872672D01*
X85805667Y-108362000D01*
X85939702Y-109035841D01*
X86321404Y-109607096D01*
X86465599Y-109703445D01*
X87189501Y-110427347D01*
X87189501Y-110788132D01*
X87054207Y-110990613D01*
X86939500Y-111567286D01*
X86939500Y-112206713D01*
X87054207Y-112783386D01*
X87491163Y-113437337D01*
X88145113Y-113874293D01*
X88916500Y-114027731D01*
X89687886Y-113874293D01*
X90341837Y-113437337D01*
X90513595Y-113180284D01*
X90545307Y-113214497D01*
X91059610Y-113453476D01*
X91289500Y-113332155D01*
X91289500Y-112014000D01*
X91269500Y-112014000D01*
X91269500Y-111760000D01*
X91289500Y-111760000D01*
X91289500Y-110441845D01*
X91059610Y-110320524D01*
X90643500Y-110513876D01*
X90643500Y-109882085D01*
X90677332Y-109711999D01*
X90643500Y-109541914D01*
X90643500Y-109541909D01*
X90543298Y-109038158D01*
X90161597Y-108466903D01*
X90017401Y-108370554D01*
X89357000Y-107710154D01*
X89357000Y-106420869D01*
X89445194Y-106288878D01*
X89594752Y-105537000D01*
X89445194Y-104785122D01*
X89098995Y-104267000D01*
X89445194Y-103748878D01*
X89594752Y-102997000D01*
X89445194Y-102245122D01*
X89098995Y-101727000D01*
X89445194Y-101208878D01*
X89546395Y-100700108D01*
X94168004Y-96078500D01*
X94615289Y-96078500D01*
X94498122Y-96101806D01*
X93860711Y-96527711D01*
X93434806Y-97165122D01*
X93285248Y-97917000D01*
X93434806Y-98668878D01*
X93485063Y-98744092D01*
X93052158Y-98830202D01*
X92480903Y-99211903D01*
X92384554Y-99356100D01*
X91418602Y-100322053D01*
X91274404Y-100418403D01*
X91085357Y-100701331D01*
X90892702Y-100989659D01*
X90758667Y-101663500D01*
X90792501Y-101833595D01*
X90792500Y-107589409D01*
X90758667Y-107759500D01*
X90792500Y-107929590D01*
X90892702Y-108433341D01*
X91274403Y-109004597D01*
X91418604Y-109100949D01*
X92189501Y-109871847D01*
X92189501Y-110378787D01*
X92120622Y-110481871D01*
X91773390Y-110320524D01*
X91543500Y-110441845D01*
X91543500Y-111760000D01*
X91563500Y-111760000D01*
X91563500Y-112014000D01*
X91543500Y-112014000D01*
X91543500Y-113332155D01*
X91773390Y-113453476D01*
X92120622Y-113292129D01*
X92327202Y-113601298D01*
X92781096Y-113904580D01*
X93316500Y-114011079D01*
X94516500Y-114011079D01*
X95051904Y-113904580D01*
X95505798Y-113601298D01*
X95809080Y-113147404D01*
X95915579Y-112612000D01*
X95915579Y-111162000D01*
X95809080Y-110626596D01*
X95643500Y-110378788D01*
X95643500Y-109326585D01*
X95677332Y-109156499D01*
X95643500Y-108986414D01*
X95643500Y-108986409D01*
X95543298Y-108482658D01*
X95161597Y-107911403D01*
X95017401Y-107815054D01*
X94568549Y-107366203D01*
X95060208Y-107464000D01*
X95439792Y-107464000D01*
X96001878Y-107352194D01*
X96639289Y-106926289D01*
X97065194Y-106288878D01*
X97120061Y-106013039D01*
X108971096Y-106013039D01*
X109131959Y-106401423D01*
X109507866Y-106816389D01*
X110013959Y-107055914D01*
X110236000Y-106934629D01*
X110236000Y-105791000D01*
X110490000Y-105791000D01*
X110490000Y-106934629D01*
X110712041Y-107055914D01*
X111218134Y-106816389D01*
X111594041Y-106401423D01*
X111754904Y-106013039D01*
X111632915Y-105791000D01*
X110490000Y-105791000D01*
X110236000Y-105791000D01*
X109093085Y-105791000D01*
X108971096Y-106013039D01*
X97120061Y-106013039D01*
X97214752Y-105537000D01*
X97170586Y-105314961D01*
X108971096Y-105314961D01*
X109093085Y-105537000D01*
X110236000Y-105537000D01*
X110236000Y-104393371D01*
X110490000Y-104393371D01*
X110490000Y-105537000D01*
X111632915Y-105537000D01*
X111754904Y-105314961D01*
X111594041Y-104926577D01*
X111218134Y-104511611D01*
X110712041Y-104272086D01*
X110490000Y-104393371D01*
X110236000Y-104393371D01*
X110013959Y-104272086D01*
X109507866Y-104511611D01*
X109131959Y-104926577D01*
X108971096Y-105314961D01*
X97170586Y-105314961D01*
X97065194Y-104785122D01*
X96890718Y-104524000D01*
X102084611Y-104524000D01*
X102235000Y-104553914D01*
X102385389Y-104524000D01*
X102385393Y-104524000D01*
X102830806Y-104435402D01*
X103335905Y-104097905D01*
X103421097Y-103970406D01*
X104881596Y-102509909D01*
X104881600Y-102509903D01*
X106510408Y-100881095D01*
X106637905Y-100795905D01*
X106975402Y-100290806D01*
X107064000Y-99845393D01*
X107064000Y-99845390D01*
X107093914Y-99695001D01*
X107064000Y-99544612D01*
X107064000Y-95798190D01*
X107352194Y-95366878D01*
X107491755Y-94665259D01*
X108518500Y-95692005D01*
X108518501Y-97258606D01*
X108488586Y-97409000D01*
X108607098Y-98004805D01*
X108707529Y-98155110D01*
X108944596Y-98509905D01*
X109072093Y-98595096D01*
X111081904Y-100604908D01*
X111167095Y-100732405D01*
X111294592Y-100817596D01*
X111672194Y-101069902D01*
X112268000Y-101188415D01*
X112418393Y-101158500D01*
X116872000Y-101158500D01*
X116872000Y-101988968D01*
X116627115Y-102233853D01*
X116449519Y-102352519D01*
X115979410Y-103056087D01*
X115856000Y-103676512D01*
X115856000Y-103676516D01*
X115814331Y-103886000D01*
X115856000Y-104095484D01*
X115856000Y-105873489D01*
X115979411Y-106493914D01*
X116449520Y-107197481D01*
X117153087Y-107667590D01*
X117983000Y-107832670D01*
X118812914Y-107667590D01*
X119516481Y-107197481D01*
X119986590Y-106493914D01*
X120110000Y-105873488D01*
X120110000Y-104767032D01*
X120354885Y-104522147D01*
X120532481Y-104403481D01*
X121002590Y-103699914D01*
X121126000Y-103079489D01*
X121126000Y-103079485D01*
X121167669Y-102870000D01*
X121126000Y-102660516D01*
X121126000Y-99700531D01*
X121139731Y-99631500D01*
X121126000Y-99562469D01*
X121126000Y-99422011D01*
X121095863Y-99270504D01*
X121245000Y-99300169D01*
X121454484Y-99258500D01*
X121454489Y-99258500D01*
X122074914Y-99135090D01*
X122773000Y-98668643D01*
X122773001Y-115773000D01*
X73227000Y-115773000D01*
X73227000Y-105447223D01*
X80825535Y-105447223D01*
X80852722Y-106017454D01*
X81018636Y-106418005D01*
X81264755Y-106492139D01*
X82092895Y-105664000D01*
X81264755Y-104835861D01*
X81018636Y-104909995D01*
X80825535Y-105447223D01*
X73227000Y-105447223D01*
X73227000Y-98868890D01*
X77696524Y-98868890D01*
X77698447Y-98881260D01*
X77949336Y-99404045D01*
X78381188Y-99791024D01*
X78928258Y-99983284D01*
X79161000Y-99839231D01*
X79161000Y-98639000D01*
X77817845Y-98639000D01*
X77696524Y-98868890D01*
X73227000Y-98868890D01*
X73227000Y-87100742D01*
X103851716Y-87100742D01*
X104043976Y-87647812D01*
X104430955Y-88079664D01*
X104953740Y-88330553D01*
X104966110Y-88332476D01*
X105196000Y-88211155D01*
X105196000Y-86868000D01*
X103995769Y-86868000D01*
X103851716Y-87100742D01*
X73227000Y-87100742D01*
X73227000Y-86381258D01*
X103851716Y-86381258D01*
X103995769Y-86614000D01*
X105196000Y-86614000D01*
X105196000Y-85270845D01*
X104966110Y-85149524D01*
X104953740Y-85151447D01*
X104430955Y-85402336D01*
X104043976Y-85834188D01*
X103851716Y-86381258D01*
X73227000Y-86381258D01*
X73227000Y-82227000D01*
X122773000Y-82227000D01*
X122773000Y-85728969D01*
X122773000Y-85728969D01*
G37*
X122773000Y-85728969D02*
X122492647Y-85448616D01*
X122373981Y-85271019D01*
X121670414Y-84800910D01*
X121049989Y-84677500D01*
X121049984Y-84677500D01*
X120840500Y-84635831D01*
X120631016Y-84677500D01*
X119138498Y-84677500D01*
X119027500Y-84655421D01*
X117827500Y-84655421D01*
X117292096Y-84761920D01*
X117011346Y-84949511D01*
X116693914Y-84737410D01*
X116073489Y-84614000D01*
X116073484Y-84614000D01*
X115864000Y-84572331D01*
X115654516Y-84614000D01*
X108533998Y-84614000D01*
X108423000Y-84591921D01*
X107223000Y-84591921D01*
X106687596Y-84698420D01*
X106233702Y-85001702D01*
X106026475Y-85311840D01*
X105692260Y-85151447D01*
X105679890Y-85149524D01*
X105450000Y-85270845D01*
X105450000Y-86614000D01*
X105470000Y-86614000D01*
X105470000Y-86868000D01*
X105450000Y-86868000D01*
X105450000Y-88211155D01*
X105679890Y-88332476D01*
X105692260Y-88330553D01*
X106026475Y-88170160D01*
X106233702Y-88480298D01*
X106687596Y-88783580D01*
X107223000Y-88890079D01*
X108423000Y-88890079D01*
X108533998Y-88868000D01*
X115398777Y-88868000D01*
X115927500Y-88973169D01*
X116757414Y-88808090D01*
X116995578Y-88648953D01*
X117292096Y-88847080D01*
X117827500Y-88953579D01*
X119027500Y-88953579D01*
X119138498Y-88931500D01*
X119793000Y-88931500D01*
X119793001Y-92646146D01*
X119724000Y-92632421D01*
X118274000Y-92632421D01*
X117738596Y-92738920D01*
X117284702Y-93042202D01*
X117254101Y-93088000D01*
X114355190Y-93088000D01*
X114248558Y-92981368D01*
X113540304Y-92688000D01*
X112773696Y-92688000D01*
X112065442Y-92981368D01*
X111523368Y-93523442D01*
X111267842Y-94140337D01*
X111231596Y-94086091D01*
X111231594Y-94086089D01*
X111146405Y-93958595D01*
X111018911Y-93873406D01*
X108310598Y-91165094D01*
X108225405Y-91037595D01*
X107720306Y-90700098D01*
X107274893Y-90611500D01*
X107274889Y-90611500D01*
X107124500Y-90581586D01*
X106974111Y-90611500D01*
X106449393Y-90611500D01*
X106299000Y-90581585D01*
X106148607Y-90611500D01*
X105829370Y-90675000D01*
X100595519Y-90675000D01*
X100445130Y-90645086D01*
X100294741Y-90675000D01*
X100294737Y-90675000D01*
X99849324Y-90763598D01*
X99344225Y-91101095D01*
X99259034Y-91228592D01*
X98253592Y-92234035D01*
X98126096Y-92319225D01*
X97788598Y-92824324D01*
X97748781Y-93024500D01*
X93685888Y-93024500D01*
X93535499Y-92994586D01*
X93385110Y-93024500D01*
X93385107Y-93024500D01*
X92939694Y-93113098D01*
X92434595Y-93450595D01*
X92349404Y-93578092D01*
X89394927Y-96532569D01*
X89242522Y-96304478D01*
X88869733Y-96055389D01*
X88430000Y-95967921D01*
X86830000Y-95967921D01*
X86390267Y-96055389D01*
X86017478Y-96304478D01*
X85768389Y-96677267D01*
X85680921Y-97117000D01*
X85680921Y-98717000D01*
X85768389Y-99156733D01*
X85876742Y-99318896D01*
X85809411Y-99273907D01*
X81574098Y-95038595D01*
X81488905Y-94911095D01*
X81244525Y-94747805D01*
X81027298Y-94422702D01*
X80817904Y-94282790D01*
X80844914Y-94147000D01*
X80815000Y-93996611D01*
X80815000Y-93996607D01*
X80726402Y-93551194D01*
X80497126Y-93208058D01*
X80474096Y-93173592D01*
X80394000Y-93053720D01*
X80394000Y-92257190D01*
X80500632Y-92150558D01*
X80532863Y-92072745D01*
X80538861Y-92066747D01*
X80612995Y-92312864D01*
X81150223Y-92505965D01*
X81720454Y-92478778D01*
X82121005Y-92312864D01*
X82195139Y-92066745D01*
X81367000Y-91238605D01*
X81352858Y-91252748D01*
X81173253Y-91073143D01*
X81187395Y-91059000D01*
X81546605Y-91059000D01*
X82374745Y-91887139D01*
X82620864Y-91813005D01*
X82813965Y-91275777D01*
X82786778Y-90705546D01*
X82620864Y-90304995D01*
X82374745Y-90230861D01*
X81546605Y-91059000D01*
X81187395Y-91059000D01*
X81173253Y-91044858D01*
X81352858Y-90865252D01*
X81367000Y-90879395D01*
X82195139Y-90051255D01*
X82121005Y-89805136D01*
X81583777Y-89612035D01*
X81013546Y-89639222D01*
X80612995Y-89805136D01*
X80538861Y-90051253D01*
X80532863Y-90045255D01*
X80500632Y-89967442D01*
X79958558Y-89425368D01*
X79250304Y-89132000D01*
X78483696Y-89132000D01*
X77775442Y-89425368D01*
X77233368Y-89967442D01*
X76940000Y-90675696D01*
X76940000Y-91442304D01*
X77233368Y-92150558D01*
X77340000Y-92257190D01*
X77340001Y-93575606D01*
X77310086Y-93726000D01*
X77428598Y-94321805D01*
X77522359Y-94462127D01*
X77245420Y-94876596D01*
X77138921Y-95412000D01*
X77138921Y-96612000D01*
X77245420Y-97147404D01*
X77548702Y-97601298D01*
X77858840Y-97808525D01*
X77698447Y-98142740D01*
X77696524Y-98155110D01*
X77817845Y-98385000D01*
X79161000Y-98385000D01*
X79161000Y-98365000D01*
X79415000Y-98365000D01*
X79415000Y-98385000D01*
X79435000Y-98385000D01*
X79435000Y-98639000D01*
X79415000Y-98639000D01*
X79415000Y-99839231D01*
X79647742Y-99983284D01*
X80194812Y-99791024D01*
X80626664Y-99404045D01*
X80877553Y-98881260D01*
X80879476Y-98868890D01*
X80758156Y-98639002D01*
X80855498Y-98639002D01*
X83309000Y-101092505D01*
X83309000Y-101322611D01*
X83279086Y-101473000D01*
X83309000Y-101623389D01*
X83309000Y-101623393D01*
X83397598Y-102068806D01*
X83735096Y-102573905D01*
X83862592Y-102659096D01*
X84940496Y-103737000D01*
X84389196Y-103737000D01*
X83680942Y-104030368D01*
X83138868Y-104572442D01*
X83106637Y-104650255D01*
X83100639Y-104656253D01*
X83026505Y-104410136D01*
X82489277Y-104217035D01*
X81919046Y-104244222D01*
X81518495Y-104410136D01*
X81444361Y-104656255D01*
X82272500Y-105484395D01*
X82286642Y-105470252D01*
X82466248Y-105649858D01*
X82452105Y-105664000D01*
X82466248Y-105678143D01*
X82286642Y-105857748D01*
X82272500Y-105843605D01*
X81444361Y-106671745D01*
X81518495Y-106917864D01*
X82055723Y-107110965D01*
X82625954Y-107083778D01*
X83026505Y-106917864D01*
X83100639Y-106671747D01*
X83106637Y-106677745D01*
X83138868Y-106755558D01*
X83680942Y-107297632D01*
X84389196Y-107591000D01*
X85155804Y-107591000D01*
X85638647Y-107391000D01*
X85903000Y-107391000D01*
X85903000Y-107872672D01*
X85805667Y-108362000D01*
X85939702Y-109035841D01*
X86321404Y-109607096D01*
X86465599Y-109703445D01*
X87189501Y-110427347D01*
X87189501Y-110788132D01*
X87054207Y-110990613D01*
X86939500Y-111567286D01*
X86939500Y-112206713D01*
X87054207Y-112783386D01*
X87491163Y-113437337D01*
X88145113Y-113874293D01*
X88916500Y-114027731D01*
X89687886Y-113874293D01*
X90341837Y-113437337D01*
X90513595Y-113180284D01*
X90545307Y-113214497D01*
X91059610Y-113453476D01*
X91289500Y-113332155D01*
X91289500Y-112014000D01*
X91269500Y-112014000D01*
X91269500Y-111760000D01*
X91289500Y-111760000D01*
X91289500Y-110441845D01*
X91059610Y-110320524D01*
X90643500Y-110513876D01*
X90643500Y-109882085D01*
X90677332Y-109711999D01*
X90643500Y-109541914D01*
X90643500Y-109541909D01*
X90543298Y-109038158D01*
X90161597Y-108466903D01*
X90017401Y-108370554D01*
X89357000Y-107710154D01*
X89357000Y-106420869D01*
X89445194Y-106288878D01*
X89594752Y-105537000D01*
X89445194Y-104785122D01*
X89098995Y-104267000D01*
X89445194Y-103748878D01*
X89594752Y-102997000D01*
X89445194Y-102245122D01*
X89098995Y-101727000D01*
X89445194Y-101208878D01*
X89546395Y-100700108D01*
X94168004Y-96078500D01*
X94615289Y-96078500D01*
X94498122Y-96101806D01*
X93860711Y-96527711D01*
X93434806Y-97165122D01*
X93285248Y-97917000D01*
X93434806Y-98668878D01*
X93485063Y-98744092D01*
X93052158Y-98830202D01*
X92480903Y-99211903D01*
X92384554Y-99356100D01*
X91418602Y-100322053D01*
X91274404Y-100418403D01*
X91085357Y-100701331D01*
X90892702Y-100989659D01*
X90758667Y-101663500D01*
X90792501Y-101833595D01*
X90792500Y-107589409D01*
X90758667Y-107759500D01*
X90792500Y-107929590D01*
X90892702Y-108433341D01*
X91274403Y-109004597D01*
X91418604Y-109100949D01*
X92189501Y-109871847D01*
X92189501Y-110378787D01*
X92120622Y-110481871D01*
X91773390Y-110320524D01*
X91543500Y-110441845D01*
X91543500Y-111760000D01*
X91563500Y-111760000D01*
X91563500Y-112014000D01*
X91543500Y-112014000D01*
X91543500Y-113332155D01*
X91773390Y-113453476D01*
X92120622Y-113292129D01*
X92327202Y-113601298D01*
X92781096Y-113904580D01*
X93316500Y-114011079D01*
X94516500Y-114011079D01*
X95051904Y-113904580D01*
X95505798Y-113601298D01*
X95809080Y-113147404D01*
X95915579Y-112612000D01*
X95915579Y-111162000D01*
X95809080Y-110626596D01*
X95643500Y-110378788D01*
X95643500Y-109326585D01*
X95677332Y-109156499D01*
X95643500Y-108986414D01*
X95643500Y-108986409D01*
X95543298Y-108482658D01*
X95161597Y-107911403D01*
X95017401Y-107815054D01*
X94568549Y-107366203D01*
X95060208Y-107464000D01*
X95439792Y-107464000D01*
X96001878Y-107352194D01*
X96639289Y-106926289D01*
X97065194Y-106288878D01*
X97120061Y-106013039D01*
X108971096Y-106013039D01*
X109131959Y-106401423D01*
X109507866Y-106816389D01*
X110013959Y-107055914D01*
X110236000Y-106934629D01*
X110236000Y-105791000D01*
X110490000Y-105791000D01*
X110490000Y-106934629D01*
X110712041Y-107055914D01*
X111218134Y-106816389D01*
X111594041Y-106401423D01*
X111754904Y-106013039D01*
X111632915Y-105791000D01*
X110490000Y-105791000D01*
X110236000Y-105791000D01*
X109093085Y-105791000D01*
X108971096Y-106013039D01*
X97120061Y-106013039D01*
X97214752Y-105537000D01*
X97170586Y-105314961D01*
X108971096Y-105314961D01*
X109093085Y-105537000D01*
X110236000Y-105537000D01*
X110236000Y-104393371D01*
X110490000Y-104393371D01*
X110490000Y-105537000D01*
X111632915Y-105537000D01*
X111754904Y-105314961D01*
X111594041Y-104926577D01*
X111218134Y-104511611D01*
X110712041Y-104272086D01*
X110490000Y-104393371D01*
X110236000Y-104393371D01*
X110013959Y-104272086D01*
X109507866Y-104511611D01*
X109131959Y-104926577D01*
X108971096Y-105314961D01*
X97170586Y-105314961D01*
X97065194Y-104785122D01*
X96890718Y-104524000D01*
X102084611Y-104524000D01*
X102235000Y-104553914D01*
X102385389Y-104524000D01*
X102385393Y-104524000D01*
X102830806Y-104435402D01*
X103335905Y-104097905D01*
X103421097Y-103970406D01*
X104881596Y-102509909D01*
X104881600Y-102509903D01*
X106510408Y-100881095D01*
X106637905Y-100795905D01*
X106975402Y-100290806D01*
X107064000Y-99845393D01*
X107064000Y-99845390D01*
X107093914Y-99695001D01*
X107064000Y-99544612D01*
X107064000Y-95798190D01*
X107352194Y-95366878D01*
X107491755Y-94665259D01*
X108518500Y-95692005D01*
X108518501Y-97258606D01*
X108488586Y-97409000D01*
X108607098Y-98004805D01*
X108707529Y-98155110D01*
X108944596Y-98509905D01*
X109072093Y-98595096D01*
X111081904Y-100604908D01*
X111167095Y-100732405D01*
X111294592Y-100817596D01*
X111672194Y-101069902D01*
X112268000Y-101188415D01*
X112418393Y-101158500D01*
X116872000Y-101158500D01*
X116872000Y-101988968D01*
X116627115Y-102233853D01*
X116449519Y-102352519D01*
X115979410Y-103056087D01*
X115856000Y-103676512D01*
X115856000Y-103676516D01*
X115814331Y-103886000D01*
X115856000Y-104095484D01*
X115856000Y-105873489D01*
X115979411Y-106493914D01*
X116449520Y-107197481D01*
X117153087Y-107667590D01*
X117983000Y-107832670D01*
X118812914Y-107667590D01*
X119516481Y-107197481D01*
X119986590Y-106493914D01*
X120110000Y-105873488D01*
X120110000Y-104767032D01*
X120354885Y-104522147D01*
X120532481Y-104403481D01*
X121002590Y-103699914D01*
X121126000Y-103079489D01*
X121126000Y-103079485D01*
X121167669Y-102870000D01*
X121126000Y-102660516D01*
X121126000Y-99700531D01*
X121139731Y-99631500D01*
X121126000Y-99562469D01*
X121126000Y-99422011D01*
X121095863Y-99270504D01*
X121245000Y-99300169D01*
X121454484Y-99258500D01*
X121454489Y-99258500D01*
X122074914Y-99135090D01*
X122773000Y-98668643D01*
X122773001Y-115773000D01*
X73227000Y-115773000D01*
X73227000Y-105447223D01*
X80825535Y-105447223D01*
X80852722Y-106017454D01*
X81018636Y-106418005D01*
X81264755Y-106492139D01*
X82092895Y-105664000D01*
X81264755Y-104835861D01*
X81018636Y-104909995D01*
X80825535Y-105447223D01*
X73227000Y-105447223D01*
X73227000Y-98868890D01*
X77696524Y-98868890D01*
X77698447Y-98881260D01*
X77949336Y-99404045D01*
X78381188Y-99791024D01*
X78928258Y-99983284D01*
X79161000Y-99839231D01*
X79161000Y-98639000D01*
X77817845Y-98639000D01*
X77696524Y-98868890D01*
X73227000Y-98868890D01*
X73227000Y-87100742D01*
X103851716Y-87100742D01*
X104043976Y-87647812D01*
X104430955Y-88079664D01*
X104953740Y-88330553D01*
X104966110Y-88332476D01*
X105196000Y-88211155D01*
X105196000Y-86868000D01*
X103995769Y-86868000D01*
X103851716Y-87100742D01*
X73227000Y-87100742D01*
X73227000Y-86381258D01*
X103851716Y-86381258D01*
X103995769Y-86614000D01*
X105196000Y-86614000D01*
X105196000Y-85270845D01*
X104966110Y-85149524D01*
X104953740Y-85151447D01*
X104430955Y-85402336D01*
X104043976Y-85834188D01*
X103851716Y-86381258D01*
X73227000Y-86381258D01*
X73227000Y-82227000D01*
X122773000Y-82227000D01*
X122773000Y-85728969D01*
G36*
X100635442Y-96185132D02*
X101343696Y-96478500D01*
X102110304Y-96478500D01*
X102818558Y-96185132D01*
X102925190Y-96078500D01*
X104010001Y-96078500D01*
X104010000Y-99062496D01*
X102722097Y-100350400D01*
X102722091Y-100350404D01*
X101860238Y-101212258D01*
X102030965Y-100737277D01*
X102003778Y-100167046D01*
X101837864Y-99766495D01*
X101591745Y-99692361D01*
X100763605Y-100520500D01*
X100777748Y-100534642D01*
X100598142Y-100714248D01*
X100584000Y-100700105D01*
X100569858Y-100714248D01*
X100390253Y-100534643D01*
X100404395Y-100520500D01*
X100390253Y-100506358D01*
X100569858Y-100326752D01*
X100584000Y-100340895D01*
X101412139Y-99512755D01*
X101338005Y-99266636D01*
X100800777Y-99073535D01*
X100230546Y-99100722D01*
X99829995Y-99266636D01*
X99755861Y-99512753D01*
X99749863Y-99506755D01*
X99717632Y-99428942D01*
X99175558Y-98886868D01*
X98467304Y-98593500D01*
X97700696Y-98593500D01*
X97371155Y-98730000D01*
X97024354Y-98730000D01*
X97065194Y-98668878D01*
X97214752Y-97917000D01*
X97065194Y-97165122D01*
X96639289Y-96527711D01*
X96001878Y-96101806D01*
X95884711Y-96078500D01*
X98028810Y-96078500D01*
X98135442Y-96185132D01*
X98843696Y-96478500D01*
X99610304Y-96478500D01*
X100318558Y-96185132D01*
X100477000Y-96026690D01*
X100635442Y-96185132D01*
X100635442Y-96185132D01*
G37*
X100635442Y-96185132D02*
X101343696Y-96478500D01*
X102110304Y-96478500D01*
X102818558Y-96185132D01*
X102925190Y-96078500D01*
X104010001Y-96078500D01*
X104010000Y-99062496D01*
X102722097Y-100350400D01*
X102722091Y-100350404D01*
X101860238Y-101212258D01*
X102030965Y-100737277D01*
X102003778Y-100167046D01*
X101837864Y-99766495D01*
X101591745Y-99692361D01*
X100763605Y-100520500D01*
X100777748Y-100534642D01*
X100598142Y-100714248D01*
X100584000Y-100700105D01*
X100569858Y-100714248D01*
X100390253Y-100534643D01*
X100404395Y-100520500D01*
X100390253Y-100506358D01*
X100569858Y-100326752D01*
X100584000Y-100340895D01*
X101412139Y-99512755D01*
X101338005Y-99266636D01*
X100800777Y-99073535D01*
X100230546Y-99100722D01*
X99829995Y-99266636D01*
X99755861Y-99512753D01*
X99749863Y-99506755D01*
X99717632Y-99428942D01*
X99175558Y-98886868D01*
X98467304Y-98593500D01*
X97700696Y-98593500D01*
X97371155Y-98730000D01*
X97024354Y-98730000D01*
X97065194Y-98668878D01*
X97214752Y-97917000D01*
X97065194Y-97165122D01*
X96639289Y-96527711D01*
X96001878Y-96101806D01*
X95884711Y-96078500D01*
X98028810Y-96078500D01*
X98135442Y-96185132D01*
X98843696Y-96478500D01*
X99610304Y-96478500D01*
X100318558Y-96185132D01*
X100477000Y-96026690D01*
X100635442Y-96185132D01*
G04 #@! TD*
M02*
