G04 #@! TF.GenerationSoftware,KiCad,Pcbnew,5.0.2-bee76a0~70~ubuntu18.04.1*
G04 #@! TF.CreationDate,2019-07-04T09:06:03+01:00*
G04 #@! TF.ProjectId,High Current Circuit,48696768-2043-4757-9272-656e74204369,rev?*
G04 #@! TF.SameCoordinates,Original*
G04 #@! TF.FileFunction,Copper,L1,Top*
G04 #@! TF.FilePolarity,Positive*
%FSLAX46Y46*%
G04 Gerber Fmt 4.6, Leading zero omitted, Abs format (unit mm)*
G04 Created by KiCad (PCBNEW 5.0.2-bee76a0~70~ubuntu18.04.1) date Thu 04 Jul 2019 09:06:03 BST*
%MOMM*%
%LPD*%
G01*
G04 APERTURE LIST*
G04 #@! TA.AperFunction,ComponentPad*
%ADD10O,1.700000X1.950000*%
G04 #@! TD*
G04 #@! TA.AperFunction,Conductor*
%ADD11C,0.100000*%
G04 #@! TD*
G04 #@! TA.AperFunction,ComponentPad*
%ADD12C,1.700000*%
G04 #@! TD*
G04 #@! TA.AperFunction,ComponentPad*
%ADD13O,1.700000X2.000000*%
G04 #@! TD*
G04 #@! TA.AperFunction,ComponentPad*
%ADD14C,1.600000*%
G04 #@! TD*
G04 #@! TA.AperFunction,ComponentPad*
%ADD15O,1.950000X1.700000*%
G04 #@! TD*
G04 #@! TA.AperFunction,ComponentPad*
%ADD16R,1.600000X1.600000*%
G04 #@! TD*
G04 #@! TA.AperFunction,ComponentPad*
%ADD17O,1.600000X1.600000*%
G04 #@! TD*
G04 #@! TA.AperFunction,ComponentPad*
%ADD18O,2.000000X1.700000*%
G04 #@! TD*
G04 APERTURE END LIST*
D10*
G04 #@! TO.P,12VSupply1,3*
G04 #@! TO.N,-12V*
X88916500Y-111887000D03*
G04 #@! TO.P,12VSupply1,2*
G04 #@! TO.N,0V*
X91416500Y-111887000D03*
D11*
G04 #@! TD*
G04 #@! TO.N,+12V*
G04 #@! TO.C,12VSupply1*
G36*
X94541004Y-110913204D02*
X94565273Y-110916804D01*
X94589071Y-110922765D01*
X94612171Y-110931030D01*
X94634349Y-110941520D01*
X94655393Y-110954133D01*
X94675098Y-110968747D01*
X94693277Y-110985223D01*
X94709753Y-111003402D01*
X94724367Y-111023107D01*
X94736980Y-111044151D01*
X94747470Y-111066329D01*
X94755735Y-111089429D01*
X94761696Y-111113227D01*
X94765296Y-111137496D01*
X94766500Y-111162000D01*
X94766500Y-112612000D01*
X94765296Y-112636504D01*
X94761696Y-112660773D01*
X94755735Y-112684571D01*
X94747470Y-112707671D01*
X94736980Y-112729849D01*
X94724367Y-112750893D01*
X94709753Y-112770598D01*
X94693277Y-112788777D01*
X94675098Y-112805253D01*
X94655393Y-112819867D01*
X94634349Y-112832480D01*
X94612171Y-112842970D01*
X94589071Y-112851235D01*
X94565273Y-112857196D01*
X94541004Y-112860796D01*
X94516500Y-112862000D01*
X93316500Y-112862000D01*
X93291996Y-112860796D01*
X93267727Y-112857196D01*
X93243929Y-112851235D01*
X93220829Y-112842970D01*
X93198651Y-112832480D01*
X93177607Y-112819867D01*
X93157902Y-112805253D01*
X93139723Y-112788777D01*
X93123247Y-112770598D01*
X93108633Y-112750893D01*
X93096020Y-112729849D01*
X93085530Y-112707671D01*
X93077265Y-112684571D01*
X93071304Y-112660773D01*
X93067704Y-112636504D01*
X93066500Y-112612000D01*
X93066500Y-111162000D01*
X93067704Y-111137496D01*
X93071304Y-111113227D01*
X93077265Y-111089429D01*
X93085530Y-111066329D01*
X93096020Y-111044151D01*
X93108633Y-111023107D01*
X93123247Y-111003402D01*
X93139723Y-110985223D01*
X93157902Y-110968747D01*
X93177607Y-110954133D01*
X93198651Y-110941520D01*
X93220829Y-110931030D01*
X93243929Y-110922765D01*
X93267727Y-110916804D01*
X93291996Y-110913204D01*
X93316500Y-110912000D01*
X94516500Y-110912000D01*
X94541004Y-110913204D01*
X94541004Y-110913204D01*
G37*
D12*
G04 #@! TO.P,12VSupply1,1*
G04 #@! TO.N,+12V*
X93916500Y-111887000D03*
G04 #@! TD*
D13*
G04 #@! TO.P,80VSupply1,2*
G04 #@! TO.N,0V*
X105323000Y-86741000D03*
D11*
G04 #@! TD*
G04 #@! TO.N,+80V*
G04 #@! TO.C,80VSupply1*
G36*
X108447504Y-85742204D02*
X108471773Y-85745804D01*
X108495571Y-85751765D01*
X108518671Y-85760030D01*
X108540849Y-85770520D01*
X108561893Y-85783133D01*
X108581598Y-85797747D01*
X108599777Y-85814223D01*
X108616253Y-85832402D01*
X108630867Y-85852107D01*
X108643480Y-85873151D01*
X108653970Y-85895329D01*
X108662235Y-85918429D01*
X108668196Y-85942227D01*
X108671796Y-85966496D01*
X108673000Y-85991000D01*
X108673000Y-87491000D01*
X108671796Y-87515504D01*
X108668196Y-87539773D01*
X108662235Y-87563571D01*
X108653970Y-87586671D01*
X108643480Y-87608849D01*
X108630867Y-87629893D01*
X108616253Y-87649598D01*
X108599777Y-87667777D01*
X108581598Y-87684253D01*
X108561893Y-87698867D01*
X108540849Y-87711480D01*
X108518671Y-87721970D01*
X108495571Y-87730235D01*
X108471773Y-87736196D01*
X108447504Y-87739796D01*
X108423000Y-87741000D01*
X107223000Y-87741000D01*
X107198496Y-87739796D01*
X107174227Y-87736196D01*
X107150429Y-87730235D01*
X107127329Y-87721970D01*
X107105151Y-87711480D01*
X107084107Y-87698867D01*
X107064402Y-87684253D01*
X107046223Y-87667777D01*
X107029747Y-87649598D01*
X107015133Y-87629893D01*
X107002520Y-87608849D01*
X106992030Y-87586671D01*
X106983765Y-87563571D01*
X106977804Y-87539773D01*
X106974204Y-87515504D01*
X106973000Y-87491000D01*
X106973000Y-85991000D01*
X106974204Y-85966496D01*
X106977804Y-85942227D01*
X106983765Y-85918429D01*
X106992030Y-85895329D01*
X107002520Y-85873151D01*
X107015133Y-85852107D01*
X107029747Y-85832402D01*
X107046223Y-85814223D01*
X107064402Y-85797747D01*
X107084107Y-85783133D01*
X107105151Y-85770520D01*
X107127329Y-85760030D01*
X107150429Y-85751765D01*
X107174227Y-85745804D01*
X107198496Y-85742204D01*
X107223000Y-85741000D01*
X108423000Y-85741000D01*
X108447504Y-85742204D01*
X108447504Y-85742204D01*
G37*
D12*
G04 #@! TO.P,80VSupply1,1*
G04 #@! TO.N,+80V*
X107823000Y-86741000D03*
G04 #@! TD*
D14*
G04 #@! TO.P,C1,2*
G04 #@! TO.N,0V*
X81367000Y-91059000D03*
G04 #@! TO.P,C1,1*
G04 #@! TO.N,Vcontrol*
X78867000Y-91059000D03*
G04 #@! TD*
G04 #@! TO.P,C2,1*
G04 #@! TO.N,Net-(C2-Pad1)*
X101727000Y-94551500D03*
G04 #@! TO.P,C2,2*
G04 #@! TO.N,Net-(C2-Pad2)*
X99227000Y-94551500D03*
G04 #@! TD*
G04 #@! TO.P,C-OPA+1,1*
G04 #@! TO.N,0V*
X100584000Y-100520500D03*
G04 #@! TO.P,C-OPA+1,2*
G04 #@! TO.N,+12V*
X98084000Y-100520500D03*
G04 #@! TD*
G04 #@! TO.P,C-OPA-1,2*
G04 #@! TO.N,0V*
X82272500Y-105664000D03*
G04 #@! TO.P,C-OPA-1,1*
G04 #@! TO.N,-12V*
X84772500Y-105664000D03*
G04 #@! TD*
D11*
G04 #@! TO.N,Net-(MOSFET1-Pad1)*
G04 #@! TO.C,MOSFET1*
G36*
X119748504Y-93782704D02*
X119772773Y-93786304D01*
X119796571Y-93792265D01*
X119819671Y-93800530D01*
X119841849Y-93811020D01*
X119862893Y-93823633D01*
X119882598Y-93838247D01*
X119900777Y-93854723D01*
X119917253Y-93872902D01*
X119931867Y-93892607D01*
X119944480Y-93913651D01*
X119954970Y-93935829D01*
X119963235Y-93958929D01*
X119969196Y-93982727D01*
X119972796Y-94006996D01*
X119974000Y-94031500D01*
X119974000Y-95231500D01*
X119972796Y-95256004D01*
X119969196Y-95280273D01*
X119963235Y-95304071D01*
X119954970Y-95327171D01*
X119944480Y-95349349D01*
X119931867Y-95370393D01*
X119917253Y-95390098D01*
X119900777Y-95408277D01*
X119882598Y-95424753D01*
X119862893Y-95439367D01*
X119841849Y-95451980D01*
X119819671Y-95462470D01*
X119796571Y-95470735D01*
X119772773Y-95476696D01*
X119748504Y-95480296D01*
X119724000Y-95481500D01*
X118274000Y-95481500D01*
X118249496Y-95480296D01*
X118225227Y-95476696D01*
X118201429Y-95470735D01*
X118178329Y-95462470D01*
X118156151Y-95451980D01*
X118135107Y-95439367D01*
X118115402Y-95424753D01*
X118097223Y-95408277D01*
X118080747Y-95390098D01*
X118066133Y-95370393D01*
X118053520Y-95349349D01*
X118043030Y-95327171D01*
X118034765Y-95304071D01*
X118028804Y-95280273D01*
X118025204Y-95256004D01*
X118024000Y-95231500D01*
X118024000Y-94031500D01*
X118025204Y-94006996D01*
X118028804Y-93982727D01*
X118034765Y-93958929D01*
X118043030Y-93935829D01*
X118053520Y-93913651D01*
X118066133Y-93892607D01*
X118080747Y-93872902D01*
X118097223Y-93854723D01*
X118115402Y-93838247D01*
X118135107Y-93823633D01*
X118156151Y-93811020D01*
X118178329Y-93800530D01*
X118201429Y-93792265D01*
X118225227Y-93786304D01*
X118249496Y-93782704D01*
X118274000Y-93781500D01*
X119724000Y-93781500D01*
X119748504Y-93782704D01*
X119748504Y-93782704D01*
G37*
D12*
G04 #@! TD*
G04 #@! TO.P,MOSFET1,1*
G04 #@! TO.N,Net-(MOSFET1-Pad1)*
X118999000Y-94631500D03*
D15*
G04 #@! TO.P,MOSFET1,2*
G04 #@! TO.N,Net-(MOSFET1-Pad2)*
X118999000Y-97131500D03*
G04 #@! TO.P,MOSFET1,3*
G04 #@! TO.N,Net-(C2-Pad2)*
X118999000Y-99631500D03*
G04 #@! TD*
D16*
G04 #@! TO.P,OPA1,1*
G04 #@! TO.N,Net-(OPA1-Pad1)*
X87630000Y-97917000D03*
D17*
G04 #@! TO.P,OPA1,5*
G04 #@! TO.N,Net-(OPA1-Pad5)*
X95250000Y-105537000D03*
G04 #@! TO.P,OPA1,2*
G04 #@! TO.N,Net-(C2-Pad2)*
X87630000Y-100457000D03*
G04 #@! TO.P,OPA1,6*
G04 #@! TO.N,Net-(C2-Pad1)*
X95250000Y-102997000D03*
G04 #@! TO.P,OPA1,3*
G04 #@! TO.N,Vcontrol*
X87630000Y-102997000D03*
G04 #@! TO.P,OPA1,7*
G04 #@! TO.N,+12V*
X95250000Y-100457000D03*
G04 #@! TO.P,OPA1,4*
G04 #@! TO.N,-12V*
X87630000Y-105537000D03*
G04 #@! TO.P,OPA1,8*
G04 #@! TO.N,Net-(OPA1-Pad8)*
X95250000Y-97917000D03*
G04 #@! TD*
D14*
G04 #@! TO.P,PowerResistor1,1*
G04 #@! TO.N,Net-(C2-Pad2)*
X117983000Y-105664000D03*
D17*
G04 #@! TO.P,PowerResistor1,2*
G04 #@! TO.N,0V*
X110363000Y-105664000D03*
G04 #@! TD*
G04 #@! TO.P,R_MOSFET1,2*
G04 #@! TO.N,Net-(C2-Pad1)*
X105537000Y-94615000D03*
D14*
G04 #@! TO.P,R_MOSFET1,1*
G04 #@! TO.N,Net-(MOSFET1-Pad1)*
X113157000Y-94615000D03*
G04 #@! TD*
D11*
G04 #@! TO.N,Net-(MOSFET1-Pad2)*
G04 #@! TO.C,RLoad1*
G36*
X119052004Y-85805704D02*
X119076273Y-85809304D01*
X119100071Y-85815265D01*
X119123171Y-85823530D01*
X119145349Y-85834020D01*
X119166393Y-85846633D01*
X119186098Y-85861247D01*
X119204277Y-85877723D01*
X119220753Y-85895902D01*
X119235367Y-85915607D01*
X119247980Y-85936651D01*
X119258470Y-85958829D01*
X119266735Y-85981929D01*
X119272696Y-86005727D01*
X119276296Y-86029996D01*
X119277500Y-86054500D01*
X119277500Y-87554500D01*
X119276296Y-87579004D01*
X119272696Y-87603273D01*
X119266735Y-87627071D01*
X119258470Y-87650171D01*
X119247980Y-87672349D01*
X119235367Y-87693393D01*
X119220753Y-87713098D01*
X119204277Y-87731277D01*
X119186098Y-87747753D01*
X119166393Y-87762367D01*
X119145349Y-87774980D01*
X119123171Y-87785470D01*
X119100071Y-87793735D01*
X119076273Y-87799696D01*
X119052004Y-87803296D01*
X119027500Y-87804500D01*
X117827500Y-87804500D01*
X117802996Y-87803296D01*
X117778727Y-87799696D01*
X117754929Y-87793735D01*
X117731829Y-87785470D01*
X117709651Y-87774980D01*
X117688607Y-87762367D01*
X117668902Y-87747753D01*
X117650723Y-87731277D01*
X117634247Y-87713098D01*
X117619633Y-87693393D01*
X117607020Y-87672349D01*
X117596530Y-87650171D01*
X117588265Y-87627071D01*
X117582304Y-87603273D01*
X117578704Y-87579004D01*
X117577500Y-87554500D01*
X117577500Y-86054500D01*
X117578704Y-86029996D01*
X117582304Y-86005727D01*
X117588265Y-85981929D01*
X117596530Y-85958829D01*
X117607020Y-85936651D01*
X117619633Y-85915607D01*
X117634247Y-85895902D01*
X117650723Y-85877723D01*
X117668902Y-85861247D01*
X117688607Y-85846633D01*
X117709651Y-85834020D01*
X117731829Y-85823530D01*
X117754929Y-85815265D01*
X117778727Y-85809304D01*
X117802996Y-85805704D01*
X117827500Y-85804500D01*
X119027500Y-85804500D01*
X119052004Y-85805704D01*
X119052004Y-85805704D01*
G37*
D12*
G04 #@! TD*
G04 #@! TO.P,RLoad1,1*
G04 #@! TO.N,Net-(MOSFET1-Pad2)*
X118427500Y-86804500D03*
D13*
G04 #@! TO.P,RLoad1,2*
G04 #@! TO.N,+80V*
X115927500Y-86804500D03*
G04 #@! TD*
D11*
G04 #@! TO.N,Vcontrol*
G04 #@! TO.C,Vcontrol1*
G36*
X80062504Y-95163204D02*
X80086773Y-95166804D01*
X80110571Y-95172765D01*
X80133671Y-95181030D01*
X80155849Y-95191520D01*
X80176893Y-95204133D01*
X80196598Y-95218747D01*
X80214777Y-95235223D01*
X80231253Y-95253402D01*
X80245867Y-95273107D01*
X80258480Y-95294151D01*
X80268970Y-95316329D01*
X80277235Y-95339429D01*
X80283196Y-95363227D01*
X80286796Y-95387496D01*
X80288000Y-95412000D01*
X80288000Y-96612000D01*
X80286796Y-96636504D01*
X80283196Y-96660773D01*
X80277235Y-96684571D01*
X80268970Y-96707671D01*
X80258480Y-96729849D01*
X80245867Y-96750893D01*
X80231253Y-96770598D01*
X80214777Y-96788777D01*
X80196598Y-96805253D01*
X80176893Y-96819867D01*
X80155849Y-96832480D01*
X80133671Y-96842970D01*
X80110571Y-96851235D01*
X80086773Y-96857196D01*
X80062504Y-96860796D01*
X80038000Y-96862000D01*
X78538000Y-96862000D01*
X78513496Y-96860796D01*
X78489227Y-96857196D01*
X78465429Y-96851235D01*
X78442329Y-96842970D01*
X78420151Y-96832480D01*
X78399107Y-96819867D01*
X78379402Y-96805253D01*
X78361223Y-96788777D01*
X78344747Y-96770598D01*
X78330133Y-96750893D01*
X78317520Y-96729849D01*
X78307030Y-96707671D01*
X78298765Y-96684571D01*
X78292804Y-96660773D01*
X78289204Y-96636504D01*
X78288000Y-96612000D01*
X78288000Y-95412000D01*
X78289204Y-95387496D01*
X78292804Y-95363227D01*
X78298765Y-95339429D01*
X78307030Y-95316329D01*
X78317520Y-95294151D01*
X78330133Y-95273107D01*
X78344747Y-95253402D01*
X78361223Y-95235223D01*
X78379402Y-95218747D01*
X78399107Y-95204133D01*
X78420151Y-95191520D01*
X78442329Y-95181030D01*
X78465429Y-95172765D01*
X78489227Y-95166804D01*
X78513496Y-95163204D01*
X78538000Y-95162000D01*
X80038000Y-95162000D01*
X80062504Y-95163204D01*
X80062504Y-95163204D01*
G37*
D12*
G04 #@! TD*
G04 #@! TO.P,Vcontrol1,1*
G04 #@! TO.N,Vcontrol*
X79288000Y-96012000D03*
D18*
G04 #@! TO.P,Vcontrol1,2*
G04 #@! TO.N,0V*
X79288000Y-98512000D03*
G04 #@! TD*
M02*
