G04 #@! TF.GenerationSoftware,KiCad,Pcbnew,5.0.2-bee76a0~70~ubuntu18.04.1*
G04 #@! TF.CreationDate,2019-07-04T09:06:03+01:00*
G04 #@! TF.ProjectId,High Current Circuit,48696768-2043-4757-9272-656e74204369,rev?*
G04 #@! TF.SameCoordinates,Original*
G04 #@! TF.FileFunction,Soldermask,Bot*
G04 #@! TF.FilePolarity,Negative*
%FSLAX46Y46*%
G04 Gerber Fmt 4.6, Leading zero omitted, Abs format (unit mm)*
G04 Created by KiCad (PCBNEW 5.0.2-bee76a0~70~ubuntu18.04.1) date Thu 04 Jul 2019 09:06:03 BST*
%MOMM*%
%LPD*%
G01*
G04 APERTURE LIST*
%ADD10C,0.100000*%
G04 APERTURE END LIST*
D10*
G36*
X89093127Y-110874037D02*
X89206353Y-110908384D01*
X89262967Y-110925557D01*
X89401587Y-110999652D01*
X89419491Y-111009222D01*
X89455229Y-111038552D01*
X89556686Y-111121814D01*
X89639948Y-111223271D01*
X89669278Y-111259009D01*
X89752943Y-111415534D01*
X89804463Y-111585374D01*
X89817500Y-111717743D01*
X89817500Y-112056258D01*
X89804463Y-112188627D01*
X89770116Y-112301853D01*
X89752943Y-112358467D01*
X89678848Y-112497087D01*
X89669278Y-112514991D01*
X89639948Y-112550729D01*
X89556686Y-112652186D01*
X89419489Y-112764779D01*
X89262966Y-112848443D01*
X89222233Y-112860799D01*
X89093126Y-112899963D01*
X88916500Y-112917359D01*
X88739873Y-112899963D01*
X88610766Y-112860799D01*
X88570033Y-112848443D01*
X88413511Y-112764779D01*
X88413509Y-112764778D01*
X88371249Y-112730096D01*
X88276314Y-112652186D01*
X88163721Y-112514989D01*
X88080057Y-112358466D01*
X88062884Y-112301852D01*
X88028537Y-112188626D01*
X88015500Y-112056257D01*
X88015500Y-111717742D01*
X88028537Y-111585373D01*
X88080057Y-111415534D01*
X88080057Y-111415533D01*
X88163722Y-111259008D01*
X88276312Y-111121817D01*
X88371250Y-111043904D01*
X88413510Y-111009222D01*
X88431414Y-110999652D01*
X88570034Y-110925557D01*
X88626648Y-110908384D01*
X88739874Y-110874037D01*
X88916500Y-110856641D01*
X89093127Y-110874037D01*
X89093127Y-110874037D01*
G37*
G36*
X91593127Y-110874037D02*
X91706353Y-110908384D01*
X91762967Y-110925557D01*
X91901587Y-110999652D01*
X91919491Y-111009222D01*
X91955229Y-111038552D01*
X92056686Y-111121814D01*
X92139948Y-111223271D01*
X92169278Y-111259009D01*
X92252943Y-111415534D01*
X92304463Y-111585374D01*
X92317500Y-111717743D01*
X92317500Y-112056258D01*
X92304463Y-112188627D01*
X92270116Y-112301853D01*
X92252943Y-112358467D01*
X92178848Y-112497087D01*
X92169278Y-112514991D01*
X92139948Y-112550729D01*
X92056686Y-112652186D01*
X91919489Y-112764779D01*
X91762966Y-112848443D01*
X91722233Y-112860799D01*
X91593126Y-112899963D01*
X91416500Y-112917359D01*
X91239873Y-112899963D01*
X91110766Y-112860799D01*
X91070033Y-112848443D01*
X90913511Y-112764779D01*
X90913509Y-112764778D01*
X90871249Y-112730096D01*
X90776314Y-112652186D01*
X90663721Y-112514989D01*
X90580057Y-112358466D01*
X90562884Y-112301852D01*
X90528537Y-112188626D01*
X90515500Y-112056257D01*
X90515500Y-111717742D01*
X90528537Y-111585373D01*
X90580057Y-111415534D01*
X90580057Y-111415533D01*
X90663722Y-111259008D01*
X90776312Y-111121817D01*
X90871250Y-111043904D01*
X90913510Y-111009222D01*
X90931414Y-110999652D01*
X91070034Y-110925557D01*
X91126648Y-110908384D01*
X91239874Y-110874037D01*
X91416500Y-110856641D01*
X91593127Y-110874037D01*
X91593127Y-110874037D01*
G37*
G36*
X94675100Y-110864989D02*
X94708149Y-110875014D01*
X94738606Y-110891294D01*
X94765299Y-110913201D01*
X94787206Y-110939894D01*
X94803486Y-110970351D01*
X94813511Y-111003400D01*
X94817500Y-111043904D01*
X94817500Y-112730096D01*
X94813511Y-112770600D01*
X94803486Y-112803649D01*
X94787206Y-112834106D01*
X94765299Y-112860799D01*
X94738606Y-112882706D01*
X94708149Y-112898986D01*
X94675100Y-112909011D01*
X94634596Y-112913000D01*
X93198404Y-112913000D01*
X93157900Y-112909011D01*
X93124851Y-112898986D01*
X93094394Y-112882706D01*
X93067701Y-112860799D01*
X93045794Y-112834106D01*
X93029514Y-112803649D01*
X93019489Y-112770600D01*
X93015500Y-112730096D01*
X93015500Y-111043904D01*
X93019489Y-111003400D01*
X93029514Y-110970351D01*
X93045794Y-110939894D01*
X93067701Y-110913201D01*
X93094394Y-110891294D01*
X93124851Y-110875014D01*
X93157900Y-110864989D01*
X93198404Y-110861000D01*
X94634596Y-110861000D01*
X94675100Y-110864989D01*
X94675100Y-110864989D01*
G37*
G36*
X110529821Y-104825313D02*
X110529824Y-104825314D01*
X110529825Y-104825314D01*
X110690239Y-104873975D01*
X110690241Y-104873976D01*
X110690244Y-104873977D01*
X110838078Y-104952995D01*
X110967659Y-105059341D01*
X111074005Y-105188922D01*
X111153023Y-105336756D01*
X111153024Y-105336759D01*
X111153025Y-105336761D01*
X111201686Y-105497175D01*
X111201687Y-105497179D01*
X111218117Y-105664000D01*
X111201687Y-105830821D01*
X111201686Y-105830824D01*
X111201686Y-105830825D01*
X111176993Y-105912228D01*
X111153023Y-105991244D01*
X111074005Y-106139078D01*
X110967659Y-106268659D01*
X110838078Y-106375005D01*
X110690244Y-106454023D01*
X110690241Y-106454024D01*
X110690239Y-106454025D01*
X110529825Y-106502686D01*
X110529824Y-106502686D01*
X110529821Y-106502687D01*
X110404804Y-106515000D01*
X110321196Y-106515000D01*
X110196179Y-106502687D01*
X110196176Y-106502686D01*
X110196175Y-106502686D01*
X110035761Y-106454025D01*
X110035759Y-106454024D01*
X110035756Y-106454023D01*
X109887922Y-106375005D01*
X109758341Y-106268659D01*
X109651995Y-106139078D01*
X109572977Y-105991244D01*
X109549008Y-105912228D01*
X109524314Y-105830825D01*
X109524314Y-105830824D01*
X109524313Y-105830821D01*
X109507883Y-105664000D01*
X109524313Y-105497179D01*
X109524314Y-105497175D01*
X109572975Y-105336761D01*
X109572976Y-105336759D01*
X109572977Y-105336756D01*
X109651995Y-105188922D01*
X109758341Y-105059341D01*
X109887922Y-104952995D01*
X110035756Y-104873977D01*
X110035759Y-104873976D01*
X110035761Y-104873975D01*
X110196175Y-104825314D01*
X110196176Y-104825314D01*
X110196179Y-104825313D01*
X110321196Y-104813000D01*
X110404804Y-104813000D01*
X110529821Y-104825313D01*
X110529821Y-104825313D01*
G37*
G36*
X118231228Y-104845703D02*
X118386100Y-104909853D01*
X118525481Y-105002985D01*
X118644015Y-105121519D01*
X118737147Y-105260900D01*
X118801297Y-105415772D01*
X118834000Y-105580184D01*
X118834000Y-105747816D01*
X118801297Y-105912228D01*
X118737147Y-106067100D01*
X118644015Y-106206481D01*
X118525481Y-106325015D01*
X118386100Y-106418147D01*
X118231228Y-106482297D01*
X118066816Y-106515000D01*
X117899184Y-106515000D01*
X117734772Y-106482297D01*
X117579900Y-106418147D01*
X117440519Y-106325015D01*
X117321985Y-106206481D01*
X117228853Y-106067100D01*
X117164703Y-105912228D01*
X117132000Y-105747816D01*
X117132000Y-105580184D01*
X117164703Y-105415772D01*
X117228853Y-105260900D01*
X117321985Y-105121519D01*
X117440519Y-105002985D01*
X117579900Y-104909853D01*
X117734772Y-104845703D01*
X117899184Y-104813000D01*
X118066816Y-104813000D01*
X118231228Y-104845703D01*
X118231228Y-104845703D01*
G37*
G36*
X85020728Y-104845703D02*
X85175600Y-104909853D01*
X85314981Y-105002985D01*
X85433515Y-105121519D01*
X85526647Y-105260900D01*
X85590797Y-105415772D01*
X85623500Y-105580184D01*
X85623500Y-105747816D01*
X85590797Y-105912228D01*
X85526647Y-106067100D01*
X85433515Y-106206481D01*
X85314981Y-106325015D01*
X85175600Y-106418147D01*
X85020728Y-106482297D01*
X84856316Y-106515000D01*
X84688684Y-106515000D01*
X84524272Y-106482297D01*
X84369400Y-106418147D01*
X84230019Y-106325015D01*
X84111485Y-106206481D01*
X84018353Y-106067100D01*
X83954203Y-105912228D01*
X83921500Y-105747816D01*
X83921500Y-105580184D01*
X83954203Y-105415772D01*
X84018353Y-105260900D01*
X84111485Y-105121519D01*
X84230019Y-105002985D01*
X84369400Y-104909853D01*
X84524272Y-104845703D01*
X84688684Y-104813000D01*
X84856316Y-104813000D01*
X85020728Y-104845703D01*
X85020728Y-104845703D01*
G37*
G36*
X82520728Y-104845703D02*
X82675600Y-104909853D01*
X82814981Y-105002985D01*
X82933515Y-105121519D01*
X83026647Y-105260900D01*
X83090797Y-105415772D01*
X83123500Y-105580184D01*
X83123500Y-105747816D01*
X83090797Y-105912228D01*
X83026647Y-106067100D01*
X82933515Y-106206481D01*
X82814981Y-106325015D01*
X82675600Y-106418147D01*
X82520728Y-106482297D01*
X82356316Y-106515000D01*
X82188684Y-106515000D01*
X82024272Y-106482297D01*
X81869400Y-106418147D01*
X81730019Y-106325015D01*
X81611485Y-106206481D01*
X81518353Y-106067100D01*
X81454203Y-105912228D01*
X81421500Y-105747816D01*
X81421500Y-105580184D01*
X81454203Y-105415772D01*
X81518353Y-105260900D01*
X81611485Y-105121519D01*
X81730019Y-105002985D01*
X81869400Y-104909853D01*
X82024272Y-104845703D01*
X82188684Y-104813000D01*
X82356316Y-104813000D01*
X82520728Y-104845703D01*
X82520728Y-104845703D01*
G37*
G36*
X87796821Y-104698313D02*
X87796824Y-104698314D01*
X87796825Y-104698314D01*
X87957239Y-104746975D01*
X87957241Y-104746976D01*
X87957244Y-104746977D01*
X88105078Y-104825995D01*
X88234659Y-104932341D01*
X88341005Y-105061922D01*
X88420023Y-105209756D01*
X88420024Y-105209759D01*
X88420025Y-105209761D01*
X88458548Y-105336756D01*
X88468687Y-105370179D01*
X88485117Y-105537000D01*
X88468687Y-105703821D01*
X88420023Y-105864244D01*
X88341005Y-106012078D01*
X88234659Y-106141659D01*
X88105078Y-106248005D01*
X87957244Y-106327023D01*
X87957241Y-106327024D01*
X87957239Y-106327025D01*
X87796825Y-106375686D01*
X87796824Y-106375686D01*
X87796821Y-106375687D01*
X87671804Y-106388000D01*
X87588196Y-106388000D01*
X87463179Y-106375687D01*
X87463176Y-106375686D01*
X87463175Y-106375686D01*
X87302761Y-106327025D01*
X87302759Y-106327024D01*
X87302756Y-106327023D01*
X87154922Y-106248005D01*
X87025341Y-106141659D01*
X86918995Y-106012078D01*
X86839977Y-105864244D01*
X86791313Y-105703821D01*
X86774883Y-105537000D01*
X86791313Y-105370179D01*
X86801452Y-105336756D01*
X86839975Y-105209761D01*
X86839976Y-105209759D01*
X86839977Y-105209756D01*
X86918995Y-105061922D01*
X87025341Y-104932341D01*
X87154922Y-104825995D01*
X87302756Y-104746977D01*
X87302759Y-104746976D01*
X87302761Y-104746975D01*
X87463175Y-104698314D01*
X87463176Y-104698314D01*
X87463179Y-104698313D01*
X87588196Y-104686000D01*
X87671804Y-104686000D01*
X87796821Y-104698313D01*
X87796821Y-104698313D01*
G37*
G36*
X95416821Y-104698313D02*
X95416824Y-104698314D01*
X95416825Y-104698314D01*
X95577239Y-104746975D01*
X95577241Y-104746976D01*
X95577244Y-104746977D01*
X95725078Y-104825995D01*
X95854659Y-104932341D01*
X95961005Y-105061922D01*
X96040023Y-105209756D01*
X96040024Y-105209759D01*
X96040025Y-105209761D01*
X96078548Y-105336756D01*
X96088687Y-105370179D01*
X96105117Y-105537000D01*
X96088687Y-105703821D01*
X96040023Y-105864244D01*
X95961005Y-106012078D01*
X95854659Y-106141659D01*
X95725078Y-106248005D01*
X95577244Y-106327023D01*
X95577241Y-106327024D01*
X95577239Y-106327025D01*
X95416825Y-106375686D01*
X95416824Y-106375686D01*
X95416821Y-106375687D01*
X95291804Y-106388000D01*
X95208196Y-106388000D01*
X95083179Y-106375687D01*
X95083176Y-106375686D01*
X95083175Y-106375686D01*
X94922761Y-106327025D01*
X94922759Y-106327024D01*
X94922756Y-106327023D01*
X94774922Y-106248005D01*
X94645341Y-106141659D01*
X94538995Y-106012078D01*
X94459977Y-105864244D01*
X94411313Y-105703821D01*
X94394883Y-105537000D01*
X94411313Y-105370179D01*
X94421452Y-105336756D01*
X94459975Y-105209761D01*
X94459976Y-105209759D01*
X94459977Y-105209756D01*
X94538995Y-105061922D01*
X94645341Y-104932341D01*
X94774922Y-104825995D01*
X94922756Y-104746977D01*
X94922759Y-104746976D01*
X94922761Y-104746975D01*
X95083175Y-104698314D01*
X95083176Y-104698314D01*
X95083179Y-104698313D01*
X95208196Y-104686000D01*
X95291804Y-104686000D01*
X95416821Y-104698313D01*
X95416821Y-104698313D01*
G37*
G36*
X95416821Y-102158313D02*
X95416824Y-102158314D01*
X95416825Y-102158314D01*
X95577239Y-102206975D01*
X95577241Y-102206976D01*
X95577244Y-102206977D01*
X95725078Y-102285995D01*
X95854659Y-102392341D01*
X95961005Y-102521922D01*
X96040023Y-102669756D01*
X96088687Y-102830179D01*
X96105117Y-102997000D01*
X96088687Y-103163821D01*
X96040023Y-103324244D01*
X95961005Y-103472078D01*
X95854659Y-103601659D01*
X95725078Y-103708005D01*
X95577244Y-103787023D01*
X95577241Y-103787024D01*
X95577239Y-103787025D01*
X95416825Y-103835686D01*
X95416824Y-103835686D01*
X95416821Y-103835687D01*
X95291804Y-103848000D01*
X95208196Y-103848000D01*
X95083179Y-103835687D01*
X95083176Y-103835686D01*
X95083175Y-103835686D01*
X94922761Y-103787025D01*
X94922759Y-103787024D01*
X94922756Y-103787023D01*
X94774922Y-103708005D01*
X94645341Y-103601659D01*
X94538995Y-103472078D01*
X94459977Y-103324244D01*
X94411313Y-103163821D01*
X94394883Y-102997000D01*
X94411313Y-102830179D01*
X94459977Y-102669756D01*
X94538995Y-102521922D01*
X94645341Y-102392341D01*
X94774922Y-102285995D01*
X94922756Y-102206977D01*
X94922759Y-102206976D01*
X94922761Y-102206975D01*
X95083175Y-102158314D01*
X95083176Y-102158314D01*
X95083179Y-102158313D01*
X95208196Y-102146000D01*
X95291804Y-102146000D01*
X95416821Y-102158313D01*
X95416821Y-102158313D01*
G37*
G36*
X87796821Y-102158313D02*
X87796824Y-102158314D01*
X87796825Y-102158314D01*
X87957239Y-102206975D01*
X87957241Y-102206976D01*
X87957244Y-102206977D01*
X88105078Y-102285995D01*
X88234659Y-102392341D01*
X88341005Y-102521922D01*
X88420023Y-102669756D01*
X88468687Y-102830179D01*
X88485117Y-102997000D01*
X88468687Y-103163821D01*
X88420023Y-103324244D01*
X88341005Y-103472078D01*
X88234659Y-103601659D01*
X88105078Y-103708005D01*
X87957244Y-103787023D01*
X87957241Y-103787024D01*
X87957239Y-103787025D01*
X87796825Y-103835686D01*
X87796824Y-103835686D01*
X87796821Y-103835687D01*
X87671804Y-103848000D01*
X87588196Y-103848000D01*
X87463179Y-103835687D01*
X87463176Y-103835686D01*
X87463175Y-103835686D01*
X87302761Y-103787025D01*
X87302759Y-103787024D01*
X87302756Y-103787023D01*
X87154922Y-103708005D01*
X87025341Y-103601659D01*
X86918995Y-103472078D01*
X86839977Y-103324244D01*
X86791313Y-103163821D01*
X86774883Y-102997000D01*
X86791313Y-102830179D01*
X86839977Y-102669756D01*
X86918995Y-102521922D01*
X87025341Y-102392341D01*
X87154922Y-102285995D01*
X87302756Y-102206977D01*
X87302759Y-102206976D01*
X87302761Y-102206975D01*
X87463175Y-102158314D01*
X87463176Y-102158314D01*
X87463179Y-102158313D01*
X87588196Y-102146000D01*
X87671804Y-102146000D01*
X87796821Y-102158313D01*
X87796821Y-102158313D01*
G37*
G36*
X100832228Y-99702203D02*
X100987100Y-99766353D01*
X101126481Y-99859485D01*
X101245015Y-99978019D01*
X101338147Y-100117400D01*
X101402297Y-100272272D01*
X101435000Y-100436684D01*
X101435000Y-100604316D01*
X101402297Y-100768728D01*
X101338147Y-100923600D01*
X101245015Y-101062981D01*
X101126481Y-101181515D01*
X100987100Y-101274647D01*
X100832228Y-101338797D01*
X100667816Y-101371500D01*
X100500184Y-101371500D01*
X100335772Y-101338797D01*
X100180900Y-101274647D01*
X100041519Y-101181515D01*
X99922985Y-101062981D01*
X99829853Y-100923600D01*
X99765703Y-100768728D01*
X99733000Y-100604316D01*
X99733000Y-100436684D01*
X99765703Y-100272272D01*
X99829853Y-100117400D01*
X99922985Y-99978019D01*
X100041519Y-99859485D01*
X100180900Y-99766353D01*
X100335772Y-99702203D01*
X100500184Y-99669500D01*
X100667816Y-99669500D01*
X100832228Y-99702203D01*
X100832228Y-99702203D01*
G37*
G36*
X98332228Y-99702203D02*
X98487100Y-99766353D01*
X98626481Y-99859485D01*
X98745015Y-99978019D01*
X98838147Y-100117400D01*
X98902297Y-100272272D01*
X98935000Y-100436684D01*
X98935000Y-100604316D01*
X98902297Y-100768728D01*
X98838147Y-100923600D01*
X98745015Y-101062981D01*
X98626481Y-101181515D01*
X98487100Y-101274647D01*
X98332228Y-101338797D01*
X98167816Y-101371500D01*
X98000184Y-101371500D01*
X97835772Y-101338797D01*
X97680900Y-101274647D01*
X97541519Y-101181515D01*
X97422985Y-101062981D01*
X97329853Y-100923600D01*
X97265703Y-100768728D01*
X97233000Y-100604316D01*
X97233000Y-100436684D01*
X97265703Y-100272272D01*
X97329853Y-100117400D01*
X97422985Y-99978019D01*
X97541519Y-99859485D01*
X97680900Y-99766353D01*
X97835772Y-99702203D01*
X98000184Y-99669500D01*
X98167816Y-99669500D01*
X98332228Y-99702203D01*
X98332228Y-99702203D01*
G37*
G36*
X87796821Y-99618313D02*
X87796824Y-99618314D01*
X87796825Y-99618314D01*
X87957239Y-99666975D01*
X87957241Y-99666976D01*
X87957244Y-99666977D01*
X88105078Y-99745995D01*
X88234659Y-99852341D01*
X88341005Y-99981922D01*
X88420023Y-100129756D01*
X88420024Y-100129759D01*
X88420025Y-100129761D01*
X88463077Y-100271685D01*
X88468687Y-100290179D01*
X88485117Y-100457000D01*
X88468687Y-100623821D01*
X88420023Y-100784244D01*
X88341005Y-100932078D01*
X88234659Y-101061659D01*
X88105078Y-101168005D01*
X87957244Y-101247023D01*
X87957241Y-101247024D01*
X87957239Y-101247025D01*
X87796825Y-101295686D01*
X87796824Y-101295686D01*
X87796821Y-101295687D01*
X87671804Y-101308000D01*
X87588196Y-101308000D01*
X87463179Y-101295687D01*
X87463176Y-101295686D01*
X87463175Y-101295686D01*
X87302761Y-101247025D01*
X87302759Y-101247024D01*
X87302756Y-101247023D01*
X87154922Y-101168005D01*
X87025341Y-101061659D01*
X86918995Y-100932078D01*
X86839977Y-100784244D01*
X86791313Y-100623821D01*
X86774883Y-100457000D01*
X86791313Y-100290179D01*
X86796923Y-100271685D01*
X86839975Y-100129761D01*
X86839976Y-100129759D01*
X86839977Y-100129756D01*
X86918995Y-99981922D01*
X87025341Y-99852341D01*
X87154922Y-99745995D01*
X87302756Y-99666977D01*
X87302759Y-99666976D01*
X87302761Y-99666975D01*
X87463175Y-99618314D01*
X87463176Y-99618314D01*
X87463179Y-99618313D01*
X87588196Y-99606000D01*
X87671804Y-99606000D01*
X87796821Y-99618313D01*
X87796821Y-99618313D01*
G37*
G36*
X95416821Y-99618313D02*
X95416824Y-99618314D01*
X95416825Y-99618314D01*
X95577239Y-99666975D01*
X95577241Y-99666976D01*
X95577244Y-99666977D01*
X95725078Y-99745995D01*
X95854659Y-99852341D01*
X95961005Y-99981922D01*
X96040023Y-100129756D01*
X96040024Y-100129759D01*
X96040025Y-100129761D01*
X96083077Y-100271685D01*
X96088687Y-100290179D01*
X96105117Y-100457000D01*
X96088687Y-100623821D01*
X96040023Y-100784244D01*
X95961005Y-100932078D01*
X95854659Y-101061659D01*
X95725078Y-101168005D01*
X95577244Y-101247023D01*
X95577241Y-101247024D01*
X95577239Y-101247025D01*
X95416825Y-101295686D01*
X95416824Y-101295686D01*
X95416821Y-101295687D01*
X95291804Y-101308000D01*
X95208196Y-101308000D01*
X95083179Y-101295687D01*
X95083176Y-101295686D01*
X95083175Y-101295686D01*
X94922761Y-101247025D01*
X94922759Y-101247024D01*
X94922756Y-101247023D01*
X94774922Y-101168005D01*
X94645341Y-101061659D01*
X94538995Y-100932078D01*
X94459977Y-100784244D01*
X94411313Y-100623821D01*
X94394883Y-100457000D01*
X94411313Y-100290179D01*
X94416923Y-100271685D01*
X94459975Y-100129761D01*
X94459976Y-100129759D01*
X94459977Y-100129756D01*
X94538995Y-99981922D01*
X94645341Y-99852341D01*
X94774922Y-99745995D01*
X94922756Y-99666977D01*
X94922759Y-99666976D01*
X94922761Y-99666975D01*
X95083175Y-99618314D01*
X95083176Y-99618314D01*
X95083179Y-99618313D01*
X95208196Y-99606000D01*
X95291804Y-99606000D01*
X95416821Y-99618313D01*
X95416821Y-99618313D01*
G37*
G36*
X119234443Y-98737019D02*
X119300627Y-98743537D01*
X119413853Y-98777884D01*
X119470467Y-98795057D01*
X119589095Y-98858466D01*
X119626991Y-98878722D01*
X119662729Y-98908052D01*
X119764186Y-98991314D01*
X119847448Y-99092771D01*
X119876778Y-99128509D01*
X119876779Y-99128511D01*
X119960443Y-99285033D01*
X119960443Y-99285034D01*
X120011963Y-99454873D01*
X120029359Y-99631500D01*
X120011963Y-99808127D01*
X119996383Y-99859486D01*
X119960443Y-99977967D01*
X119886348Y-100116587D01*
X119876778Y-100134491D01*
X119847448Y-100170229D01*
X119764186Y-100271686D01*
X119662729Y-100354948D01*
X119626991Y-100384278D01*
X119626989Y-100384279D01*
X119470467Y-100467943D01*
X119413853Y-100485116D01*
X119300627Y-100519463D01*
X119234443Y-100525981D01*
X119168260Y-100532500D01*
X118829740Y-100532500D01*
X118763557Y-100525981D01*
X118697373Y-100519463D01*
X118584147Y-100485116D01*
X118527533Y-100467943D01*
X118371011Y-100384279D01*
X118371009Y-100384278D01*
X118335271Y-100354948D01*
X118233814Y-100271686D01*
X118150552Y-100170229D01*
X118121222Y-100134491D01*
X118111652Y-100116587D01*
X118037557Y-99977967D01*
X118001617Y-99859486D01*
X117986037Y-99808127D01*
X117968641Y-99631500D01*
X117986037Y-99454873D01*
X118037557Y-99285034D01*
X118037557Y-99285033D01*
X118121221Y-99128511D01*
X118121222Y-99128509D01*
X118150552Y-99092771D01*
X118233814Y-98991314D01*
X118335271Y-98908052D01*
X118371009Y-98878722D01*
X118408905Y-98858466D01*
X118527533Y-98795057D01*
X118584147Y-98777884D01*
X118697373Y-98743537D01*
X118763558Y-98737018D01*
X118829740Y-98730500D01*
X119168260Y-98730500D01*
X119234443Y-98737019D01*
X119234443Y-98737019D01*
G37*
G36*
X79548442Y-97617518D02*
X79614627Y-97624037D01*
X79727853Y-97658384D01*
X79784467Y-97675557D01*
X79923087Y-97749652D01*
X79940991Y-97759222D01*
X79956177Y-97771685D01*
X80078186Y-97871814D01*
X80157076Y-97967943D01*
X80190778Y-98009009D01*
X80190779Y-98009011D01*
X80274443Y-98165533D01*
X80274443Y-98165534D01*
X80325963Y-98335373D01*
X80343359Y-98512000D01*
X80325963Y-98688627D01*
X80293678Y-98795057D01*
X80274443Y-98858467D01*
X80263616Y-98878722D01*
X80190778Y-99014991D01*
X80161448Y-99050729D01*
X80078186Y-99152186D01*
X79976729Y-99235448D01*
X79940991Y-99264778D01*
X79940989Y-99264779D01*
X79784467Y-99348443D01*
X79727853Y-99365616D01*
X79614627Y-99399963D01*
X79548443Y-99406481D01*
X79482260Y-99413000D01*
X79093740Y-99413000D01*
X79027557Y-99406481D01*
X78961373Y-99399963D01*
X78848147Y-99365616D01*
X78791533Y-99348443D01*
X78635011Y-99264779D01*
X78635009Y-99264778D01*
X78599271Y-99235448D01*
X78497814Y-99152186D01*
X78414552Y-99050729D01*
X78385222Y-99014991D01*
X78312384Y-98878722D01*
X78301557Y-98858467D01*
X78282322Y-98795057D01*
X78250037Y-98688627D01*
X78232641Y-98512000D01*
X78250037Y-98335373D01*
X78301557Y-98165534D01*
X78301557Y-98165533D01*
X78385221Y-98009011D01*
X78385222Y-98009009D01*
X78418924Y-97967943D01*
X78497814Y-97871814D01*
X78619823Y-97771685D01*
X78635009Y-97759222D01*
X78652913Y-97749652D01*
X78791533Y-97675557D01*
X78848147Y-97658384D01*
X78961373Y-97624037D01*
X79027558Y-97617518D01*
X79093740Y-97611000D01*
X79482260Y-97611000D01*
X79548442Y-97617518D01*
X79548442Y-97617518D01*
G37*
G36*
X88481000Y-98768000D02*
X86779000Y-98768000D01*
X86779000Y-97066000D01*
X88481000Y-97066000D01*
X88481000Y-98768000D01*
X88481000Y-98768000D01*
G37*
G36*
X95416821Y-97078313D02*
X95416824Y-97078314D01*
X95416825Y-97078314D01*
X95577239Y-97126975D01*
X95577241Y-97126976D01*
X95577244Y-97126977D01*
X95725078Y-97205995D01*
X95854659Y-97312341D01*
X95961005Y-97441922D01*
X96040023Y-97589756D01*
X96040024Y-97589759D01*
X96040025Y-97589761D01*
X96066051Y-97675557D01*
X96088687Y-97750179D01*
X96105117Y-97917000D01*
X96088687Y-98083821D01*
X96040023Y-98244244D01*
X95961005Y-98392078D01*
X95854659Y-98521659D01*
X95725078Y-98628005D01*
X95577244Y-98707023D01*
X95577241Y-98707024D01*
X95577239Y-98707025D01*
X95416825Y-98755686D01*
X95416824Y-98755686D01*
X95416821Y-98755687D01*
X95291804Y-98768000D01*
X95208196Y-98768000D01*
X95083179Y-98755687D01*
X95083176Y-98755686D01*
X95083175Y-98755686D01*
X94922761Y-98707025D01*
X94922759Y-98707024D01*
X94922756Y-98707023D01*
X94774922Y-98628005D01*
X94645341Y-98521659D01*
X94538995Y-98392078D01*
X94459977Y-98244244D01*
X94411313Y-98083821D01*
X94394883Y-97917000D01*
X94411313Y-97750179D01*
X94433949Y-97675557D01*
X94459975Y-97589761D01*
X94459976Y-97589759D01*
X94459977Y-97589756D01*
X94538995Y-97441922D01*
X94645341Y-97312341D01*
X94774922Y-97205995D01*
X94922756Y-97126977D01*
X94922759Y-97126976D01*
X94922761Y-97126975D01*
X95083175Y-97078314D01*
X95083176Y-97078314D01*
X95083179Y-97078313D01*
X95208196Y-97066000D01*
X95291804Y-97066000D01*
X95416821Y-97078313D01*
X95416821Y-97078313D01*
G37*
G36*
X119234442Y-96237018D02*
X119300627Y-96243537D01*
X119413853Y-96277884D01*
X119470467Y-96295057D01*
X119609087Y-96369152D01*
X119626991Y-96378722D01*
X119662729Y-96408052D01*
X119764186Y-96491314D01*
X119847448Y-96592771D01*
X119876778Y-96628509D01*
X119876779Y-96628511D01*
X119960443Y-96785033D01*
X119960443Y-96785034D01*
X120011963Y-96954873D01*
X120029359Y-97131500D01*
X120011963Y-97308127D01*
X119977616Y-97421353D01*
X119960443Y-97477967D01*
X119900690Y-97589756D01*
X119876778Y-97634491D01*
X119847448Y-97670229D01*
X119764186Y-97771686D01*
X119662729Y-97854948D01*
X119626991Y-97884278D01*
X119626989Y-97884279D01*
X119470467Y-97967943D01*
X119413853Y-97985116D01*
X119300627Y-98019463D01*
X119234443Y-98025981D01*
X119168260Y-98032500D01*
X118829740Y-98032500D01*
X118763557Y-98025981D01*
X118697373Y-98019463D01*
X118584147Y-97985116D01*
X118527533Y-97967943D01*
X118371011Y-97884279D01*
X118371009Y-97884278D01*
X118335271Y-97854948D01*
X118233814Y-97771686D01*
X118150552Y-97670229D01*
X118121222Y-97634491D01*
X118097310Y-97589756D01*
X118037557Y-97477967D01*
X118020384Y-97421353D01*
X117986037Y-97308127D01*
X117968641Y-97131500D01*
X117986037Y-96954873D01*
X118037557Y-96785034D01*
X118037557Y-96785033D01*
X118121221Y-96628511D01*
X118121222Y-96628509D01*
X118150552Y-96592771D01*
X118233814Y-96491314D01*
X118335271Y-96408052D01*
X118371009Y-96378722D01*
X118388913Y-96369152D01*
X118527533Y-96295057D01*
X118584147Y-96277884D01*
X118697373Y-96243537D01*
X118763558Y-96237018D01*
X118829740Y-96230500D01*
X119168260Y-96230500D01*
X119234442Y-96237018D01*
X119234442Y-96237018D01*
G37*
G36*
X80196600Y-95114989D02*
X80229649Y-95125014D01*
X80260106Y-95141294D01*
X80286799Y-95163201D01*
X80308706Y-95189894D01*
X80324986Y-95220351D01*
X80335011Y-95253400D01*
X80339000Y-95293904D01*
X80339000Y-96730096D01*
X80335011Y-96770600D01*
X80324986Y-96803649D01*
X80308706Y-96834106D01*
X80286799Y-96860799D01*
X80260106Y-96882706D01*
X80229649Y-96898986D01*
X80196600Y-96909011D01*
X80156096Y-96913000D01*
X78419904Y-96913000D01*
X78379400Y-96909011D01*
X78346351Y-96898986D01*
X78315894Y-96882706D01*
X78289201Y-96860799D01*
X78267294Y-96834106D01*
X78251014Y-96803649D01*
X78240989Y-96770600D01*
X78237000Y-96730096D01*
X78237000Y-95293904D01*
X78240989Y-95253400D01*
X78251014Y-95220351D01*
X78267294Y-95189894D01*
X78289201Y-95163201D01*
X78315894Y-95141294D01*
X78346351Y-95125014D01*
X78379400Y-95114989D01*
X78419904Y-95111000D01*
X80156096Y-95111000D01*
X80196600Y-95114989D01*
X80196600Y-95114989D01*
G37*
G36*
X119882600Y-93734489D02*
X119915649Y-93744514D01*
X119946106Y-93760794D01*
X119972799Y-93782701D01*
X119994706Y-93809394D01*
X120010986Y-93839851D01*
X120021011Y-93872900D01*
X120025000Y-93913404D01*
X120025000Y-95349596D01*
X120021011Y-95390100D01*
X120010986Y-95423149D01*
X119994706Y-95453606D01*
X119972799Y-95480299D01*
X119946106Y-95502206D01*
X119915649Y-95518486D01*
X119882600Y-95528511D01*
X119842096Y-95532500D01*
X118155904Y-95532500D01*
X118115400Y-95528511D01*
X118082351Y-95518486D01*
X118051894Y-95502206D01*
X118025201Y-95480299D01*
X118003294Y-95453606D01*
X117987014Y-95423149D01*
X117976989Y-95390100D01*
X117973000Y-95349596D01*
X117973000Y-93913404D01*
X117976989Y-93872900D01*
X117987014Y-93839851D01*
X118003294Y-93809394D01*
X118025201Y-93782701D01*
X118051894Y-93760794D01*
X118082351Y-93744514D01*
X118115400Y-93734489D01*
X118155904Y-93730500D01*
X119842096Y-93730500D01*
X119882600Y-93734489D01*
X119882600Y-93734489D01*
G37*
G36*
X113405228Y-93796703D02*
X113560100Y-93860853D01*
X113699481Y-93953985D01*
X113818015Y-94072519D01*
X113911147Y-94211900D01*
X113975297Y-94366772D01*
X114008000Y-94531184D01*
X114008000Y-94698816D01*
X113975297Y-94863228D01*
X113911147Y-95018100D01*
X113818015Y-95157481D01*
X113699481Y-95276015D01*
X113560100Y-95369147D01*
X113405228Y-95433297D01*
X113240816Y-95466000D01*
X113073184Y-95466000D01*
X112908772Y-95433297D01*
X112753900Y-95369147D01*
X112614519Y-95276015D01*
X112495985Y-95157481D01*
X112402853Y-95018100D01*
X112338703Y-94863228D01*
X112306000Y-94698816D01*
X112306000Y-94531184D01*
X112338703Y-94366772D01*
X112402853Y-94211900D01*
X112495985Y-94072519D01*
X112614519Y-93953985D01*
X112753900Y-93860853D01*
X112908772Y-93796703D01*
X113073184Y-93764000D01*
X113240816Y-93764000D01*
X113405228Y-93796703D01*
X113405228Y-93796703D01*
G37*
G36*
X105703821Y-93776313D02*
X105703824Y-93776314D01*
X105703825Y-93776314D01*
X105864239Y-93824975D01*
X105864241Y-93824976D01*
X105864244Y-93824977D01*
X106012078Y-93903995D01*
X106141659Y-94010341D01*
X106248005Y-94139922D01*
X106327023Y-94287756D01*
X106327024Y-94287759D01*
X106327025Y-94287761D01*
X106375686Y-94448175D01*
X106375687Y-94448179D01*
X106392117Y-94615000D01*
X106375687Y-94781821D01*
X106375686Y-94781824D01*
X106375686Y-94781825D01*
X106350993Y-94863228D01*
X106327023Y-94942244D01*
X106248005Y-95090078D01*
X106141659Y-95219659D01*
X106012078Y-95326005D01*
X105864244Y-95405023D01*
X105864241Y-95405024D01*
X105864239Y-95405025D01*
X105703825Y-95453686D01*
X105703824Y-95453686D01*
X105703821Y-95453687D01*
X105578804Y-95466000D01*
X105495196Y-95466000D01*
X105370179Y-95453687D01*
X105370176Y-95453686D01*
X105370175Y-95453686D01*
X105209761Y-95405025D01*
X105209759Y-95405024D01*
X105209756Y-95405023D01*
X105061922Y-95326005D01*
X104932341Y-95219659D01*
X104825995Y-95090078D01*
X104746977Y-94942244D01*
X104723008Y-94863228D01*
X104698314Y-94781825D01*
X104698314Y-94781824D01*
X104698313Y-94781821D01*
X104681883Y-94615000D01*
X104698313Y-94448179D01*
X104698314Y-94448175D01*
X104746975Y-94287761D01*
X104746976Y-94287759D01*
X104746977Y-94287756D01*
X104825995Y-94139922D01*
X104932341Y-94010341D01*
X105061922Y-93903995D01*
X105209756Y-93824977D01*
X105209759Y-93824976D01*
X105209761Y-93824975D01*
X105370175Y-93776314D01*
X105370176Y-93776314D01*
X105370179Y-93776313D01*
X105495196Y-93764000D01*
X105578804Y-93764000D01*
X105703821Y-93776313D01*
X105703821Y-93776313D01*
G37*
G36*
X101975228Y-93733203D02*
X102130100Y-93797353D01*
X102269481Y-93890485D01*
X102388015Y-94009019D01*
X102481147Y-94148400D01*
X102545297Y-94303272D01*
X102578000Y-94467684D01*
X102578000Y-94635316D01*
X102545297Y-94799728D01*
X102481147Y-94954600D01*
X102388015Y-95093981D01*
X102269481Y-95212515D01*
X102130100Y-95305647D01*
X101975228Y-95369797D01*
X101810816Y-95402500D01*
X101643184Y-95402500D01*
X101478772Y-95369797D01*
X101323900Y-95305647D01*
X101184519Y-95212515D01*
X101065985Y-95093981D01*
X100972853Y-94954600D01*
X100908703Y-94799728D01*
X100876000Y-94635316D01*
X100876000Y-94467684D01*
X100908703Y-94303272D01*
X100972853Y-94148400D01*
X101065985Y-94009019D01*
X101184519Y-93890485D01*
X101323900Y-93797353D01*
X101478772Y-93733203D01*
X101643184Y-93700500D01*
X101810816Y-93700500D01*
X101975228Y-93733203D01*
X101975228Y-93733203D01*
G37*
G36*
X99475228Y-93733203D02*
X99630100Y-93797353D01*
X99769481Y-93890485D01*
X99888015Y-94009019D01*
X99981147Y-94148400D01*
X100045297Y-94303272D01*
X100078000Y-94467684D01*
X100078000Y-94635316D01*
X100045297Y-94799728D01*
X99981147Y-94954600D01*
X99888015Y-95093981D01*
X99769481Y-95212515D01*
X99630100Y-95305647D01*
X99475228Y-95369797D01*
X99310816Y-95402500D01*
X99143184Y-95402500D01*
X98978772Y-95369797D01*
X98823900Y-95305647D01*
X98684519Y-95212515D01*
X98565985Y-95093981D01*
X98472853Y-94954600D01*
X98408703Y-94799728D01*
X98376000Y-94635316D01*
X98376000Y-94467684D01*
X98408703Y-94303272D01*
X98472853Y-94148400D01*
X98565985Y-94009019D01*
X98684519Y-93890485D01*
X98823900Y-93797353D01*
X98978772Y-93733203D01*
X99143184Y-93700500D01*
X99310816Y-93700500D01*
X99475228Y-93733203D01*
X99475228Y-93733203D01*
G37*
G36*
X81615228Y-90240703D02*
X81770100Y-90304853D01*
X81909481Y-90397985D01*
X82028015Y-90516519D01*
X82121147Y-90655900D01*
X82185297Y-90810772D01*
X82218000Y-90975184D01*
X82218000Y-91142816D01*
X82185297Y-91307228D01*
X82121147Y-91462100D01*
X82028015Y-91601481D01*
X81909481Y-91720015D01*
X81770100Y-91813147D01*
X81615228Y-91877297D01*
X81450816Y-91910000D01*
X81283184Y-91910000D01*
X81118772Y-91877297D01*
X80963900Y-91813147D01*
X80824519Y-91720015D01*
X80705985Y-91601481D01*
X80612853Y-91462100D01*
X80548703Y-91307228D01*
X80516000Y-91142816D01*
X80516000Y-90975184D01*
X80548703Y-90810772D01*
X80612853Y-90655900D01*
X80705985Y-90516519D01*
X80824519Y-90397985D01*
X80963900Y-90304853D01*
X81118772Y-90240703D01*
X81283184Y-90208000D01*
X81450816Y-90208000D01*
X81615228Y-90240703D01*
X81615228Y-90240703D01*
G37*
G36*
X79115228Y-90240703D02*
X79270100Y-90304853D01*
X79409481Y-90397985D01*
X79528015Y-90516519D01*
X79621147Y-90655900D01*
X79685297Y-90810772D01*
X79718000Y-90975184D01*
X79718000Y-91142816D01*
X79685297Y-91307228D01*
X79621147Y-91462100D01*
X79528015Y-91601481D01*
X79409481Y-91720015D01*
X79270100Y-91813147D01*
X79115228Y-91877297D01*
X78950816Y-91910000D01*
X78783184Y-91910000D01*
X78618772Y-91877297D01*
X78463900Y-91813147D01*
X78324519Y-91720015D01*
X78205985Y-91601481D01*
X78112853Y-91462100D01*
X78048703Y-91307228D01*
X78016000Y-91142816D01*
X78016000Y-90975184D01*
X78048703Y-90810772D01*
X78112853Y-90655900D01*
X78205985Y-90516519D01*
X78324519Y-90397985D01*
X78463900Y-90304853D01*
X78618772Y-90240703D01*
X78783184Y-90208000D01*
X78950816Y-90208000D01*
X79115228Y-90240703D01*
X79115228Y-90240703D01*
G37*
G36*
X116104127Y-85766537D02*
X116212300Y-85799351D01*
X116273967Y-85818057D01*
X116376577Y-85872904D01*
X116430491Y-85901722D01*
X116466229Y-85931052D01*
X116567686Y-86014314D01*
X116650948Y-86115771D01*
X116680278Y-86151509D01*
X116763943Y-86308034D01*
X116815463Y-86477874D01*
X116828500Y-86610243D01*
X116828500Y-86998758D01*
X116815463Y-87131127D01*
X116783206Y-87237465D01*
X116763943Y-87300967D01*
X116714221Y-87393989D01*
X116680278Y-87457491D01*
X116650948Y-87493229D01*
X116567686Y-87594686D01*
X116430489Y-87707279D01*
X116273966Y-87790943D01*
X116270481Y-87792000D01*
X116104126Y-87842463D01*
X115927500Y-87859859D01*
X115750873Y-87842463D01*
X115584518Y-87792000D01*
X115581033Y-87790943D01*
X115424511Y-87707279D01*
X115424509Y-87707278D01*
X115382249Y-87672596D01*
X115287314Y-87594686D01*
X115174721Y-87457489D01*
X115091057Y-87300966D01*
X115071795Y-87237465D01*
X115039537Y-87131126D01*
X115026500Y-86998757D01*
X115026500Y-86610242D01*
X115039537Y-86477873D01*
X115091057Y-86308034D01*
X115091057Y-86308033D01*
X115174722Y-86151508D01*
X115287312Y-86014317D01*
X115382250Y-85936404D01*
X115424510Y-85901722D01*
X115478424Y-85872904D01*
X115581034Y-85818057D01*
X115642701Y-85799351D01*
X115750874Y-85766537D01*
X115927500Y-85749141D01*
X116104127Y-85766537D01*
X116104127Y-85766537D01*
G37*
G36*
X119186100Y-85757489D02*
X119219149Y-85767514D01*
X119249606Y-85783794D01*
X119276299Y-85805701D01*
X119298206Y-85832394D01*
X119314486Y-85862851D01*
X119324511Y-85895900D01*
X119328500Y-85936404D01*
X119328500Y-87672596D01*
X119324511Y-87713100D01*
X119314486Y-87746149D01*
X119298206Y-87776606D01*
X119276299Y-87803299D01*
X119249606Y-87825206D01*
X119219149Y-87841486D01*
X119186100Y-87851511D01*
X119145596Y-87855500D01*
X117709404Y-87855500D01*
X117668900Y-87851511D01*
X117635851Y-87841486D01*
X117605394Y-87825206D01*
X117578701Y-87803299D01*
X117556794Y-87776606D01*
X117540514Y-87746149D01*
X117530489Y-87713100D01*
X117526500Y-87672596D01*
X117526500Y-85936404D01*
X117530489Y-85895900D01*
X117540514Y-85862851D01*
X117556794Y-85832394D01*
X117578701Y-85805701D01*
X117605394Y-85783794D01*
X117635851Y-85767514D01*
X117668900Y-85757489D01*
X117709404Y-85753500D01*
X119145596Y-85753500D01*
X119186100Y-85757489D01*
X119186100Y-85757489D01*
G37*
G36*
X105499627Y-85703037D02*
X105612853Y-85737384D01*
X105669467Y-85754557D01*
X105788265Y-85818057D01*
X105825991Y-85838222D01*
X105856001Y-85862851D01*
X105963186Y-85950814D01*
X106046448Y-86052271D01*
X106075778Y-86088009D01*
X106159443Y-86244534D01*
X106210963Y-86414374D01*
X106224000Y-86546743D01*
X106224000Y-86935258D01*
X106210963Y-87067627D01*
X106176616Y-87180853D01*
X106159443Y-87237467D01*
X106125501Y-87300967D01*
X106075778Y-87393991D01*
X106046448Y-87429729D01*
X105963186Y-87531186D01*
X105825989Y-87643779D01*
X105669466Y-87727443D01*
X105628733Y-87739799D01*
X105499626Y-87778963D01*
X105323000Y-87796359D01*
X105146373Y-87778963D01*
X105017266Y-87739799D01*
X104976533Y-87727443D01*
X104820011Y-87643779D01*
X104820009Y-87643778D01*
X104777749Y-87609096D01*
X104682814Y-87531186D01*
X104570221Y-87393989D01*
X104486557Y-87237466D01*
X104454300Y-87131127D01*
X104435037Y-87067626D01*
X104422000Y-86935257D01*
X104422000Y-86546742D01*
X104435037Y-86414373D01*
X104486557Y-86244534D01*
X104486557Y-86244533D01*
X104570222Y-86088008D01*
X104682812Y-85950817D01*
X104779736Y-85871274D01*
X104820010Y-85838222D01*
X104857736Y-85818057D01*
X104976534Y-85754557D01*
X105033148Y-85737384D01*
X105146374Y-85703037D01*
X105323000Y-85685641D01*
X105499627Y-85703037D01*
X105499627Y-85703037D01*
G37*
G36*
X108581600Y-85693989D02*
X108614649Y-85704014D01*
X108645106Y-85720294D01*
X108671799Y-85742201D01*
X108693706Y-85768894D01*
X108709986Y-85799351D01*
X108720011Y-85832400D01*
X108724000Y-85872904D01*
X108724000Y-87609096D01*
X108720011Y-87649600D01*
X108709986Y-87682649D01*
X108693706Y-87713106D01*
X108671799Y-87739799D01*
X108645106Y-87761706D01*
X108614649Y-87777986D01*
X108581600Y-87788011D01*
X108541096Y-87792000D01*
X107104904Y-87792000D01*
X107064400Y-87788011D01*
X107031351Y-87777986D01*
X107000894Y-87761706D01*
X106974201Y-87739799D01*
X106952294Y-87713106D01*
X106936014Y-87682649D01*
X106925989Y-87649600D01*
X106922000Y-87609096D01*
X106922000Y-85872904D01*
X106925989Y-85832400D01*
X106936014Y-85799351D01*
X106952294Y-85768894D01*
X106974201Y-85742201D01*
X107000894Y-85720294D01*
X107031351Y-85704014D01*
X107064400Y-85693989D01*
X107104904Y-85690000D01*
X108541096Y-85690000D01*
X108581600Y-85693989D01*
X108581600Y-85693989D01*
G37*
M02*
