G04 #@! TF.GenerationSoftware,KiCad,Pcbnew,5.0.2-bee76a0~70~ubuntu18.04.1*
G04 #@! TF.CreationDate,2019-04-17T10:25:58+01:00*
G04 #@! TF.ProjectId,DualPrecisionPWM,4475616c-5072-4656-9369-73696f6e5057,1*
G04 #@! TF.SameCoordinates,Original*
G04 #@! TF.FileFunction,Profile,NP*
%FSLAX46Y46*%
G04 Gerber Fmt 4.6, Leading zero omitted, Abs format (unit mm)*
G04 Created by KiCad (PCBNEW 5.0.2-bee76a0~70~ubuntu18.04.1) date Wed 17 Apr 2019 10:25:58 BST*
%MOMM*%
%LPD*%
G01*
G04 APERTURE LIST*
%ADD10C,0.150000*%
G04 APERTURE END LIST*
D10*
X85000000Y-130000000D02*
X43000000Y-130000000D01*
X85000000Y-73000000D02*
X43000000Y-73000000D01*
X43000000Y-130000000D02*
X43000000Y-73000000D01*
X186000000Y-130000000D02*
X85000000Y-130000000D01*
X186000000Y-129000000D02*
X186000000Y-130000000D01*
X186000000Y-73000000D02*
X186000000Y-129000000D01*
X85000000Y-73000000D02*
X186000000Y-73000000D01*
M02*
