(kicad_pcb (version 20171130) (host pcbnew 5.0.2-bee76a0~70~ubuntu18.04.1)

  (general
    (thickness 1.6)
    (drawings 4)
    (tracks 53)
    (zones 0)
    (modules 12)
    (nets 8)
  )

  (page A4)
  (layers
    (0 F.Cu signal)
    (31 B.Cu signal)
    (32 B.Adhes user)
    (33 F.Adhes user)
    (34 B.Paste user)
    (35 F.Paste user)
    (36 B.SilkS user)
    (37 F.SilkS user)
    (38 B.Mask user)
    (39 F.Mask user)
    (40 Dwgs.User user)
    (41 Cmts.User user)
    (42 Eco1.User user)
    (43 Eco2.User user)
    (44 Edge.Cuts user)
    (45 Margin user)
    (46 B.CrtYd user)
    (47 F.CrtYd user)
    (48 B.Fab user)
    (49 F.Fab user)
  )

  (setup
    (last_trace_width 0.25)
    (trace_clearance 0.2)
    (zone_clearance 2)
    (zone_45_only no)
    (trace_min 0.2)
    (segment_width 0.2)
    (edge_width 0.15)
    (via_size 0.8)
    (via_drill 0.4)
    (via_min_size 0.4)
    (via_min_drill 0.3)
    (uvia_size 0.3)
    (uvia_drill 0.1)
    (uvias_allowed no)
    (uvia_min_size 0.2)
    (uvia_min_drill 0.1)
    (pcb_text_width 0.3)
    (pcb_text_size 1.5 1.5)
    (mod_edge_width 0.15)
    (mod_text_size 1 1)
    (mod_text_width 0.15)
    (pad_size 3 2)
    (pad_drill 1.2)
    (pad_to_mask_clearance 0.051)
    (solder_mask_min_width 0.25)
    (aux_axis_origin 0 0)
    (visible_elements FFFFFF7F)
    (pcbplotparams
      (layerselection 0x010fc_ffffffff)
      (usegerberextensions false)
      (usegerberattributes false)
      (usegerberadvancedattributes false)
      (creategerberjobfile false)
      (excludeedgelayer true)
      (linewidth 0.100000)
      (plotframeref false)
      (viasonmask false)
      (mode 1)
      (useauxorigin false)
      (hpglpennumber 1)
      (hpglpenspeed 20)
      (hpglpendiameter 15.000000)
      (psnegative false)
      (psa4output false)
      (plotreference true)
      (plotvalue true)
      (plotinvisibletext false)
      (padsonsilk false)
      (subtractmaskfromsilk false)
      (outputformat 1)
      (mirror false)
      (drillshape 1)
      (scaleselection 1)
      (outputdirectory ""))
  )

  (net 0 "")
  (net 1 "Net-(C1-Pad1)")
  (net 2 "Net-(D1-Pad2)")
  (net 3 "Net-(D1-Pad3)")
  (net 4 Live)
  (net 5 Neutral)
  (net 6 GND)
  (net 7 "Net-(T9V1-Pad2)")

  (net_class Default "This is the default net class."
    (clearance 0.2)
    (trace_width 0.25)
    (via_dia 0.8)
    (via_drill 0.4)
    (uvia_dia 0.3)
    (uvia_drill 0.1)
    (add_net GND)
    (add_net Live)
    (add_net "Net-(C1-Pad1)")
    (add_net "Net-(D1-Pad2)")
    (add_net "Net-(D1-Pad3)")
    (add_net "Net-(T9V1-Pad2)")
    (add_net Neutral)
  )

  (module Capacitor_THT:C_Radial_D18.0mm_H35.5mm_P7.50mm (layer F.Cu) (tedit 5D1CCB3C) (tstamp 5D225DF2)
    (at 134.75 81)
    (descr "C, Radial series, Radial, pin pitch=7.50mm, diameter=18mm, height=35.5mm, Non-Polar Electrolytic Capacitor")
    (tags "C Radial series Radial pin pitch 7.50mm diameter 18mm height 35.5mm Non-Polar Electrolytic Capacitor")
    (path /5D0BCE0C)
    (fp_text reference C1 (at 3.75 -10.25) (layer F.SilkS)
      (effects (font (size 1 1) (thickness 0.15)))
    )
    (fp_text value 10,000uF (at 3.75 10.25) (layer F.Fab)
      (effects (font (size 1 1) (thickness 0.15)))
    )
    (fp_circle (center 3.75 0) (end 12.75 0) (layer F.Fab) (width 0.1))
    (fp_circle (center 3.75 0) (end 12.87 0) (layer F.SilkS) (width 0.12))
    (fp_circle (center 3.75 0) (end 13 0) (layer F.CrtYd) (width 0.05))
    (fp_text user %R (at 3.75 0) (layer F.Fab)
      (effects (font (size 1 1) (thickness 0.15)))
    )
    (pad 1 thru_hole circle (at 0 0) (size 4 4) (drill 1) (layers *.Cu *.Mask)
      (net 1 "Net-(C1-Pad1)"))
    (pad 2 thru_hole circle (at 7.5 0) (size 4 4) (drill 1) (layers *.Cu *.Mask)
      (net 6 GND))
    (model ${KISYS3DMOD}/Capacitor_THT.3dshapes/C_Radial_D18.0mm_H35.5mm_P7.50mm.wrl
      (at (xyz 0 0 0))
      (scale (xyz 1 1 1))
      (rotate (xyz 0 0 0))
    )
  )

  (module Capacitor_THT:C_Disc_D3.8mm_W2.6mm_P2.50mm (layer F.Cu) (tedit 5AE50EF0) (tstamp 5D225E07)
    (at 137 99)
    (descr "C, Disc series, Radial, pin pitch=2.50mm, , diameter*width=3.8*2.6mm^2, Capacitor, http://www.vishay.com/docs/45233/krseries.pdf")
    (tags "C Disc series Radial pin pitch 2.50mm  diameter 3.8mm width 2.6mm Capacitor")
    (path /5D0BCE38)
    (fp_text reference C2 (at 1.25 -2.55) (layer F.SilkS)
      (effects (font (size 1 1) (thickness 0.15)))
    )
    (fp_text value 100nF (at 1.25 2.55) (layer F.Fab)
      (effects (font (size 1 1) (thickness 0.15)))
    )
    (fp_line (start -0.65 -1.3) (end -0.65 1.3) (layer F.Fab) (width 0.1))
    (fp_line (start -0.65 1.3) (end 3.15 1.3) (layer F.Fab) (width 0.1))
    (fp_line (start 3.15 1.3) (end 3.15 -1.3) (layer F.Fab) (width 0.1))
    (fp_line (start 3.15 -1.3) (end -0.65 -1.3) (layer F.Fab) (width 0.1))
    (fp_line (start -0.77 -1.42) (end 3.27 -1.42) (layer F.SilkS) (width 0.12))
    (fp_line (start -0.77 1.42) (end 3.27 1.42) (layer F.SilkS) (width 0.12))
    (fp_line (start -0.77 -1.42) (end -0.77 -0.795) (layer F.SilkS) (width 0.12))
    (fp_line (start -0.77 0.795) (end -0.77 1.42) (layer F.SilkS) (width 0.12))
    (fp_line (start 3.27 -1.42) (end 3.27 -0.795) (layer F.SilkS) (width 0.12))
    (fp_line (start 3.27 0.795) (end 3.27 1.42) (layer F.SilkS) (width 0.12))
    (fp_line (start -1.05 -1.55) (end -1.05 1.55) (layer F.CrtYd) (width 0.05))
    (fp_line (start -1.05 1.55) (end 3.55 1.55) (layer F.CrtYd) (width 0.05))
    (fp_line (start 3.55 1.55) (end 3.55 -1.55) (layer F.CrtYd) (width 0.05))
    (fp_line (start 3.55 -1.55) (end -1.05 -1.55) (layer F.CrtYd) (width 0.05))
    (fp_text user %R (at 1.25 0) (layer F.Fab)
      (effects (font (size 0.76 0.76) (thickness 0.114)))
    )
    (pad 1 thru_hole circle (at 0 0) (size 1.6 1.6) (drill 0.8) (layers *.Cu *.Mask)
      (net 1 "Net-(C1-Pad1)"))
    (pad 2 thru_hole circle (at 2.5 0) (size 1.6 1.6) (drill 0.8) (layers *.Cu *.Mask)
      (net 6 GND))
    (model ${KISYS3DMOD}/Capacitor_THT.3dshapes/C_Disc_D3.8mm_W2.6mm_P2.50mm.wrl
      (at (xyz 0 0 0))
      (scale (xyz 1 1 1))
      (rotate (xyz 0 0 0))
    )
  )

  (module "Custom_Library:Vishay W08G Diode Bridge" (layer F.Cu) (tedit 5D1DFF46) (tstamp 5D225E11)
    (at 120.5 82.5)
    (path /5D0BCDB5)
    (fp_text reference D1 (at 3.25 -8) (layer F.SilkS)
      (effects (font (size 1 1) (thickness 0.15)))
    )
    (fp_text value W08G (at 2 -9.5) (layer F.Fab)
      (effects (font (size 1 1) (thickness 0.15)))
    )
    (fp_circle (center 2.5 -2.5) (end 6 0.25) (layer F.SilkS) (width 0.2))
    (fp_circle (center 2.5 -2.5) (end 6 0.25) (layer F.Fab) (width 0.2))
    (pad 1 thru_hole oval (at 0 -5) (size 3 2) (drill 1.2) (layers *.Cu *.Mask)
      (net 6 GND))
    (pad 2 thru_hole oval (at 5 -5) (size 3 2) (drill 1.2) (layers *.Cu *.Mask)
      (net 2 "Net-(D1-Pad2)"))
    (pad 3 thru_hole oval (at 0 0) (size 3 2) (drill 1.2) (layers *.Cu *.Mask)
      (net 3 "Net-(D1-Pad3)"))
    (pad 4 thru_hole oval (at 5 0) (size 3 2) (drill 1.2) (layers *.Cu *.Mask)
      (net 1 "Net-(C1-Pad1)"))
  )

  (module Connector_JST:JST_XH_B02B-XH-A_1x02_P2.50mm_Vertical (layer F.Cu) (tedit 5B7754C5) (tstamp 5D226557)
    (at 122.5 99.5)
    (descr "JST XH series connector, B02B-XH-A (http://www.jst-mfg.com/product/pdf/eng/eXH.pdf), generated with kicad-footprint-generator")
    (tags "connector JST XH side entry")
    (path /5D0BCEA1)
    (fp_text reference JFan1 (at 1.25 -3.55) (layer F.SilkS)
      (effects (font (size 1 1) (thickness 0.15)))
    )
    (fp_text value Conn_01x02_Male (at 1.25 4.6) (layer F.Fab)
      (effects (font (size 1 1) (thickness 0.15)))
    )
    (fp_line (start -2.45 -2.35) (end -2.45 3.4) (layer F.Fab) (width 0.1))
    (fp_line (start -2.45 3.4) (end 4.95 3.4) (layer F.Fab) (width 0.1))
    (fp_line (start 4.95 3.4) (end 4.95 -2.35) (layer F.Fab) (width 0.1))
    (fp_line (start 4.95 -2.35) (end -2.45 -2.35) (layer F.Fab) (width 0.1))
    (fp_line (start -2.56 -2.46) (end -2.56 3.51) (layer F.SilkS) (width 0.12))
    (fp_line (start -2.56 3.51) (end 5.06 3.51) (layer F.SilkS) (width 0.12))
    (fp_line (start 5.06 3.51) (end 5.06 -2.46) (layer F.SilkS) (width 0.12))
    (fp_line (start 5.06 -2.46) (end -2.56 -2.46) (layer F.SilkS) (width 0.12))
    (fp_line (start -2.95 -2.85) (end -2.95 3.9) (layer F.CrtYd) (width 0.05))
    (fp_line (start -2.95 3.9) (end 5.45 3.9) (layer F.CrtYd) (width 0.05))
    (fp_line (start 5.45 3.9) (end 5.45 -2.85) (layer F.CrtYd) (width 0.05))
    (fp_line (start 5.45 -2.85) (end -2.95 -2.85) (layer F.CrtYd) (width 0.05))
    (fp_line (start -0.625 -2.35) (end 0 -1.35) (layer F.Fab) (width 0.1))
    (fp_line (start 0 -1.35) (end 0.625 -2.35) (layer F.Fab) (width 0.1))
    (fp_line (start 0.75 -2.45) (end 0.75 -1.7) (layer F.SilkS) (width 0.12))
    (fp_line (start 0.75 -1.7) (end 1.75 -1.7) (layer F.SilkS) (width 0.12))
    (fp_line (start 1.75 -1.7) (end 1.75 -2.45) (layer F.SilkS) (width 0.12))
    (fp_line (start 1.75 -2.45) (end 0.75 -2.45) (layer F.SilkS) (width 0.12))
    (fp_line (start -2.55 -2.45) (end -2.55 -1.7) (layer F.SilkS) (width 0.12))
    (fp_line (start -2.55 -1.7) (end -0.75 -1.7) (layer F.SilkS) (width 0.12))
    (fp_line (start -0.75 -1.7) (end -0.75 -2.45) (layer F.SilkS) (width 0.12))
    (fp_line (start -0.75 -2.45) (end -2.55 -2.45) (layer F.SilkS) (width 0.12))
    (fp_line (start 3.25 -2.45) (end 3.25 -1.7) (layer F.SilkS) (width 0.12))
    (fp_line (start 3.25 -1.7) (end 5.05 -1.7) (layer F.SilkS) (width 0.12))
    (fp_line (start 5.05 -1.7) (end 5.05 -2.45) (layer F.SilkS) (width 0.12))
    (fp_line (start 5.05 -2.45) (end 3.25 -2.45) (layer F.SilkS) (width 0.12))
    (fp_line (start -2.55 -0.2) (end -1.8 -0.2) (layer F.SilkS) (width 0.12))
    (fp_line (start -1.8 -0.2) (end -1.8 2.75) (layer F.SilkS) (width 0.12))
    (fp_line (start -1.8 2.75) (end 1.25 2.75) (layer F.SilkS) (width 0.12))
    (fp_line (start 5.05 -0.2) (end 4.3 -0.2) (layer F.SilkS) (width 0.12))
    (fp_line (start 4.3 -0.2) (end 4.3 2.75) (layer F.SilkS) (width 0.12))
    (fp_line (start 4.3 2.75) (end 1.25 2.75) (layer F.SilkS) (width 0.12))
    (fp_line (start -1.6 -2.75) (end -2.85 -2.75) (layer F.SilkS) (width 0.12))
    (fp_line (start -2.85 -2.75) (end -2.85 -1.5) (layer F.SilkS) (width 0.12))
    (fp_text user %R (at 1.25 2.7) (layer F.Fab)
      (effects (font (size 1 1) (thickness 0.15)))
    )
    (pad 1 thru_hole roundrect (at 0 0) (size 1.7 2) (drill 1) (layers *.Cu *.Mask) (roundrect_rratio 0.147059)
      (net 6 GND))
    (pad 2 thru_hole oval (at 2.5 0) (size 1.7 2) (drill 1) (layers *.Cu *.Mask)
      (net 1 "Net-(C1-Pad1)"))
    (model ${KISYS3DMOD}/Connector_JST.3dshapes/JST_XH_B02B-XH-A_1x02_P2.50mm_Vertical.wrl
      (at (xyz 0 0 0))
      (scale (xyz 1 1 1))
      (rotate (xyz 0 0 0))
    )
  )

  (module Custom_Library:Transformer_Farnell_12625B_9V (layer F.Cu) (tedit 5D1DFF27) (tstamp 5D225E90)
    (at 107.5 86)
    (path /5D0BD11C)
    (fp_text reference T9V1 (at -13.335 0.4826) (layer F.SilkS)
      (effects (font (size 1 1) (thickness 0.15)))
    )
    (fp_text value Transformer-12625B (at -12.6746 -1.905) (layer F.Fab)
      (effects (font (size 1 1) (thickness 0.15)))
    )
    (fp_line (start -27.432 -12.192) (end -27.432 5.08) (layer F.Fab) (width 0.2))
    (fp_line (start -27.432 5.08) (end -27.432 10.16) (layer F.Fab) (width 0.2))
    (fp_line (start -27.432 10.16) (end -27.432 12.192) (layer F.Fab) (width 0.2))
    (fp_line (start -27.432 12.192) (end 0.508 12.192) (layer F.Fab) (width 0.2))
    (fp_line (start 0.508 12.192) (end 0 12.192) (layer F.Fab) (width 0.2))
    (fp_line (start 0 12.192) (end 3.048 12.192) (layer F.Fab) (width 0.2))
    (fp_line (start 3.048 12.192) (end 3.048 -10.16) (layer F.Fab) (width 0.2))
    (fp_line (start 3.048 -10.16) (end 3.048 -12.192) (layer F.Fab) (width 0.2))
    (fp_line (start 3.048 -12.192) (end -27.432 -12.192) (layer F.Fab) (width 0.2))
    (fp_line (start -28.702 12.192) (end -28.702 19.812) (layer F.Fab) (width 0.2))
    (fp_line (start -28.702 19.812) (end 3.81 19.812) (layer F.Fab) (width 0.2))
    (fp_line (start 3.81 19.812) (end 4.064 19.812) (layer F.Fab) (width 0.2))
    (fp_line (start 4.064 19.812) (end 4.064 12.192) (layer F.Fab) (width 0.2))
    (fp_line (start -28.702 12.192) (end -28.702 -12.192) (layer F.Fab) (width 0.2))
    (fp_line (start -28.702 -12.192) (end -28.702 -19.812) (layer F.Fab) (width 0.2))
    (fp_line (start -28.702 -19.812) (end 4.064 -19.812) (layer F.Fab) (width 0.2))
    (fp_line (start 4.064 12.192) (end 4.064 -19.812) (layer F.Fab) (width 0.2))
    (fp_line (start -27.432 12.192) (end 3.048 12.192) (layer F.SilkS) (width 0.2))
    (fp_line (start 3.048 12.192) (end 3.048 -12.192) (layer F.SilkS) (width 0.2))
    (fp_line (start 3.048 -12.192) (end -27.432 -12.192) (layer F.SilkS) (width 0.2))
    (fp_line (start -27.432 -12.192) (end -27.432 12.192) (layer F.SilkS) (width 0.2))
    (fp_line (start -28.702 19.812) (end -28.702 -19.812) (layer F.SilkS) (width 0.2))
    (fp_line (start -28.702 -19.812) (end 4.064 -19.812) (layer F.SilkS) (width 0.2))
    (fp_line (start 4.064 -19.812) (end 4.064 19.812) (layer F.SilkS) (width 0.2))
    (fp_line (start 4.064 19.812) (end -28.702 19.812) (layer F.SilkS) (width 0.2))
    (pad 1 thru_hole oval (at -24.2 -10) (size 3 2.8) (drill 1.2) (layers *.Cu *.Mask)
      (net 5 Neutral))
    (pad 2 thru_hole oval (at -24.2 -5) (size 3 2.8) (drill 1.2) (layers *.Cu *.Mask)
      (net 7 "Net-(T9V1-Pad2)"))
    (pad 3 thru_hole oval (at -24.2 5) (size 3 2.8) (drill 1.2) (layers *.Cu *.Mask)
      (net 7 "Net-(T9V1-Pad2)"))
    (pad 4 thru_hole oval (at -24.2 10) (size 3 2.8) (drill 1.2) (layers *.Cu *.Mask)
      (net 4 Live))
    (pad 5 thru_hole oval (at 0 -10) (size 3 2.8) (drill 1.2) (layers *.Cu *.Mask)
      (net 2 "Net-(D1-Pad2)"))
    (pad 6 thru_hole oval (at 0 -5) (size 3 2.8) (drill 1.2) (layers *.Cu *.Mask)
      (net 3 "Net-(D1-Pad3)"))
    (pad 7 thru_hole oval (at 0 0) (size 3 2.8) (drill 1.2) (layers *.Cu *.Mask)
      (net 2 "Net-(D1-Pad2)"))
    (pad 8 thru_hole oval (at 0 5) (size 3 2.8) (drill 1.2) (layers *.Cu *.Mask)
      (net 3 "Net-(D1-Pad3)"))
  )

  (module MountingHole:MountingHole_4mm (layer F.Cu) (tedit 56D1B4CB) (tstamp 5D2973C2)
    (at 69.4 69)
    (descr "Mounting Hole 4mm, no annular")
    (tags "mounting hole 4mm no annular")
    (path /5D1CDFE9)
    (attr virtual)
    (fp_text reference H1 (at 0 -5) (layer F.SilkS)
      (effects (font (size 1 1) (thickness 0.15)))
    )
    (fp_text value MountingHole (at 0 5) (layer F.Fab)
      (effects (font (size 1 1) (thickness 0.15)))
    )
    (fp_text user %R (at 0.3 0) (layer F.Fab)
      (effects (font (size 1 1) (thickness 0.15)))
    )
    (fp_circle (center 0 0) (end 4 0) (layer Cmts.User) (width 0.15))
    (fp_circle (center 0 0) (end 4.25 0) (layer F.CrtYd) (width 0.05))
    (pad 1 np_thru_hole circle (at 0 0) (size 4 4) (drill 4) (layers *.Cu *.Mask))
  )

  (module MountingHole:MountingHole_4mm (layer F.Cu) (tedit 56D1B4CB) (tstamp 5D2973CA)
    (at 148.4 104.4)
    (descr "Mounting Hole 4mm, no annular")
    (tags "mounting hole 4mm no annular")
    (path /5D1CE027)
    (attr virtual)
    (fp_text reference H2 (at 0 -5) (layer F.SilkS)
      (effects (font (size 1 1) (thickness 0.15)))
    )
    (fp_text value MountingHole (at 0 5) (layer F.Fab)
      (effects (font (size 1 1) (thickness 0.15)))
    )
    (fp_circle (center 0 0) (end 4.25 0) (layer F.CrtYd) (width 0.05))
    (fp_circle (center 0 0) (end 4 0) (layer Cmts.User) (width 0.15))
    (fp_text user %R (at 0.3 0) (layer F.Fab)
      (effects (font (size 1 1) (thickness 0.15)))
    )
    (pad 1 np_thru_hole circle (at 0 0) (size 4 4) (drill 4) (layers *.Cu *.Mask))
  )

  (module Connector_PinHeader_2.54mm:PinHeader_1x01_P2.54mm_Vertical (layer F.Cu) (tedit 59FED5CC) (tstamp 5D2A4383)
    (at 75 85)
    (descr "Through hole straight pin header, 1x01, 2.54mm pitch, single row")
    (tags "Through hole pin header THT 1x01 2.54mm single row")
    (path /5D1DC5EB)
    (fp_text reference JGND1 (at 0 -2.33) (layer F.SilkS)
      (effects (font (size 1 1) (thickness 0.15)))
    )
    (fp_text value Conn_01x01_Male (at 0 2.33) (layer F.Fab)
      (effects (font (size 1 1) (thickness 0.15)))
    )
    (fp_text user %R (at 0 0 90) (layer F.Fab)
      (effects (font (size 1 1) (thickness 0.15)))
    )
    (fp_line (start 1.8 -1.8) (end -1.8 -1.8) (layer F.CrtYd) (width 0.05))
    (fp_line (start 1.8 1.8) (end 1.8 -1.8) (layer F.CrtYd) (width 0.05))
    (fp_line (start -1.8 1.8) (end 1.8 1.8) (layer F.CrtYd) (width 0.05))
    (fp_line (start -1.8 -1.8) (end -1.8 1.8) (layer F.CrtYd) (width 0.05))
    (fp_line (start -1.33 -1.33) (end 0 -1.33) (layer F.SilkS) (width 0.12))
    (fp_line (start -1.33 0) (end -1.33 -1.33) (layer F.SilkS) (width 0.12))
    (fp_line (start -1.33 1.27) (end 1.33 1.27) (layer F.SilkS) (width 0.12))
    (fp_line (start 1.33 1.27) (end 1.33 1.33) (layer F.SilkS) (width 0.12))
    (fp_line (start -1.33 1.27) (end -1.33 1.33) (layer F.SilkS) (width 0.12))
    (fp_line (start -1.33 1.33) (end 1.33 1.33) (layer F.SilkS) (width 0.12))
    (fp_line (start -1.27 -0.635) (end -0.635 -1.27) (layer F.Fab) (width 0.1))
    (fp_line (start -1.27 1.27) (end -1.27 -0.635) (layer F.Fab) (width 0.1))
    (fp_line (start 1.27 1.27) (end -1.27 1.27) (layer F.Fab) (width 0.1))
    (fp_line (start 1.27 -1.27) (end 1.27 1.27) (layer F.Fab) (width 0.1))
    (fp_line (start -0.635 -1.27) (end 1.27 -1.27) (layer F.Fab) (width 0.1))
    (pad 1 thru_hole rect (at 0 0) (size 1.7 1.7) (drill 1) (layers *.Cu *.Mask)
      (net 6 GND))
    (model ${KISYS3DMOD}/Connector_PinHeader_2.54mm.3dshapes/PinHeader_1x01_P2.54mm_Vertical.wrl
      (at (xyz 0 0 0))
      (scale (xyz 1 1 1))
      (rotate (xyz 0 0 0))
    )
  )

  (module Connector_PinHeader_2.54mm:PinHeader_1x01_P2.54mm_Vertical (layer F.Cu) (tedit 59FED5CC) (tstamp 5D2A4398)
    (at 75 90)
    (descr "Through hole straight pin header, 1x01, 2.54mm pitch, single row")
    (tags "Through hole pin header THT 1x01 2.54mm single row")
    (path /5D1DC50F)
    (fp_text reference JLive1 (at 0 -2.33) (layer F.SilkS)
      (effects (font (size 1 1) (thickness 0.15)))
    )
    (fp_text value Conn_01x01_Male (at 0 2.33) (layer F.Fab)
      (effects (font (size 1 1) (thickness 0.15)))
    )
    (fp_line (start -0.635 -1.27) (end 1.27 -1.27) (layer F.Fab) (width 0.1))
    (fp_line (start 1.27 -1.27) (end 1.27 1.27) (layer F.Fab) (width 0.1))
    (fp_line (start 1.27 1.27) (end -1.27 1.27) (layer F.Fab) (width 0.1))
    (fp_line (start -1.27 1.27) (end -1.27 -0.635) (layer F.Fab) (width 0.1))
    (fp_line (start -1.27 -0.635) (end -0.635 -1.27) (layer F.Fab) (width 0.1))
    (fp_line (start -1.33 1.33) (end 1.33 1.33) (layer F.SilkS) (width 0.12))
    (fp_line (start -1.33 1.27) (end -1.33 1.33) (layer F.SilkS) (width 0.12))
    (fp_line (start 1.33 1.27) (end 1.33 1.33) (layer F.SilkS) (width 0.12))
    (fp_line (start -1.33 1.27) (end 1.33 1.27) (layer F.SilkS) (width 0.12))
    (fp_line (start -1.33 0) (end -1.33 -1.33) (layer F.SilkS) (width 0.12))
    (fp_line (start -1.33 -1.33) (end 0 -1.33) (layer F.SilkS) (width 0.12))
    (fp_line (start -1.8 -1.8) (end -1.8 1.8) (layer F.CrtYd) (width 0.05))
    (fp_line (start -1.8 1.8) (end 1.8 1.8) (layer F.CrtYd) (width 0.05))
    (fp_line (start 1.8 1.8) (end 1.8 -1.8) (layer F.CrtYd) (width 0.05))
    (fp_line (start 1.8 -1.8) (end -1.8 -1.8) (layer F.CrtYd) (width 0.05))
    (fp_text user %R (at 0 0 90) (layer F.Fab)
      (effects (font (size 1 1) (thickness 0.15)))
    )
    (pad 1 thru_hole rect (at 0 0) (size 1.7 1.7) (drill 1) (layers *.Cu *.Mask)
      (net 4 Live))
    (model ${KISYS3DMOD}/Connector_PinHeader_2.54mm.3dshapes/PinHeader_1x01_P2.54mm_Vertical.wrl
      (at (xyz 0 0 0))
      (scale (xyz 1 1 1))
      (rotate (xyz 0 0 0))
    )
  )

  (module Connector_PinHeader_2.54mm:PinHeader_1x01_P2.54mm_Vertical (layer F.Cu) (tedit 59FED5CC) (tstamp 5D2A43AD)
    (at 75 80)
    (descr "Through hole straight pin header, 1x01, 2.54mm pitch, single row")
    (tags "Through hole pin header THT 1x01 2.54mm single row")
    (path /5D1DC617)
    (fp_text reference JNeutral1 (at 0 -2.33) (layer F.SilkS)
      (effects (font (size 1 1) (thickness 0.15)))
    )
    (fp_text value Conn_01x01_Male (at 0 2.33) (layer F.Fab)
      (effects (font (size 1 1) (thickness 0.15)))
    )
    (fp_line (start -0.635 -1.27) (end 1.27 -1.27) (layer F.Fab) (width 0.1))
    (fp_line (start 1.27 -1.27) (end 1.27 1.27) (layer F.Fab) (width 0.1))
    (fp_line (start 1.27 1.27) (end -1.27 1.27) (layer F.Fab) (width 0.1))
    (fp_line (start -1.27 1.27) (end -1.27 -0.635) (layer F.Fab) (width 0.1))
    (fp_line (start -1.27 -0.635) (end -0.635 -1.27) (layer F.Fab) (width 0.1))
    (fp_line (start -1.33 1.33) (end 1.33 1.33) (layer F.SilkS) (width 0.12))
    (fp_line (start -1.33 1.27) (end -1.33 1.33) (layer F.SilkS) (width 0.12))
    (fp_line (start 1.33 1.27) (end 1.33 1.33) (layer F.SilkS) (width 0.12))
    (fp_line (start -1.33 1.27) (end 1.33 1.27) (layer F.SilkS) (width 0.12))
    (fp_line (start -1.33 0) (end -1.33 -1.33) (layer F.SilkS) (width 0.12))
    (fp_line (start -1.33 -1.33) (end 0 -1.33) (layer F.SilkS) (width 0.12))
    (fp_line (start -1.8 -1.8) (end -1.8 1.8) (layer F.CrtYd) (width 0.05))
    (fp_line (start -1.8 1.8) (end 1.8 1.8) (layer F.CrtYd) (width 0.05))
    (fp_line (start 1.8 1.8) (end 1.8 -1.8) (layer F.CrtYd) (width 0.05))
    (fp_line (start 1.8 -1.8) (end -1.8 -1.8) (layer F.CrtYd) (width 0.05))
    (fp_text user %R (at 0 0 90) (layer F.Fab)
      (effects (font (size 1 1) (thickness 0.15)))
    )
    (pad 1 thru_hole rect (at 0 0) (size 1.7 1.7) (drill 1) (layers *.Cu *.Mask)
      (net 5 Neutral))
    (model ${KISYS3DMOD}/Connector_PinHeader_2.54mm.3dshapes/PinHeader_1x01_P2.54mm_Vertical.wrl
      (at (xyz 0 0 0))
      (scale (xyz 1 1 1))
      (rotate (xyz 0 0 0))
    )
  )

  (module MountingHole:MountingHole_4mm (layer F.Cu) (tedit 56D1B4CB) (tstamp 5D2A504E)
    (at 69.25 105.25)
    (descr "Mounting Hole 4mm, no annular")
    (tags "mounting hole 4mm no annular")
    (path /5D1E001B)
    (attr virtual)
    (fp_text reference H3 (at 0 -5) (layer F.SilkS)
      (effects (font (size 1 1) (thickness 0.15)))
    )
    (fp_text value MountingHole (at 0 5) (layer F.Fab)
      (effects (font (size 1 1) (thickness 0.15)))
    )
    (fp_text user %R (at 0.3 0) (layer F.Fab)
      (effects (font (size 1 1) (thickness 0.15)))
    )
    (fp_circle (center 0 0) (end 4 0) (layer Cmts.User) (width 0.15))
    (fp_circle (center 0 0) (end 4.25 0) (layer F.CrtYd) (width 0.05))
    (pad 1 np_thru_hole circle (at 0 0) (size 4 4) (drill 4) (layers *.Cu *.Mask))
  )

  (module MountingHole:MountingHole_4mm (layer F.Cu) (tedit 56D1B4CB) (tstamp 5D2A5056)
    (at 148 69)
    (descr "Mounting Hole 4mm, no annular")
    (tags "mounting hole 4mm no annular")
    (path /5D1E00BC)
    (attr virtual)
    (fp_text reference H4 (at 0 -5) (layer F.SilkS)
      (effects (font (size 1 1) (thickness 0.15)))
    )
    (fp_text value MountingHole (at 0 5) (layer F.Fab)
      (effects (font (size 1 1) (thickness 0.15)))
    )
    (fp_circle (center 0 0) (end 4.25 0) (layer F.CrtYd) (width 0.05))
    (fp_circle (center 0 0) (end 4 0) (layer Cmts.User) (width 0.15))
    (fp_text user %R (at 0.3 0) (layer F.Fab)
      (effects (font (size 1 1) (thickness 0.15)))
    )
    (pad 1 np_thru_hole circle (at 0 0) (size 4 4) (drill 4) (layers *.Cu *.Mask))
  )

  (gr_line (start 157 63) (end 64 63) (layer Edge.Cuts) (width 0.15))
  (gr_line (start 157 112) (end 157 63) (layer Edge.Cuts) (width 0.15))
  (gr_line (start 63.8 112) (end 157 112) (layer Edge.Cuts) (width 0.15))
  (gr_line (start 63.8 63) (end 63.8 112) (layer Edge.Cuts) (width 0.15))

  (segment (start 125.5 82.5) (end 126.9 82.5) (width 2) (layer B.Cu) (net 1))
  (segment (start 125.5 99) (end 125 99.5) (width 2) (layer B.Cu) (net 1))
  (segment (start 137 99) (end 125.5 99) (width 2) (layer B.Cu) (net 1))
  (segment (start 137 97.86863) (end 136.63137 97.5) (width 2) (layer B.Cu) (net 1))
  (segment (start 137 99) (end 137 97.86863) (width 2) (layer B.Cu) (net 1))
  (segment (start 105.3 86) (end 102.5 83.2) (width 1.2) (layer B.Cu) (net 2))
  (segment (start 107.5 86) (end 105.3 86) (width 1.2) (layer B.Cu) (net 2))
  (segment (start 102.5 83.2) (end 102.5 78) (width 1.2) (layer B.Cu) (net 2))
  (segment (start 104.5 76) (end 107.5 76) (width 1.2) (layer B.Cu) (net 2))
  (segment (start 102.5 78) (end 104.5 76) (width 1.2) (layer B.Cu) (net 2))
  (segment (start 107.5 76) (end 115.5 76) (width 1.2) (layer B.Cu) (net 2))
  (segment (start 115.5 76) (end 118 73.5) (width 1.2) (layer B.Cu) (net 2))
  (segment (start 118 73.5) (end 123.5 73.5) (width 1.2) (layer B.Cu) (net 2))
  (segment (start 125.5 75.5) (end 125.5 77.5) (width 1.2) (layer B.Cu) (net 2))
  (segment (start 123.5 73.5) (end 125.5 75.5) (width 1.2) (layer B.Cu) (net 2))
  (segment (start 109.7 81) (end 111.2 82.5) (width 1.2) (layer B.Cu) (net 3))
  (segment (start 107.5 81) (end 109.7 81) (width 1.2) (layer B.Cu) (net 3))
  (segment (start 107.5 91) (end 111 91) (width 1.2) (layer B.Cu) (net 3))
  (segment (start 111 91) (end 114.5 87.5) (width 1.2) (layer B.Cu) (net 3))
  (segment (start 114.5 83) (end 115 82.5) (width 1.2) (layer B.Cu) (net 3))
  (segment (start 114.5 87.5) (end 114.5 83) (width 1.2) (layer B.Cu) (net 3))
  (segment (start 111.2 82.5) (end 115 82.5) (width 1.2) (layer B.Cu) (net 3))
  (segment (start 115 82.5) (end 120.5 82.5) (width 1.2) (layer B.Cu) (net 3))
  (segment (start 78 96) (end 83.3 96) (width 2) (layer B.Cu) (net 4))
  (segment (start 75 93) (end 78 96) (width 2) (layer B.Cu) (net 4))
  (segment (start 75 90) (end 75 93) (width 2) (layer B.Cu) (net 4))
  (segment (start 79 76) (end 83.3 76) (width 2) (layer B.Cu) (net 5))
  (segment (start 75 80) (end 79 76) (width 2) (layer B.Cu) (net 5))
  (segment (start 120.738 77.5) (end 123 79.762) (width 1) (layer B.Cu) (net 6))
  (segment (start 120.5 77.5) (end 120.738 77.5) (width 1.2) (layer B.Cu) (net 6))
  (segment (start 123 91) (end 122.5 91.5) (width 1) (layer B.Cu) (net 6))
  (segment (start 122.5 91.5) (end 122.5 99.5) (width 1.2) (layer B.Cu) (net 6))
  (segment (start 146 80.5) (end 146 94.5) (width 1.2) (layer B.Cu) (net 6))
  (segment (start 146 94.5) (end 141.5 99) (width 1.2) (layer B.Cu) (net 6))
  (segment (start 141.5 99) (end 139.5 99) (width 1.2) (layer B.Cu) (net 6))
  (segment (start 69.44 84.96) (end 69.2 85.2) (width 1.2) (layer B.Cu) (net 6))
  (segment (start 69.2 85.2) (end 69.2 96.2) (width 1.2) (layer B.Cu) (net 6))
  (segment (start 69.2 96.2) (end 69.2 75.6) (width 1.2) (layer B.Cu) (net 6))
  (segment (start 69.2 75.6) (end 70.4 74.4) (width 1.2) (layer B.Cu) (net 6))
  (segment (start 70.4 74.4) (end 71.4 74.4) (width 1.2) (layer B.Cu) (net 6))
  (segment (start 71.4 74.4) (end 76 69.8) (width 1.2) (layer B.Cu) (net 6))
  (segment (start 76 69.8) (end 76 69.4) (width 1.2) (layer B.Cu) (net 6))
  (segment (start 76 69.4) (end 76.6 68.8) (width 1.2) (layer B.Cu) (net 6))
  (segment (start 69.2 96.2) (end 69.2 97.7) (width 1) (layer B.Cu) (net 6))
  (segment (start 69.2 97.7) (end 73.75 102.25) (width 1) (layer B.Cu) (net 6))
  (segment (start 73.75 102.25) (end 76.25 102.25) (width 1) (layer B.Cu) (net 6))
  (segment (start 76.25 102.25) (end 74.75 102.25) (width 1) (layer B.Cu) (net 6))
  (segment (start 74.75 102.25) (end 70.75 98.25) (width 1) (layer B.Cu) (net 6))
  (segment (start 123 79.762) (end 123 91) (width 1) (layer B.Cu) (net 6))
  (segment (start 72.11 84.96) (end 69.44 84.96) (width 2) (layer B.Cu) (net 6))
  (segment (start 72.15 85) (end 72.11 84.96) (width 2) (layer B.Cu) (net 6))
  (segment (start 75 85) (end 72.15 85) (width 2) (layer B.Cu) (net 6))
  (segment (start 83.3 81) (end 83.3 91) (width 2) (layer B.Cu) (net 7))

  (zone (net 1) (net_name "Net-(C1-Pad1)") (layer B.Cu) (tstamp 0) (hatch edge 0.508)
    (connect_pads yes (clearance 2))
    (min_thickness 0.254)
    (fill yes (arc_segments 16) (thermal_gap 0.508) (thermal_bridge_width 0.508))
    (polygon
      (pts
        (xy 137 81) (xy 136 64.2) (xy 125.4 83) (xy 124.8 99.8) (xy 137.5 99.75)
      )
    )
    (filled_polygon
      (pts
        (xy 136.873101 81.005475) (xy 137.301205 97.059392) (xy 137.018609 97.341988) (xy 136.573 98.417784) (xy 136.573 99.582216)
        (xy 136.591374 99.626576) (xy 125.51867 99.67017) (xy 125.51867 98.75) (xy 125.33456 97.824415) (xy 125.227 97.66344)
        (xy 125.227 92.395532) (xy 125.474579 92.025004) (xy 125.627 91.258732) (xy 125.678465 91) (xy 125.627 90.741268)
        (xy 125.627 82.855977) (xy 126.956497 80.498002) (xy 127.220095 80.445569) (xy 128.254441 79.754441) (xy 128.945569 78.720095)
        (xy 129.188261 77.5) (xy 129.047071 76.790191) (xy 135.580839 65.202) (xy 135.932418 65.202)
      )
    )
  )
  (zone (net 1) (net_name "Net-(C1-Pad1)") (layer B.Cu) (tstamp 0) (hatch edge 0.508)
    (connect_pads yes (clearance 2))
    (min_thickness 0.254)
    (fill yes (arc_segments 16) (thermal_gap 0.508) (thermal_bridge_width 0.508))
    (polygon
      (pts
        (xy 136.6 80.85) (xy 136.4 60.65) (xy 125 60.6) (xy 125.8 82.6)
      )
    )
    (filled_polygon
      (pts
        (xy 136.471925 80.742096) (xy 125.921688 82.451625) (xy 125.855338 80.627) (xy 126.30798 80.627) (xy 127.220095 80.445569)
        (xy 128.254441 79.754441) (xy 128.945569 78.720095) (xy 129.188261 77.5) (xy 128.945569 76.279905) (xy 128.254441 75.245559)
        (xy 128.226039 75.226581) (xy 128.068778 74.435977) (xy 128.026698 74.373) (xy 127.618199 73.761638) (xy 127.618194 73.761633)
        (xy 127.466056 73.533943) (xy 127.238366 73.381805) (xy 125.618198 71.761638) (xy 125.528056 71.62673) (xy 125.294429 65.202)
        (xy 136.318063 65.202)
      )
    )
  )
  (zone (net 6) (net_name GND) (layer B.Cu) (tstamp 0) (hatch edge 0.508)
    (connect_pads yes (clearance 2))
    (min_thickness 0.254)
    (fill yes (arc_segments 16) (thermal_gap 0.508) (thermal_bridge_width 0.508))
    (polygon
      (pts
        (xy 159 75.4) (xy 159.2 59.4) (xy 140.15 59.75) (xy 140.35 113.75) (xy 159 113.8)
        (xy 159.2 59.8)
      )
    )
    (filled_polygon
      (pts
        (xy 145.662242 65.501298) (xy 144.501298 66.662242) (xy 143.873 68.179089) (xy 143.873 69.820911) (xy 144.501298 71.337758)
        (xy 145.662242 72.498702) (xy 147.179089 73.127) (xy 148.820911 73.127) (xy 150.337758 72.498702) (xy 151.498702 71.337758)
        (xy 152.127 69.820911) (xy 152.127 68.179089) (xy 151.498702 66.662242) (xy 150.337758 65.501298) (xy 149.615188 65.202)
        (xy 154.798001 65.202) (xy 154.798 109.798) (xy 140.462364 109.798) (xy 140.439332 103.579089) (xy 144.273 103.579089)
        (xy 144.273 105.220911) (xy 144.901298 106.737758) (xy 146.062242 107.898702) (xy 147.579089 108.527) (xy 149.220911 108.527)
        (xy 150.737758 107.898702) (xy 151.898702 106.737758) (xy 152.527 105.220911) (xy 152.527 103.579089) (xy 151.898702 102.062242)
        (xy 150.737758 100.901298) (xy 149.220911 100.273) (xy 147.579089 100.273) (xy 146.062242 100.901298) (xy 144.901298 102.062242)
        (xy 144.273 103.579089) (xy 140.439332 103.579089) (xy 140.297194 65.202) (xy 146.384812 65.202)
      )
    )
  )
  (zone (net 6) (net_name GND) (layer B.Cu) (tstamp 5D2A52F5) (hatch edge 0.508)
    (connect_pads yes (clearance 5))
    (min_thickness 0.254)
    (fill yes (arc_segments 16) (thermal_gap 0.508) (thermal_bridge_width 0.508))
    (polygon
      (pts
        (xy 61.6 61.6) (xy 101.2 61.6) (xy 100.075 119.85) (xy 55.925 115.65) (xy 61.2 62)
      )
    )
    (filled_polygon
      (pts
        (xy 95.109363 68.478492) (xy 93.082679 69.832679) (xy 91.728492 71.859364) (xy 91.373 73.646544) (xy 91.373001 86.603457)
        (xy 91.728493 88.390637) (xy 93.08268 90.417321) (xy 95.109364 91.771508) (xy 97.5 92.247035) (xy 99.890637 91.771508)
        (xy 100.498104 91.365611) (xy 100.200054 106.798) (xy 76.323006 106.798) (xy 76.377 106.667648) (xy 76.377 103.832352)
        (xy 75.490463 101.692061) (xy 75.609363 101.771508) (xy 78 102.247035) (xy 78.603457 102.127) (xy 80.621415 102.127)
        (xy 80.653291 102.148299) (xy 82.557149 102.527) (xy 84.042851 102.527) (xy 85.946709 102.148299) (xy 88.105704 100.705704)
        (xy 89.548299 98.546709) (xy 90.054871 96) (xy 89.55759 93.5) (xy 90.054871 91) (xy 89.548299 88.453291)
        (xy 89.427 88.271754) (xy 89.427 83.728246) (xy 89.548299 83.546709) (xy 90.054871 81) (xy 89.55759 78.5)
        (xy 90.054871 76) (xy 89.548299 73.453291) (xy 88.105704 71.294296) (xy 85.946709 69.851701) (xy 84.042851 69.473)
        (xy 82.557149 69.473) (xy 80.653291 69.851701) (xy 80.621415 69.873) (xy 79.603455 69.873) (xy 78.999999 69.752965)
        (xy 78.396543 69.873) (xy 76.609363 70.228492) (xy 76.527 70.283525) (xy 76.527 68.202) (xy 96.499383 68.202)
      )
    )
    (filled_polygon
      (pts
        (xy 69.228492 95.390637) (xy 70.582679 97.417321) (xy 71.094269 97.759155) (xy 72.017059 98.681944) (xy 70.667648 98.123)
        (xy 69.002 98.123) (xy 69.002 94.251984)
      )
    )
    (filled_polygon
      (pts
        (xy 69.228492 82.390636) (xy 69.229227 82.391736) (xy 69.320472 82.850456) (xy 70.45364 84.54636) (xy 71.13256 85)
        (xy 70.45364 85.45364) (xy 69.320472 87.149544) (xy 69.229227 87.608264) (xy 69.228492 87.609364) (xy 69.002 88.748017)
        (xy 69.002 81.251984)
      )
    )
    (filled_polygon
      (pts
        (xy 69.320472 77.149544) (xy 69.229227 77.608264) (xy 69.228492 77.609364) (xy 69.002 78.748016) (xy 69.002 76.127)
        (xy 70.003715 76.127)
      )
    )
    (filled_polygon
      (pts
        (xy 100.926759 69.170807) (xy 99.890636 68.478492) (xy 98.500617 68.202) (xy 100.94547 68.202)
      )
    )
  )
  (zone (net 6) (net_name GND) (layer B.Cu) (tstamp 5D2A52F4) (hatch edge 0.508)
    (connect_pads yes (clearance 2))
    (min_thickness 0.254)
    (fill yes (arc_segments 16) (thermal_gap 0.508) (thermal_bridge_width 0.508))
    (polygon
      (pts
        (xy 122.8 103.8) (xy 122.6 59.2) (xy 98 59.2) (xy 98 104)
      )
    )
    (filled_polygon
      (pts
        (xy 122.524895 70.773) (xy 118.268582 70.773) (xy 118 70.719576) (xy 117.731418 70.773) (xy 117.731414 70.773)
        (xy 116.935977 70.931222) (xy 116.261638 71.381801) (xy 116.261636 71.381803) (xy 116.033943 71.533943) (xy 115.881803 71.761636)
        (xy 114.37044 73.273) (xy 109.867188 73.273) (xy 108.976167 72.677639) (xy 107.947379 72.473) (xy 107.052621 72.473)
        (xy 106.023833 72.677639) (xy 105.132812 73.273) (xy 104.768581 73.273) (xy 104.499999 73.219576) (xy 104.231417 73.273)
        (xy 104.231414 73.273) (xy 103.435977 73.431222) (xy 102.761638 73.881801) (xy 102.761636 73.881803) (xy 102.533943 74.033943)
        (xy 102.381803 74.261636) (xy 100.761636 75.881804) (xy 100.533944 76.033943) (xy 100.381804 76.261636) (xy 100.381801 76.261639)
        (xy 99.931222 76.935978) (xy 99.719576 78) (xy 99.773001 78.268587) (xy 99.773 82.931418) (xy 99.719576 83.2)
        (xy 99.773 83.468582) (xy 99.773 83.468585) (xy 99.824402 83.727) (xy 99.931222 84.264022) (xy 100.381801 84.938361)
        (xy 100.381803 84.938363) (xy 100.533943 85.166056) (xy 100.761636 85.318196) (xy 103.181803 87.738364) (xy 103.333943 87.966057)
        (xy 103.561636 88.118197) (xy 103.561638 88.118199) (xy 104.197136 88.542825) (xy 104.235977 88.568778) (xy 104.718476 88.664753)
        (xy 104.077639 89.623833) (xy 103.803902 91) (xy 104.077639 92.376167) (xy 104.857175 93.542825) (xy 106.023833 94.322361)
        (xy 107.052621 94.527) (xy 107.947379 94.527) (xy 108.976167 94.322361) (xy 109.867188 93.727) (xy 110.731418 93.727)
        (xy 111 93.780424) (xy 111.268582 93.727) (xy 111.268586 93.727) (xy 112.064023 93.568778) (xy 112.966057 92.966057)
        (xy 113.118199 92.738361) (xy 116.238363 89.618197) (xy 116.466056 89.466057) (xy 116.618196 89.238364) (xy 116.618198 89.238362)
        (xy 116.772771 89.007027) (xy 117.068778 88.564023) (xy 117.227 87.768586) (xy 117.227 87.768582) (xy 117.280424 87.500001)
        (xy 117.227 87.23142) (xy 117.227 85.227) (xy 118.452793 85.227) (xy 118.779905 85.445569) (xy 119.69202 85.627)
        (xy 121.30798 85.627) (xy 122.220095 85.445569) (xy 122.589585 85.198684) (xy 122.644449 97.433306) (xy 122.571103 97.506652)
        (xy 122.054431 98.279906) (xy 121.811739 99.5) (xy 122.054431 100.720094) (xy 122.663274 101.63129) (xy 122.672434 103.674025)
        (xy 98.127 103.871972) (xy 98.127 65.202) (xy 122.499913 65.202)
      )
    )
    (filled_polygon
      (pts
        (xy 122.054431 76.279905) (xy 121.811739 77.5) (xy 122.054431 78.720095) (xy 122.563952 79.482647) (xy 122.565309 79.785095)
        (xy 122.220095 79.554431) (xy 121.30798 79.373) (xy 119.69202 79.373) (xy 118.779905 79.554431) (xy 118.452793 79.773)
        (xy 115.268582 79.773) (xy 115 79.719576) (xy 114.731418 79.773) (xy 112.32956 79.773) (xy 111.818199 79.261639)
        (xy 111.666057 79.033943) (xy 111.206685 78.727) (xy 115.231418 78.727) (xy 115.5 78.780424) (xy 115.768582 78.727)
        (xy 115.768586 78.727) (xy 116.564023 78.568778) (xy 117.466057 77.966057) (xy 117.618198 77.738362) (xy 119.129561 76.227)
        (xy 122.089781 76.227)
      )
    )
  )
  (zone (net 6) (net_name GND) (layer B.Cu) (tstamp 5D2A52F3) (hatch edge 0.508)
    (connect_pads yes (clearance 2))
    (min_thickness 0.254)
    (fill yes (arc_segments 16) (thermal_gap 0.508) (thermal_bridge_width 0.508))
    (polygon
      (pts
        (xy 145.4 114.8) (xy 75.15 115.6) (xy 75.75 102.5) (xy 142.8 103.6)
      )
    )
    (filled_polygon
      (pts
        (xy 142.698724 103.725356) (xy 144.108445 109.798) (xy 75.542874 109.798) (xy 75.871224 102.629006)
      )
    )
  )
  (zone (net 6) (net_name GND) (layer B.Cu) (tstamp 0) (hatch edge 0.508)
    (connect_pads yes (clearance 2))
    (min_thickness 0.254)
    (fill yes (arc_segments 16) (thermal_gap 0.508) (thermal_bridge_width 0.508))
    (polygon
      (pts
        (xy 90 55) (xy 90 95) (xy 100 95) (xy 100 55)
      )
    )
    (filled_polygon
      (pts
        (xy 99.873 77.228681) (xy 99.719576 78) (xy 99.773001 78.268587) (xy 99.773 82.931418) (xy 99.719576 83.2)
        (xy 99.773 83.468582) (xy 99.773 83.468585) (xy 99.873 83.971319) (xy 99.873 94.873) (xy 90.127 94.873)
        (xy 90.127 65.202) (xy 99.873 65.202)
      )
    )
  )
  (zone (net 6) (net_name GND) (layer B.Cu) (tstamp 0) (hatch edge 0.508)
    (connect_pads yes (clearance 2))
    (min_thickness 0.254)
    (fill yes (arc_segments 16) (thermal_gap 0.508) (thermal_bridge_width 0.508))
    (polygon
      (pts
        (xy 90 65) (xy 75 65) (xy 75 70) (xy 90 70)
      )
    )
    (filled_polygon
      (pts
        (xy 89.873 69.873) (xy 75.127 69.873) (xy 75.127 65.202) (xy 89.873 65.202)
      )
    )
  )
)
