(export (version D)
  (design
    (source "/home/manish/Dropbox (The University of Manchester)/AMP Group/new e,2e/Atomic Beam Oven/Power Supply/TransformerBoard/TransformerBoard.sch")
    (date "Wed 03 Jul 2019 15:28:55 BST")
    (tool "Eeschema 5.0.2-bee76a0~70~ubuntu18.04.1")
    (sheet (number 1) (name /) (tstamps /)
      (title_block
        (title "Transformer for High Current Circuit")
        (company "University of Manchester")
        (rev 1)
        (date 2019-06-20)
        (source TransformerBoard.sch)
        (comment (number 1) (value "For atomic beam oven constant current power supply"))
        (comment (number 2) (value ""))
        (comment (number 3) (value ""))
        (comment (number 4) (value "")))))
  (components
    (comp (ref C1)
      (value 10,000uF)
      (footprint Capacitor_THT:CP_Radial_D40.0mm_P10.00mm_SnapIn)
      (datasheet ~)
      (libsource (lib pspice) (part C) (description "Capacitor symbol for simulation only"))
      (sheetpath (names /) (tstamps /))
      (tstamp 5D0B66FF))
    (comp (ref C2)
      (value 100nF)
      (footprint Capacitor_THT:C_Disc_D3.4mm_W2.1mm_P2.50mm)
      (datasheet ~)
      (libsource (lib pspice) (part C) (description "Capacitor symbol for simulation only"))
      (sheetpath (names /) (tstamps /))
      (tstamp 5D0CCAF5))
    (comp (ref D1)
      (value GBU2506F)
      (footprint Diode_THT:Diode_Bridge_Vishay_GBU)
      (datasheet http://www.vishay.com/docs/88656/gbu4a.pdf)
      (libsource (lib Diode_Bridge) (part GBU4G) (description "Single-Phase Bridge Rectifier, 280V Vrms, 4.0A If, GBU package"))
      (sheetpath (names /) (tstamps /))
      (tstamp 5D0B62B4))
    (comp (ref J80V1)
      (value Conn_01x01_Male)
      (footprint Connector_PinHeader_2.00mm:PinHeader_1x01_P2.00mm_Vertical)
      (datasheet ~)
      (libsource (lib Connector) (part Conn_01x01_Male) (description "Generic connector, single row, 01x01, script generated (kicad-library-utils/schlib/autogen/connector/)"))
      (sheetpath (names /) (tstamps /))
      (tstamp 5D1C78C3))
    (comp (ref JGND1)
      (value Conn_01x01_Male)
      (footprint Connector_PinHeader_2.00mm:PinHeader_1x01_P2.00mm_Vertical)
      (datasheet ~)
      (libsource (lib Connector) (part Conn_01x01_Male) (description "Generic connector, single row, 01x01, script generated (kicad-library-utils/schlib/autogen/connector/)"))
      (sheetpath (names /) (tstamps /))
      (tstamp 5D1C7927))
    (comp (ref H2)
      (value MountingHole)
      (footprint MountingHole:MountingHole_4mm)
      (datasheet ~)
      (libsource (lib Mechanical) (part MountingHole) (description "Mounting Hole without connection"))
      (sheetpath (names /) (tstamps /))
      (tstamp 5D1C870F))
    (comp (ref H3)
      (value MountingHole)
      (footprint MountingHole:MountingHole_4mm)
      (datasheet ~)
      (libsource (lib Mechanical) (part MountingHole) (description "Mounting Hole without connection"))
      (sheetpath (names /) (tstamps /))
      (tstamp 5D1C879F))
    (comp (ref H4)
      (value MountingHole)
      (footprint MountingHole:MountingHole_4mm)
      (datasheet ~)
      (libsource (lib Mechanical) (part MountingHole) (description "Mounting Hole without connection"))
      (sheetpath (names /) (tstamps /))
      (tstamp 5D1C87F7))
    (comp (ref H1)
      (value MountingHole)
      (footprint MountingHole:MountingHole_4mm)
      (datasheet ~)
      (libsource (lib Mechanical) (part MountingHole) (description "Mounting Hole without connection"))
      (sheetpath (names /) (tstamps /))
      (tstamp 5D1C8823))
    (comp (ref JGND2)
      (value Conn_01x01_Male)
      (footprint Connector_PinHeader_2.00mm:PinHeader_1x01_P2.00mm_Vertical)
      (datasheet ~)
      (libsource (lib Connector) (part Conn_01x01_Male) (description "Generic connector, single row, 01x01, script generated (kicad-library-utils/schlib/autogen/connector/)"))
      (sheetpath (names /) (tstamps /))
      (tstamp 5D1CBCAB))
    (comp (ref U1)
      (value VTX-146-160-155)
      (footprint Custom_Library:VTX-146-169-155)
      (libsource (lib Custom_Library) (part VTX-146-160-155) (description ""))
      (sheetpath (names /) (tstamps /))
      (tstamp 5D1CD0E8)))
  (libparts
    (libpart (lib Connector) (part Conn_01x01_Male)
      (description "Generic connector, single row, 01x01, script generated (kicad-library-utils/schlib/autogen/connector/)")
      (docs ~)
      (footprints
        (fp Connector*:*))
      (fields
        (field (name Reference) J)
        (field (name Value) Conn_01x01_Male))
      (pins
        (pin (num 1) (name Pin_1) (type passive))))
    (libpart (lib Custom_Library) (part VTX-146-160-155)
      (fields
        (field (name Reference) U)
        (field (name Value) VTX-146-160-155))
      (pins
        (pin (num 1) (name ~) (type passive))
        (pin (num 2) (name ~) (type passive))
        (pin (num 3) (name ~) (type passive))
        (pin (num 4) (name ~) (type passive))))
    (libpart (lib Diode_Bridge) (part GBU4A)
      (aliases
        (alias GBU4B)
        (alias GBU4D)
        (alias GBU4G)
        (alias GBU4J)
        (alias GBU4K)
        (alias GBU4M)
        (alias GBU8A)
        (alias GBU8B)
        (alias GBU8D)
        (alias GBU8G)
        (alias GBU8J)
        (alias GBU8K)
        (alias GBU8M)
        (alias GBU6A)
        (alias GBU6B)
        (alias GBU6D)
        (alias GBU6G)
        (alias GBU6J)
        (alias GBU6K)
        (alias GBU6M))
      (description "Single-Phase Bridge Rectifier, 35V Vrms, 4.0A If, GBU package")
      (docs http://www.vishay.com/docs/88656/gbu4a.pdf)
      (footprints
        (fp Diode*Bridge*Vishay*GBU*))
      (fields
        (field (name Reference) D)
        (field (name Value) GBU4A)
        (field (name Footprint) Diode_THT:Diode_Bridge_Vishay_GBU))
      (pins
        (pin (num 1) (name +) (type passive))
        (pin (num 2) (name ~~) (type passive))
        (pin (num 3) (name ~~) (type passive))
        (pin (num 4) (name -) (type passive))))
    (libpart (lib Mechanical) (part MountingHole)
      (description "Mounting Hole without connection")
      (docs ~)
      (footprints
        (fp MountingHole*))
      (fields
        (field (name Reference) H)
        (field (name Value) MountingHole)))
    (libpart (lib pspice) (part CAP)
      (aliases
        (alias C))
      (description "Capacitor symbol for simulation only")
      (docs ~)
      (fields
        (field (name Reference) C)
        (field (name Value) CAP))
      (pins
        (pin (num 1) (name ~) (type passive))
        (pin (num 2) (name ~) (type passive)))))
  (libraries
    (library (logical Connector)
      (uri /usr/share/kicad/library/Connector.lib))
    (library (logical Custom_Library)
      (uri "/home/manish/Dropbox (The University of Manchester)/AMP Group/new e,2e/KiCad Libraries/Custom_Library/Custom_Library.lib"))
    (library (logical Diode_Bridge)
      (uri /usr/share/kicad/library/Diode_Bridge.lib))
    (library (logical Mechanical)
      (uri /usr/share/kicad/library/Mechanical.lib))
    (library (logical pspice)
      (uri /usr/share/kicad/library/pspice.lib)))
  (nets
    (net (code 1) (name "Net-(C1-Pad1)")
      (node (ref J80V1) (pin 1))
      (node (ref C1) (pin 1))
      (node (ref D1) (pin 1))
      (node (ref C2) (pin 1)))
    (net (code 2) (name "Net-(D1-Pad3)")
      (node (ref U1) (pin 4))
      (node (ref U1) (pin 2))
      (node (ref D1) (pin 3)))
    (net (code 3) (name "Net-(D1-Pad2)")
      (node (ref U1) (pin 3))
      (node (ref U1) (pin 1))
      (node (ref D1) (pin 2)))
    (net (code 4) (name GND)
      (node (ref C2) (pin 2))
      (node (ref D1) (pin 4))
      (node (ref C1) (pin 2))
      (node (ref JGND1) (pin 1))
      (node (ref JGND2) (pin 1)))))