#time (mins),T_internal (deg C),T_front (deg C)
0,27.3,26.6
150,396.5,263.2
155,398.3,265
160,400,266.9
165,401.6,268.4
170,488,296.7
175,539.4,341.6
180,571.2,379.3
185,592.5,410.9
190,608.5,428.7
195,621.1,444.2
200,630.2,455.2
205,637.6,464
210,643.2,470.3
215,647.3,475.1
220,650.4,478.6
225,652.6,481.4
230,654.1,482.8
235,655.2,483.7
240,656,484.7
300,657.4,485.2
305,657.3,485.2