G04 #@! TF.GenerationSoftware,KiCad,Pcbnew,(5.1.8)-1*
G04 #@! TF.CreationDate,2020-11-12T16:20:36+00:00*
G04 #@! TF.ProjectId,ArduinoNanoBreakoutPCB,41726475-696e-46f4-9e61-6e6f42726561,rev?*
G04 #@! TF.SameCoordinates,Original*
G04 #@! TF.FileFunction,Soldermask,Bot*
G04 #@! TF.FilePolarity,Negative*
%FSLAX46Y46*%
G04 Gerber Fmt 4.6, Leading zero omitted, Abs format (unit mm)*
G04 Created by KiCad (PCBNEW (5.1.8)-1) date 2020-11-12 16:20:36*
%MOMM*%
%LPD*%
G01*
G04 APERTURE LIST*
%ADD10O,2.102000X1.702000*%
%ADD11C,2.302000*%
%ADD12C,3.302000*%
%ADD13C,4.402000*%
%ADD14O,2.402000X2.102000*%
%ADD15O,2.102000X2.402000*%
%ADD16C,0.100000*%
G04 APERTURE END LIST*
G36*
G01*
X118354001Y-62735001D02*
X118354001Y-60935001D01*
G75*
G02*
X118405001Y-60884001I51000J0D01*
G01*
X120205001Y-60884001D01*
G75*
G02*
X120256001Y-60935001I0J-51000D01*
G01*
X120256001Y-62735001D01*
G75*
G02*
X120205001Y-62786001I-51000J0D01*
G01*
X118405001Y-62786001D01*
G75*
G02*
X118354001Y-62735001I0J51000D01*
G01*
G37*
D10*
X134545001Y-94855001D03*
X119305001Y-64375001D03*
X134545001Y-92315001D03*
X119305001Y-66915001D03*
X134545001Y-89775001D03*
X119305001Y-69455001D03*
X134545001Y-87235001D03*
X119305001Y-71995001D03*
X134545001Y-84695001D03*
X119305001Y-74535001D03*
X134545001Y-82155001D03*
X119305001Y-77075001D03*
X134545001Y-79615001D03*
X119305001Y-79615001D03*
X134545001Y-77075001D03*
X119305001Y-82155001D03*
X134545001Y-74535001D03*
X119305001Y-84695001D03*
X134545001Y-71995001D03*
X119305001Y-87235001D03*
X134545001Y-69455001D03*
X119305001Y-89775001D03*
X134545001Y-66915001D03*
X119305001Y-92315001D03*
X134545001Y-64375001D03*
X119305001Y-94855001D03*
X134545001Y-61835001D03*
X119305001Y-97395001D03*
X134545001Y-97395001D03*
D11*
X151250000Y-99000000D03*
X130410000Y-52550000D03*
D12*
X151250000Y-107250000D03*
X123500000Y-51750000D03*
D13*
X142500000Y-107250000D03*
X113250000Y-52250000D03*
G36*
G01*
X149960000Y-51489000D02*
X152960000Y-51489000D01*
G75*
G02*
X153011000Y-51540000I0J-51000D01*
G01*
X153011000Y-53540000D01*
G75*
G02*
X152960000Y-53591000I-51000J0D01*
G01*
X149960000Y-53591000D01*
G75*
G02*
X149909000Y-53540000I0J51000D01*
G01*
X149909000Y-51540000D01*
G75*
G02*
X149960000Y-51489000I51000J0D01*
G01*
G37*
G36*
G01*
X149960000Y-55989000D02*
X152960000Y-55989000D01*
G75*
G02*
X153011000Y-56040000I0J-51000D01*
G01*
X153011000Y-58040000D01*
G75*
G02*
X152960000Y-58091000I-51000J0D01*
G01*
X149960000Y-58091000D01*
G75*
G02*
X149909000Y-58040000I0J51000D01*
G01*
X149909000Y-56040000D01*
G75*
G02*
X149960000Y-55989000I51000J0D01*
G01*
G37*
G36*
G01*
X149960000Y-60489000D02*
X152960000Y-60489000D01*
G75*
G02*
X153011000Y-60540000I0J-51000D01*
G01*
X153011000Y-62540000D01*
G75*
G02*
X152960000Y-62591000I-51000J0D01*
G01*
X149960000Y-62591000D01*
G75*
G02*
X149909000Y-62540000I0J51000D01*
G01*
X149909000Y-60540000D01*
G75*
G02*
X149960000Y-60489000I51000J0D01*
G01*
G37*
D14*
X111250000Y-66580000D03*
X111250000Y-64040000D03*
G36*
G01*
X110401688Y-60449000D02*
X112098312Y-60449000D01*
G75*
G02*
X112401000Y-60751688I0J-302688D01*
G01*
X112401000Y-62248312D01*
G75*
G02*
X112098312Y-62551000I-302688J0D01*
G01*
X110401688Y-62551000D01*
G75*
G02*
X110099000Y-62248312I0J302688D01*
G01*
X110099000Y-60751688D01*
G75*
G02*
X110401688Y-60449000I302688J0D01*
G01*
G37*
G36*
G01*
X112898312Y-95911000D02*
X111201688Y-95911000D01*
G75*
G02*
X110899000Y-95608312I0J302688D01*
G01*
X110899000Y-94111688D01*
G75*
G02*
X111201688Y-93809000I302688J0D01*
G01*
X112898312Y-93809000D01*
G75*
G02*
X113201000Y-94111688I0J-302688D01*
G01*
X113201000Y-95608312D01*
G75*
G02*
X112898312Y-95911000I-302688J0D01*
G01*
G37*
X112050000Y-92320000D03*
X112050000Y-89780000D03*
X112050000Y-87240000D03*
X112050000Y-84700000D03*
X112050000Y-82160000D03*
X112050000Y-79620000D03*
X112050000Y-77080000D03*
X112050000Y-74540000D03*
X112050000Y-72000000D03*
G36*
G01*
X151241688Y-66729000D02*
X152938312Y-66729000D01*
G75*
G02*
X153241000Y-67031688I0J-302688D01*
G01*
X153241000Y-68528312D01*
G75*
G02*
X152938312Y-68831000I-302688J0D01*
G01*
X151241688Y-68831000D01*
G75*
G02*
X150939000Y-68528312I0J302688D01*
G01*
X150939000Y-67031688D01*
G75*
G02*
X151241688Y-66729000I302688J0D01*
G01*
G37*
X152090000Y-70320000D03*
X152090000Y-72860000D03*
G36*
G01*
X112848312Y-108301000D02*
X111151688Y-108301000D01*
G75*
G02*
X110849000Y-107998312I0J302688D01*
G01*
X110849000Y-106501688D01*
G75*
G02*
X111151688Y-106199000I302688J0D01*
G01*
X112848312Y-106199000D01*
G75*
G02*
X113151000Y-106501688I0J-302688D01*
G01*
X113151000Y-107998312D01*
G75*
G02*
X112848312Y-108301000I-302688J0D01*
G01*
G37*
X112000000Y-104710000D03*
X112000000Y-102170000D03*
X112000000Y-99630000D03*
X149800000Y-80480000D03*
X149800000Y-83020000D03*
X149800000Y-85560000D03*
G36*
G01*
X150648312Y-89151000D02*
X148951688Y-89151000D01*
G75*
G02*
X148649000Y-88848312I0J302688D01*
G01*
X148649000Y-87351688D01*
G75*
G02*
X148951688Y-87049000I302688J0D01*
G01*
X150648312Y-87049000D01*
G75*
G02*
X150951000Y-87351688I0J-302688D01*
G01*
X150951000Y-88848312D01*
G75*
G02*
X150648312Y-89151000I-302688J0D01*
G01*
G37*
G36*
G01*
X131348312Y-112021000D02*
X129651688Y-112021000D01*
G75*
G02*
X129349000Y-111718312I0J302688D01*
G01*
X129349000Y-110221688D01*
G75*
G02*
X129651688Y-109919000I302688J0D01*
G01*
X131348312Y-109919000D01*
G75*
G02*
X131651000Y-110221688I0J-302688D01*
G01*
X131651000Y-111718312D01*
G75*
G02*
X131348312Y-112021000I-302688J0D01*
G01*
G37*
X130500000Y-108430000D03*
D15*
X141150000Y-97490000D03*
G36*
G01*
X144741000Y-96641688D02*
X144741000Y-98338312D01*
G75*
G02*
X144438312Y-98641000I-302688J0D01*
G01*
X142941688Y-98641000D01*
G75*
G02*
X142639000Y-98338312I0J302688D01*
G01*
X142639000Y-96641688D01*
G75*
G02*
X142941688Y-96339000I302688J0D01*
G01*
X144438312Y-96339000D01*
G75*
G02*
X144741000Y-96641688I0J-302688D01*
G01*
G37*
G36*
G01*
X144691000Y-89321688D02*
X144691000Y-91018312D01*
G75*
G02*
X144388312Y-91321000I-302688J0D01*
G01*
X142891688Y-91321000D01*
G75*
G02*
X142589000Y-91018312I0J302688D01*
G01*
X142589000Y-89321688D01*
G75*
G02*
X142891688Y-89019000I302688J0D01*
G01*
X144388312Y-89019000D01*
G75*
G02*
X144691000Y-89321688I0J-302688D01*
G01*
G37*
X141100000Y-90170000D03*
X141050000Y-83000000D03*
G36*
G01*
X144641000Y-82151688D02*
X144641000Y-83848312D01*
G75*
G02*
X144338312Y-84151000I-302688J0D01*
G01*
X142841688Y-84151000D01*
G75*
G02*
X142539000Y-83848312I0J302688D01*
G01*
X142539000Y-82151688D01*
G75*
G02*
X142841688Y-81849000I302688J0D01*
G01*
X144338312Y-81849000D01*
G75*
G02*
X144641000Y-82151688I0J-302688D01*
G01*
G37*
G36*
G01*
X144551000Y-74901688D02*
X144551000Y-76598312D01*
G75*
G02*
X144248312Y-76901000I-302688J0D01*
G01*
X142751688Y-76901000D01*
G75*
G02*
X142449000Y-76598312I0J302688D01*
G01*
X142449000Y-74901688D01*
G75*
G02*
X142751688Y-74599000I302688J0D01*
G01*
X144248312Y-74599000D01*
G75*
G02*
X144551000Y-74901688I0J-302688D01*
G01*
G37*
X140960000Y-75750000D03*
X142760000Y-68330000D03*
G36*
G01*
X146351000Y-67481688D02*
X146351000Y-69178312D01*
G75*
G02*
X146048312Y-69481000I-302688J0D01*
G01*
X144551688Y-69481000D01*
G75*
G02*
X144249000Y-69178312I0J302688D01*
G01*
X144249000Y-67481688D01*
G75*
G02*
X144551688Y-67179000I302688J0D01*
G01*
X146048312Y-67179000D01*
G75*
G02*
X146351000Y-67481688I0J-302688D01*
G01*
G37*
G36*
G01*
X145921000Y-59241688D02*
X145921000Y-60938312D01*
G75*
G02*
X145618312Y-61241000I-302688J0D01*
G01*
X144121688Y-61241000D01*
G75*
G02*
X143819000Y-60938312I0J302688D01*
G01*
X143819000Y-59241688D01*
G75*
G02*
X144121688Y-58939000I302688J0D01*
G01*
X145618312Y-58939000D01*
G75*
G02*
X145921000Y-59241688I0J-302688D01*
G01*
G37*
X142330000Y-60090000D03*
G36*
G01*
X139405312Y-55661000D02*
X137708688Y-55661000D01*
G75*
G02*
X137406000Y-55358312I0J302688D01*
G01*
X137406000Y-53861688D01*
G75*
G02*
X137708688Y-53559000I302688J0D01*
G01*
X139405312Y-53559000D01*
G75*
G02*
X139708000Y-53861688I0J-302688D01*
G01*
X139708000Y-55358312D01*
G75*
G02*
X139405312Y-55661000I-302688J0D01*
G01*
G37*
D14*
X138557000Y-52070000D03*
X138557000Y-49530000D03*
G36*
G01*
X139551000Y-65180000D02*
X139551000Y-67180000D01*
G75*
G02*
X139500000Y-67231000I-51000J0D01*
G01*
X137500000Y-67231000D01*
G75*
G02*
X137449000Y-67180000I0J51000D01*
G01*
X137449000Y-65180000D01*
G75*
G02*
X137500000Y-65129000I51000J0D01*
G01*
X139500000Y-65129000D01*
G75*
G02*
X139551000Y-65180000I0J-51000D01*
G01*
G37*
X138500000Y-63640000D03*
D16*
G36*
X129350990Y-111718116D02*
G01*
X129356786Y-111776968D01*
X129373898Y-111833377D01*
X129401683Y-111885360D01*
X129439076Y-111930924D01*
X129484640Y-111968317D01*
X129536623Y-111996102D01*
X129593032Y-112013214D01*
X129651884Y-112019010D01*
X129653510Y-112020175D01*
X129653314Y-112022165D01*
X129651688Y-112023000D01*
X129568828Y-112023000D01*
X129568632Y-112022990D01*
X129520923Y-112018291D01*
X129520538Y-112018215D01*
X129480561Y-112006088D01*
X129480199Y-112005938D01*
X129443364Y-111986249D01*
X129443038Y-111986031D01*
X129410746Y-111959531D01*
X129410469Y-111959254D01*
X129383969Y-111926962D01*
X129383751Y-111926636D01*
X129364062Y-111889801D01*
X129363912Y-111889439D01*
X129351785Y-111849462D01*
X129351709Y-111849077D01*
X129347010Y-111801368D01*
X129347000Y-111801172D01*
X129347000Y-111718312D01*
X129348000Y-111716580D01*
X129350000Y-111716580D01*
X129350990Y-111718116D01*
G37*
G36*
X131652165Y-111716686D02*
G01*
X131653000Y-111718312D01*
X131653000Y-111801172D01*
X131652990Y-111801368D01*
X131648291Y-111849077D01*
X131648215Y-111849462D01*
X131636088Y-111889439D01*
X131635938Y-111889801D01*
X131616249Y-111926636D01*
X131616031Y-111926962D01*
X131589531Y-111959254D01*
X131589254Y-111959531D01*
X131556962Y-111986031D01*
X131556636Y-111986249D01*
X131519801Y-112005938D01*
X131519439Y-112006088D01*
X131479462Y-112018215D01*
X131479077Y-112018291D01*
X131431368Y-112022990D01*
X131431172Y-112023000D01*
X131348312Y-112023000D01*
X131346580Y-112022000D01*
X131346580Y-112020000D01*
X131348116Y-112019010D01*
X131406968Y-112013214D01*
X131463377Y-111996102D01*
X131515360Y-111968317D01*
X131560924Y-111930924D01*
X131598317Y-111885360D01*
X131626102Y-111833377D01*
X131643214Y-111776968D01*
X131649010Y-111718116D01*
X131650175Y-111716490D01*
X131652165Y-111716686D01*
G37*
G36*
X129653420Y-109918000D02*
G01*
X129653420Y-109920000D01*
X129651884Y-109920990D01*
X129593032Y-109926786D01*
X129536623Y-109943898D01*
X129484640Y-109971683D01*
X129439076Y-110009076D01*
X129401683Y-110054640D01*
X129373898Y-110106623D01*
X129356786Y-110163032D01*
X129350990Y-110221884D01*
X129349825Y-110223510D01*
X129347835Y-110223314D01*
X129347000Y-110221688D01*
X129347000Y-110138828D01*
X129347010Y-110138632D01*
X129351709Y-110090923D01*
X129351785Y-110090538D01*
X129363912Y-110050561D01*
X129364062Y-110050199D01*
X129383751Y-110013364D01*
X129383969Y-110013038D01*
X129410469Y-109980746D01*
X129410746Y-109980469D01*
X129443038Y-109953969D01*
X129443364Y-109953751D01*
X129480199Y-109934062D01*
X129480561Y-109933912D01*
X129520538Y-109921785D01*
X129520923Y-109921709D01*
X129568632Y-109917010D01*
X129568828Y-109917000D01*
X129651688Y-109917000D01*
X129653420Y-109918000D01*
G37*
G36*
X131431368Y-109917010D02*
G01*
X131479077Y-109921709D01*
X131479462Y-109921785D01*
X131519439Y-109933912D01*
X131519801Y-109934062D01*
X131556636Y-109953751D01*
X131556962Y-109953969D01*
X131589254Y-109980469D01*
X131589531Y-109980746D01*
X131616031Y-110013038D01*
X131616249Y-110013364D01*
X131635938Y-110050199D01*
X131636088Y-110050561D01*
X131648215Y-110090538D01*
X131648291Y-110090923D01*
X131652990Y-110138632D01*
X131653000Y-110138828D01*
X131653000Y-110221688D01*
X131652000Y-110223420D01*
X131650000Y-110223420D01*
X131649010Y-110221884D01*
X131643214Y-110163032D01*
X131626102Y-110106623D01*
X131598317Y-110054640D01*
X131560924Y-110009076D01*
X131515360Y-109971683D01*
X131463377Y-109943898D01*
X131406968Y-109926786D01*
X131348116Y-109920990D01*
X131346490Y-109919825D01*
X131346686Y-109917835D01*
X131348312Y-109917000D01*
X131431172Y-109917000D01*
X131431368Y-109917010D01*
G37*
G36*
X110850990Y-107998116D02*
G01*
X110856786Y-108056968D01*
X110873898Y-108113377D01*
X110901683Y-108165360D01*
X110939076Y-108210924D01*
X110984640Y-108248317D01*
X111036623Y-108276102D01*
X111093032Y-108293214D01*
X111151884Y-108299010D01*
X111153510Y-108300175D01*
X111153314Y-108302165D01*
X111151688Y-108303000D01*
X111068828Y-108303000D01*
X111068632Y-108302990D01*
X111020923Y-108298291D01*
X111020538Y-108298215D01*
X110980561Y-108286088D01*
X110980199Y-108285938D01*
X110943364Y-108266249D01*
X110943038Y-108266031D01*
X110910746Y-108239531D01*
X110910469Y-108239254D01*
X110883969Y-108206962D01*
X110883751Y-108206636D01*
X110864062Y-108169801D01*
X110863912Y-108169439D01*
X110851785Y-108129462D01*
X110851709Y-108129077D01*
X110847010Y-108081368D01*
X110847000Y-108081172D01*
X110847000Y-107998312D01*
X110848000Y-107996580D01*
X110850000Y-107996580D01*
X110850990Y-107998116D01*
G37*
G36*
X113152165Y-107996686D02*
G01*
X113153000Y-107998312D01*
X113153000Y-108081172D01*
X113152990Y-108081368D01*
X113148291Y-108129077D01*
X113148215Y-108129462D01*
X113136088Y-108169439D01*
X113135938Y-108169801D01*
X113116249Y-108206636D01*
X113116031Y-108206962D01*
X113089531Y-108239254D01*
X113089254Y-108239531D01*
X113056962Y-108266031D01*
X113056636Y-108266249D01*
X113019801Y-108285938D01*
X113019439Y-108286088D01*
X112979462Y-108298215D01*
X112979077Y-108298291D01*
X112931368Y-108302990D01*
X112931172Y-108303000D01*
X112848312Y-108303000D01*
X112846580Y-108302000D01*
X112846580Y-108300000D01*
X112848116Y-108299010D01*
X112906968Y-108293214D01*
X112963377Y-108276102D01*
X113015360Y-108248317D01*
X113060924Y-108210924D01*
X113098317Y-108165360D01*
X113126102Y-108113377D01*
X113143214Y-108056968D01*
X113149010Y-107998116D01*
X113150175Y-107996490D01*
X113152165Y-107996686D01*
G37*
G36*
X111153420Y-106198000D02*
G01*
X111153420Y-106200000D01*
X111151884Y-106200990D01*
X111093032Y-106206786D01*
X111036623Y-106223898D01*
X110984640Y-106251683D01*
X110939076Y-106289076D01*
X110901683Y-106334640D01*
X110873898Y-106386623D01*
X110856786Y-106443032D01*
X110850990Y-106501884D01*
X110849825Y-106503510D01*
X110847835Y-106503314D01*
X110847000Y-106501688D01*
X110847000Y-106418828D01*
X110847010Y-106418632D01*
X110851709Y-106370923D01*
X110851785Y-106370538D01*
X110863912Y-106330561D01*
X110864062Y-106330199D01*
X110883751Y-106293364D01*
X110883969Y-106293038D01*
X110910469Y-106260746D01*
X110910746Y-106260469D01*
X110943038Y-106233969D01*
X110943364Y-106233751D01*
X110980199Y-106214062D01*
X110980561Y-106213912D01*
X111020538Y-106201785D01*
X111020923Y-106201709D01*
X111068632Y-106197010D01*
X111068828Y-106197000D01*
X111151688Y-106197000D01*
X111153420Y-106198000D01*
G37*
G36*
X112931368Y-106197010D02*
G01*
X112979077Y-106201709D01*
X112979462Y-106201785D01*
X113019439Y-106213912D01*
X113019801Y-106214062D01*
X113056636Y-106233751D01*
X113056962Y-106233969D01*
X113089254Y-106260469D01*
X113089531Y-106260746D01*
X113116031Y-106293038D01*
X113116249Y-106293364D01*
X113135938Y-106330199D01*
X113136088Y-106330561D01*
X113148215Y-106370538D01*
X113148291Y-106370923D01*
X113152990Y-106418632D01*
X113153000Y-106418828D01*
X113153000Y-106501688D01*
X113152000Y-106503420D01*
X113150000Y-106503420D01*
X113149010Y-106501884D01*
X113143214Y-106443032D01*
X113126102Y-106386623D01*
X113098317Y-106334640D01*
X113060924Y-106289076D01*
X113015360Y-106251683D01*
X112963377Y-106223898D01*
X112906968Y-106206786D01*
X112848116Y-106200990D01*
X112846490Y-106199825D01*
X112846686Y-106197835D01*
X112848312Y-106197000D01*
X112931172Y-106197000D01*
X112931368Y-106197010D01*
G37*
G36*
X142640990Y-98338116D02*
G01*
X142646786Y-98396968D01*
X142663898Y-98453377D01*
X142691683Y-98505360D01*
X142729076Y-98550924D01*
X142774640Y-98588317D01*
X142826623Y-98616102D01*
X142883032Y-98633214D01*
X142941884Y-98639010D01*
X142943510Y-98640175D01*
X142943314Y-98642165D01*
X142941688Y-98643000D01*
X142858828Y-98643000D01*
X142858632Y-98642990D01*
X142810923Y-98638291D01*
X142810538Y-98638215D01*
X142770561Y-98626088D01*
X142770199Y-98625938D01*
X142733364Y-98606249D01*
X142733038Y-98606031D01*
X142700746Y-98579531D01*
X142700469Y-98579254D01*
X142673969Y-98546962D01*
X142673751Y-98546636D01*
X142654062Y-98509801D01*
X142653912Y-98509439D01*
X142641785Y-98469462D01*
X142641709Y-98469077D01*
X142637010Y-98421368D01*
X142637000Y-98421172D01*
X142637000Y-98338312D01*
X142638000Y-98336580D01*
X142640000Y-98336580D01*
X142640990Y-98338116D01*
G37*
G36*
X144742165Y-98336686D02*
G01*
X144743000Y-98338312D01*
X144743000Y-98421172D01*
X144742990Y-98421368D01*
X144738291Y-98469077D01*
X144738215Y-98469462D01*
X144726088Y-98509439D01*
X144725938Y-98509801D01*
X144706249Y-98546636D01*
X144706031Y-98546962D01*
X144679531Y-98579254D01*
X144679254Y-98579531D01*
X144646962Y-98606031D01*
X144646636Y-98606249D01*
X144609801Y-98625938D01*
X144609439Y-98626088D01*
X144569462Y-98638215D01*
X144569077Y-98638291D01*
X144521368Y-98642990D01*
X144521172Y-98643000D01*
X144438312Y-98643000D01*
X144436580Y-98642000D01*
X144436580Y-98640000D01*
X144438116Y-98639010D01*
X144496968Y-98633214D01*
X144553377Y-98616102D01*
X144605360Y-98588317D01*
X144650924Y-98550924D01*
X144688317Y-98505360D01*
X144716102Y-98453377D01*
X144733214Y-98396968D01*
X144739010Y-98338116D01*
X144740175Y-98336490D01*
X144742165Y-98336686D01*
G37*
G36*
X142943420Y-96338000D02*
G01*
X142943420Y-96340000D01*
X142941884Y-96340990D01*
X142883032Y-96346786D01*
X142826623Y-96363898D01*
X142774640Y-96391683D01*
X142729076Y-96429076D01*
X142691683Y-96474640D01*
X142663898Y-96526623D01*
X142646786Y-96583032D01*
X142640990Y-96641884D01*
X142639825Y-96643510D01*
X142637835Y-96643314D01*
X142637000Y-96641688D01*
X142637000Y-96558828D01*
X142637010Y-96558632D01*
X142641709Y-96510923D01*
X142641785Y-96510538D01*
X142653912Y-96470561D01*
X142654062Y-96470199D01*
X142673751Y-96433364D01*
X142673969Y-96433038D01*
X142700469Y-96400746D01*
X142700746Y-96400469D01*
X142733038Y-96373969D01*
X142733364Y-96373751D01*
X142770199Y-96354062D01*
X142770561Y-96353912D01*
X142810538Y-96341785D01*
X142810923Y-96341709D01*
X142858632Y-96337010D01*
X142858828Y-96337000D01*
X142941688Y-96337000D01*
X142943420Y-96338000D01*
G37*
G36*
X144521368Y-96337010D02*
G01*
X144569077Y-96341709D01*
X144569462Y-96341785D01*
X144609439Y-96353912D01*
X144609801Y-96354062D01*
X144646636Y-96373751D01*
X144646962Y-96373969D01*
X144679254Y-96400469D01*
X144679531Y-96400746D01*
X144706031Y-96433038D01*
X144706249Y-96433364D01*
X144725938Y-96470199D01*
X144726088Y-96470561D01*
X144738215Y-96510538D01*
X144738291Y-96510923D01*
X144742990Y-96558632D01*
X144743000Y-96558828D01*
X144743000Y-96641688D01*
X144742000Y-96643420D01*
X144740000Y-96643420D01*
X144739010Y-96641884D01*
X144733214Y-96583032D01*
X144716102Y-96526623D01*
X144688317Y-96474640D01*
X144650924Y-96429076D01*
X144605360Y-96391683D01*
X144553377Y-96363898D01*
X144496968Y-96346786D01*
X144438116Y-96340990D01*
X144436490Y-96339825D01*
X144436686Y-96337835D01*
X144438312Y-96337000D01*
X144521172Y-96337000D01*
X144521368Y-96337010D01*
G37*
G36*
X113202165Y-95606686D02*
G01*
X113203000Y-95608312D01*
X113203000Y-95691172D01*
X113202990Y-95691368D01*
X113198291Y-95739077D01*
X113198215Y-95739462D01*
X113186088Y-95779439D01*
X113185938Y-95779801D01*
X113166249Y-95816636D01*
X113166031Y-95816962D01*
X113139531Y-95849254D01*
X113139254Y-95849531D01*
X113106962Y-95876031D01*
X113106636Y-95876249D01*
X113069801Y-95895938D01*
X113069439Y-95896088D01*
X113029462Y-95908215D01*
X113029077Y-95908291D01*
X112981368Y-95912990D01*
X112981172Y-95913000D01*
X112898312Y-95913000D01*
X112896580Y-95912000D01*
X112896580Y-95910000D01*
X112898116Y-95909010D01*
X112956968Y-95903214D01*
X113013377Y-95886102D01*
X113065360Y-95858317D01*
X113110924Y-95820924D01*
X113148317Y-95775360D01*
X113176102Y-95723377D01*
X113193214Y-95666968D01*
X113199010Y-95608116D01*
X113200175Y-95606490D01*
X113202165Y-95606686D01*
G37*
G36*
X110900990Y-95608116D02*
G01*
X110906786Y-95666968D01*
X110923898Y-95723377D01*
X110951683Y-95775360D01*
X110989076Y-95820924D01*
X111034640Y-95858317D01*
X111086623Y-95886102D01*
X111143032Y-95903214D01*
X111201884Y-95909010D01*
X111203510Y-95910175D01*
X111203314Y-95912165D01*
X111201688Y-95913000D01*
X111118828Y-95913000D01*
X111118632Y-95912990D01*
X111070923Y-95908291D01*
X111070538Y-95908215D01*
X111030561Y-95896088D01*
X111030199Y-95895938D01*
X110993364Y-95876249D01*
X110993038Y-95876031D01*
X110960746Y-95849531D01*
X110960469Y-95849254D01*
X110933969Y-95816962D01*
X110933751Y-95816636D01*
X110914062Y-95779801D01*
X110913912Y-95779439D01*
X110901785Y-95739462D01*
X110901709Y-95739077D01*
X110897010Y-95691368D01*
X110897000Y-95691172D01*
X110897000Y-95608312D01*
X110898000Y-95606580D01*
X110900000Y-95606580D01*
X110900990Y-95608116D01*
G37*
G36*
X111203420Y-93808000D02*
G01*
X111203420Y-93810000D01*
X111201884Y-93810990D01*
X111143032Y-93816786D01*
X111086623Y-93833898D01*
X111034640Y-93861683D01*
X110989076Y-93899076D01*
X110951683Y-93944640D01*
X110923898Y-93996623D01*
X110906786Y-94053032D01*
X110900990Y-94111884D01*
X110899825Y-94113510D01*
X110897835Y-94113314D01*
X110897000Y-94111688D01*
X110897000Y-94028828D01*
X110897010Y-94028632D01*
X110901709Y-93980923D01*
X110901785Y-93980538D01*
X110913912Y-93940561D01*
X110914062Y-93940199D01*
X110933751Y-93903364D01*
X110933969Y-93903038D01*
X110960469Y-93870746D01*
X110960746Y-93870469D01*
X110993038Y-93843969D01*
X110993364Y-93843751D01*
X111030199Y-93824062D01*
X111030561Y-93823912D01*
X111070538Y-93811785D01*
X111070923Y-93811709D01*
X111118632Y-93807010D01*
X111118828Y-93807000D01*
X111201688Y-93807000D01*
X111203420Y-93808000D01*
G37*
G36*
X112981368Y-93807010D02*
G01*
X113029077Y-93811709D01*
X113029462Y-93811785D01*
X113069439Y-93823912D01*
X113069801Y-93824062D01*
X113106636Y-93843751D01*
X113106962Y-93843969D01*
X113139254Y-93870469D01*
X113139531Y-93870746D01*
X113166031Y-93903038D01*
X113166249Y-93903364D01*
X113185938Y-93940199D01*
X113186088Y-93940561D01*
X113198215Y-93980538D01*
X113198291Y-93980923D01*
X113202990Y-94028632D01*
X113203000Y-94028828D01*
X113203000Y-94111688D01*
X113202000Y-94113420D01*
X113200000Y-94113420D01*
X113199010Y-94111884D01*
X113193214Y-94053032D01*
X113176102Y-93996623D01*
X113148317Y-93944640D01*
X113110924Y-93899076D01*
X113065360Y-93861683D01*
X113013377Y-93833898D01*
X112956968Y-93816786D01*
X112898116Y-93810990D01*
X112896490Y-93809825D01*
X112896686Y-93807835D01*
X112898312Y-93807000D01*
X112981172Y-93807000D01*
X112981368Y-93807010D01*
G37*
G36*
X144692165Y-91016686D02*
G01*
X144693000Y-91018312D01*
X144693000Y-91101172D01*
X144692990Y-91101368D01*
X144688291Y-91149077D01*
X144688215Y-91149462D01*
X144676088Y-91189439D01*
X144675938Y-91189801D01*
X144656249Y-91226636D01*
X144656031Y-91226962D01*
X144629531Y-91259254D01*
X144629254Y-91259531D01*
X144596962Y-91286031D01*
X144596636Y-91286249D01*
X144559801Y-91305938D01*
X144559439Y-91306088D01*
X144519462Y-91318215D01*
X144519077Y-91318291D01*
X144471368Y-91322990D01*
X144471172Y-91323000D01*
X144388312Y-91323000D01*
X144386580Y-91322000D01*
X144386580Y-91320000D01*
X144388116Y-91319010D01*
X144446968Y-91313214D01*
X144503377Y-91296102D01*
X144555360Y-91268317D01*
X144600924Y-91230924D01*
X144638317Y-91185360D01*
X144666102Y-91133377D01*
X144683214Y-91076968D01*
X144689010Y-91018116D01*
X144690175Y-91016490D01*
X144692165Y-91016686D01*
G37*
G36*
X142590990Y-91018116D02*
G01*
X142596786Y-91076968D01*
X142613898Y-91133377D01*
X142641683Y-91185360D01*
X142679076Y-91230924D01*
X142724640Y-91268317D01*
X142776623Y-91296102D01*
X142833032Y-91313214D01*
X142891884Y-91319010D01*
X142893510Y-91320175D01*
X142893314Y-91322165D01*
X142891688Y-91323000D01*
X142808828Y-91323000D01*
X142808632Y-91322990D01*
X142760923Y-91318291D01*
X142760538Y-91318215D01*
X142720561Y-91306088D01*
X142720199Y-91305938D01*
X142683364Y-91286249D01*
X142683038Y-91286031D01*
X142650746Y-91259531D01*
X142650469Y-91259254D01*
X142623969Y-91226962D01*
X142623751Y-91226636D01*
X142604062Y-91189801D01*
X142603912Y-91189439D01*
X142591785Y-91149462D01*
X142591709Y-91149077D01*
X142587010Y-91101368D01*
X142587000Y-91101172D01*
X142587000Y-91018312D01*
X142588000Y-91016580D01*
X142590000Y-91016580D01*
X142590990Y-91018116D01*
G37*
G36*
X142893420Y-89018000D02*
G01*
X142893420Y-89020000D01*
X142891884Y-89020990D01*
X142833032Y-89026786D01*
X142776623Y-89043898D01*
X142724640Y-89071683D01*
X142679076Y-89109076D01*
X142641683Y-89154640D01*
X142613898Y-89206623D01*
X142596786Y-89263032D01*
X142590990Y-89321884D01*
X142589825Y-89323510D01*
X142587835Y-89323314D01*
X142587000Y-89321688D01*
X142587000Y-89238828D01*
X142587010Y-89238632D01*
X142591709Y-89190923D01*
X142591785Y-89190538D01*
X142603912Y-89150561D01*
X142604062Y-89150199D01*
X142623751Y-89113364D01*
X142623969Y-89113038D01*
X142650469Y-89080746D01*
X142650746Y-89080469D01*
X142683038Y-89053969D01*
X142683364Y-89053751D01*
X142720199Y-89034062D01*
X142720561Y-89033912D01*
X142760538Y-89021785D01*
X142760923Y-89021709D01*
X142808632Y-89017010D01*
X142808828Y-89017000D01*
X142891688Y-89017000D01*
X142893420Y-89018000D01*
G37*
G36*
X144471368Y-89017010D02*
G01*
X144519077Y-89021709D01*
X144519462Y-89021785D01*
X144559439Y-89033912D01*
X144559801Y-89034062D01*
X144596636Y-89053751D01*
X144596962Y-89053969D01*
X144629254Y-89080469D01*
X144629531Y-89080746D01*
X144656031Y-89113038D01*
X144656249Y-89113364D01*
X144675938Y-89150199D01*
X144676088Y-89150561D01*
X144688215Y-89190538D01*
X144688291Y-89190923D01*
X144692990Y-89238632D01*
X144693000Y-89238828D01*
X144693000Y-89321688D01*
X144692000Y-89323420D01*
X144690000Y-89323420D01*
X144689010Y-89321884D01*
X144683214Y-89263032D01*
X144666102Y-89206623D01*
X144638317Y-89154640D01*
X144600924Y-89109076D01*
X144555360Y-89071683D01*
X144503377Y-89043898D01*
X144446968Y-89026786D01*
X144388116Y-89020990D01*
X144386490Y-89019825D01*
X144386686Y-89017835D01*
X144388312Y-89017000D01*
X144471172Y-89017000D01*
X144471368Y-89017010D01*
G37*
G36*
X148650990Y-88848116D02*
G01*
X148656786Y-88906968D01*
X148673898Y-88963377D01*
X148701683Y-89015360D01*
X148739076Y-89060924D01*
X148784640Y-89098317D01*
X148836623Y-89126102D01*
X148893032Y-89143214D01*
X148951884Y-89149010D01*
X148953510Y-89150175D01*
X148953314Y-89152165D01*
X148951688Y-89153000D01*
X148868828Y-89153000D01*
X148868632Y-89152990D01*
X148820923Y-89148291D01*
X148820538Y-89148215D01*
X148780561Y-89136088D01*
X148780199Y-89135938D01*
X148743364Y-89116249D01*
X148743038Y-89116031D01*
X148710746Y-89089531D01*
X148710469Y-89089254D01*
X148683969Y-89056962D01*
X148683751Y-89056636D01*
X148664062Y-89019801D01*
X148663912Y-89019439D01*
X148651785Y-88979462D01*
X148651709Y-88979077D01*
X148647010Y-88931368D01*
X148647000Y-88931172D01*
X148647000Y-88848312D01*
X148648000Y-88846580D01*
X148650000Y-88846580D01*
X148650990Y-88848116D01*
G37*
G36*
X150952165Y-88846686D02*
G01*
X150953000Y-88848312D01*
X150953000Y-88931172D01*
X150952990Y-88931368D01*
X150948291Y-88979077D01*
X150948215Y-88979462D01*
X150936088Y-89019439D01*
X150935938Y-89019801D01*
X150916249Y-89056636D01*
X150916031Y-89056962D01*
X150889531Y-89089254D01*
X150889254Y-89089531D01*
X150856962Y-89116031D01*
X150856636Y-89116249D01*
X150819801Y-89135938D01*
X150819439Y-89136088D01*
X150779462Y-89148215D01*
X150779077Y-89148291D01*
X150731368Y-89152990D01*
X150731172Y-89153000D01*
X150648312Y-89153000D01*
X150646580Y-89152000D01*
X150646580Y-89150000D01*
X150648116Y-89149010D01*
X150706968Y-89143214D01*
X150763377Y-89126102D01*
X150815360Y-89098317D01*
X150860924Y-89060924D01*
X150898317Y-89015360D01*
X150926102Y-88963377D01*
X150943214Y-88906968D01*
X150949010Y-88848116D01*
X150950175Y-88846490D01*
X150952165Y-88846686D01*
G37*
G36*
X148953420Y-87048000D02*
G01*
X148953420Y-87050000D01*
X148951884Y-87050990D01*
X148893032Y-87056786D01*
X148836623Y-87073898D01*
X148784640Y-87101683D01*
X148739076Y-87139076D01*
X148701683Y-87184640D01*
X148673898Y-87236623D01*
X148656786Y-87293032D01*
X148650990Y-87351884D01*
X148649825Y-87353510D01*
X148647835Y-87353314D01*
X148647000Y-87351688D01*
X148647000Y-87268828D01*
X148647010Y-87268632D01*
X148651709Y-87220923D01*
X148651785Y-87220538D01*
X148663912Y-87180561D01*
X148664062Y-87180199D01*
X148683751Y-87143364D01*
X148683969Y-87143038D01*
X148710469Y-87110746D01*
X148710746Y-87110469D01*
X148743038Y-87083969D01*
X148743364Y-87083751D01*
X148780199Y-87064062D01*
X148780561Y-87063912D01*
X148820538Y-87051785D01*
X148820923Y-87051709D01*
X148868632Y-87047010D01*
X148868828Y-87047000D01*
X148951688Y-87047000D01*
X148953420Y-87048000D01*
G37*
G36*
X150731368Y-87047010D02*
G01*
X150779077Y-87051709D01*
X150779462Y-87051785D01*
X150819439Y-87063912D01*
X150819801Y-87064062D01*
X150856636Y-87083751D01*
X150856962Y-87083969D01*
X150889254Y-87110469D01*
X150889531Y-87110746D01*
X150916031Y-87143038D01*
X150916249Y-87143364D01*
X150935938Y-87180199D01*
X150936088Y-87180561D01*
X150948215Y-87220538D01*
X150948291Y-87220923D01*
X150952990Y-87268632D01*
X150953000Y-87268828D01*
X150953000Y-87351688D01*
X150952000Y-87353420D01*
X150950000Y-87353420D01*
X150949010Y-87351884D01*
X150943214Y-87293032D01*
X150926102Y-87236623D01*
X150898317Y-87184640D01*
X150860924Y-87139076D01*
X150815360Y-87101683D01*
X150763377Y-87073898D01*
X150706968Y-87056786D01*
X150648116Y-87050990D01*
X150646490Y-87049825D01*
X150646686Y-87047835D01*
X150648312Y-87047000D01*
X150731172Y-87047000D01*
X150731368Y-87047010D01*
G37*
G36*
X142540990Y-83848116D02*
G01*
X142546786Y-83906968D01*
X142563898Y-83963377D01*
X142591683Y-84015360D01*
X142629076Y-84060924D01*
X142674640Y-84098317D01*
X142726623Y-84126102D01*
X142783032Y-84143214D01*
X142841884Y-84149010D01*
X142843510Y-84150175D01*
X142843314Y-84152165D01*
X142841688Y-84153000D01*
X142758828Y-84153000D01*
X142758632Y-84152990D01*
X142710923Y-84148291D01*
X142710538Y-84148215D01*
X142670561Y-84136088D01*
X142670199Y-84135938D01*
X142633364Y-84116249D01*
X142633038Y-84116031D01*
X142600746Y-84089531D01*
X142600469Y-84089254D01*
X142573969Y-84056962D01*
X142573751Y-84056636D01*
X142554062Y-84019801D01*
X142553912Y-84019439D01*
X142541785Y-83979462D01*
X142541709Y-83979077D01*
X142537010Y-83931368D01*
X142537000Y-83931172D01*
X142537000Y-83848312D01*
X142538000Y-83846580D01*
X142540000Y-83846580D01*
X142540990Y-83848116D01*
G37*
G36*
X144642165Y-83846686D02*
G01*
X144643000Y-83848312D01*
X144643000Y-83931172D01*
X144642990Y-83931368D01*
X144638291Y-83979077D01*
X144638215Y-83979462D01*
X144626088Y-84019439D01*
X144625938Y-84019801D01*
X144606249Y-84056636D01*
X144606031Y-84056962D01*
X144579531Y-84089254D01*
X144579254Y-84089531D01*
X144546962Y-84116031D01*
X144546636Y-84116249D01*
X144509801Y-84135938D01*
X144509439Y-84136088D01*
X144469462Y-84148215D01*
X144469077Y-84148291D01*
X144421368Y-84152990D01*
X144421172Y-84153000D01*
X144338312Y-84153000D01*
X144336580Y-84152000D01*
X144336580Y-84150000D01*
X144338116Y-84149010D01*
X144396968Y-84143214D01*
X144453377Y-84126102D01*
X144505360Y-84098317D01*
X144550924Y-84060924D01*
X144588317Y-84015360D01*
X144616102Y-83963377D01*
X144633214Y-83906968D01*
X144639010Y-83848116D01*
X144640175Y-83846490D01*
X144642165Y-83846686D01*
G37*
G36*
X142843420Y-81848000D02*
G01*
X142843420Y-81850000D01*
X142841884Y-81850990D01*
X142783032Y-81856786D01*
X142726623Y-81873898D01*
X142674640Y-81901683D01*
X142629076Y-81939076D01*
X142591683Y-81984640D01*
X142563898Y-82036623D01*
X142546786Y-82093032D01*
X142540990Y-82151884D01*
X142539825Y-82153510D01*
X142537835Y-82153314D01*
X142537000Y-82151688D01*
X142537000Y-82068828D01*
X142537010Y-82068632D01*
X142541709Y-82020923D01*
X142541785Y-82020538D01*
X142553912Y-81980561D01*
X142554062Y-81980199D01*
X142573751Y-81943364D01*
X142573969Y-81943038D01*
X142600469Y-81910746D01*
X142600746Y-81910469D01*
X142633038Y-81883969D01*
X142633364Y-81883751D01*
X142670199Y-81864062D01*
X142670561Y-81863912D01*
X142710538Y-81851785D01*
X142710923Y-81851709D01*
X142758632Y-81847010D01*
X142758828Y-81847000D01*
X142841688Y-81847000D01*
X142843420Y-81848000D01*
G37*
G36*
X144421368Y-81847010D02*
G01*
X144469077Y-81851709D01*
X144469462Y-81851785D01*
X144509439Y-81863912D01*
X144509801Y-81864062D01*
X144546636Y-81883751D01*
X144546962Y-81883969D01*
X144579254Y-81910469D01*
X144579531Y-81910746D01*
X144606031Y-81943038D01*
X144606249Y-81943364D01*
X144625938Y-81980199D01*
X144626088Y-81980561D01*
X144638215Y-82020538D01*
X144638291Y-82020923D01*
X144642990Y-82068632D01*
X144643000Y-82068828D01*
X144643000Y-82151688D01*
X144642000Y-82153420D01*
X144640000Y-82153420D01*
X144639010Y-82151884D01*
X144633214Y-82093032D01*
X144616102Y-82036623D01*
X144588317Y-81984640D01*
X144550924Y-81939076D01*
X144505360Y-81901683D01*
X144453377Y-81873898D01*
X144396968Y-81856786D01*
X144338116Y-81850990D01*
X144336490Y-81849825D01*
X144336686Y-81847835D01*
X144338312Y-81847000D01*
X144421172Y-81847000D01*
X144421368Y-81847010D01*
G37*
G36*
X142450990Y-76598116D02*
G01*
X142456786Y-76656968D01*
X142473898Y-76713377D01*
X142501683Y-76765360D01*
X142539076Y-76810924D01*
X142584640Y-76848317D01*
X142636623Y-76876102D01*
X142693032Y-76893214D01*
X142751884Y-76899010D01*
X142753510Y-76900175D01*
X142753314Y-76902165D01*
X142751688Y-76903000D01*
X142668828Y-76903000D01*
X142668632Y-76902990D01*
X142620923Y-76898291D01*
X142620538Y-76898215D01*
X142580561Y-76886088D01*
X142580199Y-76885938D01*
X142543364Y-76866249D01*
X142543038Y-76866031D01*
X142510746Y-76839531D01*
X142510469Y-76839254D01*
X142483969Y-76806962D01*
X142483751Y-76806636D01*
X142464062Y-76769801D01*
X142463912Y-76769439D01*
X142451785Y-76729462D01*
X142451709Y-76729077D01*
X142447010Y-76681368D01*
X142447000Y-76681172D01*
X142447000Y-76598312D01*
X142448000Y-76596580D01*
X142450000Y-76596580D01*
X142450990Y-76598116D01*
G37*
G36*
X144552165Y-76596686D02*
G01*
X144553000Y-76598312D01*
X144553000Y-76681172D01*
X144552990Y-76681368D01*
X144548291Y-76729077D01*
X144548215Y-76729462D01*
X144536088Y-76769439D01*
X144535938Y-76769801D01*
X144516249Y-76806636D01*
X144516031Y-76806962D01*
X144489531Y-76839254D01*
X144489254Y-76839531D01*
X144456962Y-76866031D01*
X144456636Y-76866249D01*
X144419801Y-76885938D01*
X144419439Y-76886088D01*
X144379462Y-76898215D01*
X144379077Y-76898291D01*
X144331368Y-76902990D01*
X144331172Y-76903000D01*
X144248312Y-76903000D01*
X144246580Y-76902000D01*
X144246580Y-76900000D01*
X144248116Y-76899010D01*
X144306968Y-76893214D01*
X144363377Y-76876102D01*
X144415360Y-76848317D01*
X144460924Y-76810924D01*
X144498317Y-76765360D01*
X144526102Y-76713377D01*
X144543214Y-76656968D01*
X144549010Y-76598116D01*
X144550175Y-76596490D01*
X144552165Y-76596686D01*
G37*
G36*
X142753420Y-74598000D02*
G01*
X142753420Y-74600000D01*
X142751884Y-74600990D01*
X142693032Y-74606786D01*
X142636623Y-74623898D01*
X142584640Y-74651683D01*
X142539076Y-74689076D01*
X142501683Y-74734640D01*
X142473898Y-74786623D01*
X142456786Y-74843032D01*
X142450990Y-74901884D01*
X142449825Y-74903510D01*
X142447835Y-74903314D01*
X142447000Y-74901688D01*
X142447000Y-74818828D01*
X142447010Y-74818632D01*
X142451709Y-74770923D01*
X142451785Y-74770538D01*
X142463912Y-74730561D01*
X142464062Y-74730199D01*
X142483751Y-74693364D01*
X142483969Y-74693038D01*
X142510469Y-74660746D01*
X142510746Y-74660469D01*
X142543038Y-74633969D01*
X142543364Y-74633751D01*
X142580199Y-74614062D01*
X142580561Y-74613912D01*
X142620538Y-74601785D01*
X142620923Y-74601709D01*
X142668632Y-74597010D01*
X142668828Y-74597000D01*
X142751688Y-74597000D01*
X142753420Y-74598000D01*
G37*
G36*
X144331368Y-74597010D02*
G01*
X144379077Y-74601709D01*
X144379462Y-74601785D01*
X144419439Y-74613912D01*
X144419801Y-74614062D01*
X144456636Y-74633751D01*
X144456962Y-74633969D01*
X144489254Y-74660469D01*
X144489531Y-74660746D01*
X144516031Y-74693038D01*
X144516249Y-74693364D01*
X144535938Y-74730199D01*
X144536088Y-74730561D01*
X144548215Y-74770538D01*
X144548291Y-74770923D01*
X144552990Y-74818632D01*
X144553000Y-74818828D01*
X144553000Y-74901688D01*
X144552000Y-74903420D01*
X144550000Y-74903420D01*
X144549010Y-74901884D01*
X144543214Y-74843032D01*
X144526102Y-74786623D01*
X144498317Y-74734640D01*
X144460924Y-74689076D01*
X144415360Y-74651683D01*
X144363377Y-74623898D01*
X144306968Y-74606786D01*
X144248116Y-74600990D01*
X144246490Y-74599825D01*
X144246686Y-74597835D01*
X144248312Y-74597000D01*
X144331172Y-74597000D01*
X144331368Y-74597010D01*
G37*
G36*
X144250990Y-69178116D02*
G01*
X144256786Y-69236968D01*
X144273898Y-69293377D01*
X144301683Y-69345360D01*
X144339076Y-69390924D01*
X144384640Y-69428317D01*
X144436623Y-69456102D01*
X144493032Y-69473214D01*
X144551884Y-69479010D01*
X144553510Y-69480175D01*
X144553314Y-69482165D01*
X144551688Y-69483000D01*
X144468828Y-69483000D01*
X144468632Y-69482990D01*
X144420923Y-69478291D01*
X144420538Y-69478215D01*
X144380561Y-69466088D01*
X144380199Y-69465938D01*
X144343364Y-69446249D01*
X144343038Y-69446031D01*
X144310746Y-69419531D01*
X144310469Y-69419254D01*
X144283969Y-69386962D01*
X144283751Y-69386636D01*
X144264062Y-69349801D01*
X144263912Y-69349439D01*
X144251785Y-69309462D01*
X144251709Y-69309077D01*
X144247010Y-69261368D01*
X144247000Y-69261172D01*
X144247000Y-69178312D01*
X144248000Y-69176580D01*
X144250000Y-69176580D01*
X144250990Y-69178116D01*
G37*
G36*
X146352165Y-69176686D02*
G01*
X146353000Y-69178312D01*
X146353000Y-69261172D01*
X146352990Y-69261368D01*
X146348291Y-69309077D01*
X146348215Y-69309462D01*
X146336088Y-69349439D01*
X146335938Y-69349801D01*
X146316249Y-69386636D01*
X146316031Y-69386962D01*
X146289531Y-69419254D01*
X146289254Y-69419531D01*
X146256962Y-69446031D01*
X146256636Y-69446249D01*
X146219801Y-69465938D01*
X146219439Y-69466088D01*
X146179462Y-69478215D01*
X146179077Y-69478291D01*
X146131368Y-69482990D01*
X146131172Y-69483000D01*
X146048312Y-69483000D01*
X146046580Y-69482000D01*
X146046580Y-69480000D01*
X146048116Y-69479010D01*
X146106968Y-69473214D01*
X146163377Y-69456102D01*
X146215360Y-69428317D01*
X146260924Y-69390924D01*
X146298317Y-69345360D01*
X146326102Y-69293377D01*
X146343214Y-69236968D01*
X146349010Y-69178116D01*
X146350175Y-69176490D01*
X146352165Y-69176686D01*
G37*
G36*
X150940990Y-68528116D02*
G01*
X150946786Y-68586968D01*
X150963898Y-68643377D01*
X150991683Y-68695360D01*
X151029076Y-68740924D01*
X151074640Y-68778317D01*
X151126623Y-68806102D01*
X151183032Y-68823214D01*
X151241884Y-68829010D01*
X151243510Y-68830175D01*
X151243314Y-68832165D01*
X151241688Y-68833000D01*
X151158828Y-68833000D01*
X151158632Y-68832990D01*
X151110923Y-68828291D01*
X151110538Y-68828215D01*
X151070561Y-68816088D01*
X151070199Y-68815938D01*
X151033364Y-68796249D01*
X151033038Y-68796031D01*
X151000746Y-68769531D01*
X151000469Y-68769254D01*
X150973969Y-68736962D01*
X150973751Y-68736636D01*
X150954062Y-68699801D01*
X150953912Y-68699439D01*
X150941785Y-68659462D01*
X150941709Y-68659077D01*
X150937010Y-68611368D01*
X150937000Y-68611172D01*
X150937000Y-68528312D01*
X150938000Y-68526580D01*
X150940000Y-68526580D01*
X150940990Y-68528116D01*
G37*
G36*
X153242165Y-68526686D02*
G01*
X153243000Y-68528312D01*
X153243000Y-68611172D01*
X153242990Y-68611368D01*
X153238291Y-68659077D01*
X153238215Y-68659462D01*
X153226088Y-68699439D01*
X153225938Y-68699801D01*
X153206249Y-68736636D01*
X153206031Y-68736962D01*
X153179531Y-68769254D01*
X153179254Y-68769531D01*
X153146962Y-68796031D01*
X153146636Y-68796249D01*
X153109801Y-68815938D01*
X153109439Y-68816088D01*
X153069462Y-68828215D01*
X153069077Y-68828291D01*
X153021368Y-68832990D01*
X153021172Y-68833000D01*
X152938312Y-68833000D01*
X152936580Y-68832000D01*
X152936580Y-68830000D01*
X152938116Y-68829010D01*
X152996968Y-68823214D01*
X153053377Y-68806102D01*
X153105360Y-68778317D01*
X153150924Y-68740924D01*
X153188317Y-68695360D01*
X153216102Y-68643377D01*
X153233214Y-68586968D01*
X153239010Y-68528116D01*
X153240175Y-68526490D01*
X153242165Y-68526686D01*
G37*
G36*
X144553420Y-67178000D02*
G01*
X144553420Y-67180000D01*
X144551884Y-67180990D01*
X144493032Y-67186786D01*
X144436623Y-67203898D01*
X144384640Y-67231683D01*
X144339076Y-67269076D01*
X144301683Y-67314640D01*
X144273898Y-67366623D01*
X144256786Y-67423032D01*
X144250990Y-67481884D01*
X144249825Y-67483510D01*
X144247835Y-67483314D01*
X144247000Y-67481688D01*
X144247000Y-67398828D01*
X144247010Y-67398632D01*
X144251709Y-67350923D01*
X144251785Y-67350538D01*
X144263912Y-67310561D01*
X144264062Y-67310199D01*
X144283751Y-67273364D01*
X144283969Y-67273038D01*
X144310469Y-67240746D01*
X144310746Y-67240469D01*
X144343038Y-67213969D01*
X144343364Y-67213751D01*
X144380199Y-67194062D01*
X144380561Y-67193912D01*
X144420538Y-67181785D01*
X144420923Y-67181709D01*
X144468632Y-67177010D01*
X144468828Y-67177000D01*
X144551688Y-67177000D01*
X144553420Y-67178000D01*
G37*
G36*
X146131368Y-67177010D02*
G01*
X146179077Y-67181709D01*
X146179462Y-67181785D01*
X146219439Y-67193912D01*
X146219801Y-67194062D01*
X146256636Y-67213751D01*
X146256962Y-67213969D01*
X146289254Y-67240469D01*
X146289531Y-67240746D01*
X146316031Y-67273038D01*
X146316249Y-67273364D01*
X146335938Y-67310199D01*
X146336088Y-67310561D01*
X146348215Y-67350538D01*
X146348291Y-67350923D01*
X146352990Y-67398632D01*
X146353000Y-67398828D01*
X146353000Y-67481688D01*
X146352000Y-67483420D01*
X146350000Y-67483420D01*
X146349010Y-67481884D01*
X146343214Y-67423032D01*
X146326102Y-67366623D01*
X146298317Y-67314640D01*
X146260924Y-67269076D01*
X146215360Y-67231683D01*
X146163377Y-67203898D01*
X146106968Y-67186786D01*
X146048116Y-67180990D01*
X146046490Y-67179825D01*
X146046686Y-67177835D01*
X146048312Y-67177000D01*
X146131172Y-67177000D01*
X146131368Y-67177010D01*
G37*
G36*
X151243420Y-66728000D02*
G01*
X151243420Y-66730000D01*
X151241884Y-66730990D01*
X151183032Y-66736786D01*
X151126623Y-66753898D01*
X151074640Y-66781683D01*
X151029076Y-66819076D01*
X150991683Y-66864640D01*
X150963898Y-66916623D01*
X150946786Y-66973032D01*
X150940990Y-67031884D01*
X150939825Y-67033510D01*
X150937835Y-67033314D01*
X150937000Y-67031688D01*
X150937000Y-66948828D01*
X150937010Y-66948632D01*
X150941709Y-66900923D01*
X150941785Y-66900538D01*
X150953912Y-66860561D01*
X150954062Y-66860199D01*
X150973751Y-66823364D01*
X150973969Y-66823038D01*
X151000469Y-66790746D01*
X151000746Y-66790469D01*
X151033038Y-66763969D01*
X151033364Y-66763751D01*
X151070199Y-66744062D01*
X151070561Y-66743912D01*
X151110538Y-66731785D01*
X151110923Y-66731709D01*
X151158632Y-66727010D01*
X151158828Y-66727000D01*
X151241688Y-66727000D01*
X151243420Y-66728000D01*
G37*
G36*
X153021368Y-66727010D02*
G01*
X153069077Y-66731709D01*
X153069462Y-66731785D01*
X153109439Y-66743912D01*
X153109801Y-66744062D01*
X153146636Y-66763751D01*
X153146962Y-66763969D01*
X153179254Y-66790469D01*
X153179531Y-66790746D01*
X153206031Y-66823038D01*
X153206249Y-66823364D01*
X153225938Y-66860199D01*
X153226088Y-66860561D01*
X153238215Y-66900538D01*
X153238291Y-66900923D01*
X153242990Y-66948632D01*
X153243000Y-66948828D01*
X153243000Y-67031688D01*
X153242000Y-67033420D01*
X153240000Y-67033420D01*
X153239010Y-67031884D01*
X153233214Y-66973032D01*
X153216102Y-66916623D01*
X153188317Y-66864640D01*
X153150924Y-66819076D01*
X153105360Y-66781683D01*
X153053377Y-66753898D01*
X152996968Y-66736786D01*
X152938116Y-66730990D01*
X152936490Y-66729825D01*
X152936686Y-66727835D01*
X152938312Y-66727000D01*
X153021172Y-66727000D01*
X153021368Y-66727010D01*
G37*
G36*
X112402165Y-62246686D02*
G01*
X112403000Y-62248312D01*
X112403000Y-62331172D01*
X112402990Y-62331368D01*
X112398291Y-62379077D01*
X112398215Y-62379462D01*
X112386088Y-62419439D01*
X112385938Y-62419801D01*
X112366249Y-62456636D01*
X112366031Y-62456962D01*
X112339531Y-62489254D01*
X112339254Y-62489531D01*
X112306962Y-62516031D01*
X112306636Y-62516249D01*
X112269801Y-62535938D01*
X112269439Y-62536088D01*
X112229462Y-62548215D01*
X112229077Y-62548291D01*
X112181368Y-62552990D01*
X112181172Y-62553000D01*
X112098312Y-62553000D01*
X112096580Y-62552000D01*
X112096580Y-62550000D01*
X112098116Y-62549010D01*
X112156968Y-62543214D01*
X112213377Y-62526102D01*
X112265360Y-62498317D01*
X112310924Y-62460924D01*
X112348317Y-62415360D01*
X112376102Y-62363377D01*
X112393214Y-62306968D01*
X112399010Y-62248116D01*
X112400175Y-62246490D01*
X112402165Y-62246686D01*
G37*
G36*
X110100990Y-62248116D02*
G01*
X110106786Y-62306968D01*
X110123898Y-62363377D01*
X110151683Y-62415360D01*
X110189076Y-62460924D01*
X110234640Y-62498317D01*
X110286623Y-62526102D01*
X110343032Y-62543214D01*
X110401884Y-62549010D01*
X110403510Y-62550175D01*
X110403314Y-62552165D01*
X110401688Y-62553000D01*
X110318828Y-62553000D01*
X110318632Y-62552990D01*
X110270923Y-62548291D01*
X110270538Y-62548215D01*
X110230561Y-62536088D01*
X110230199Y-62535938D01*
X110193364Y-62516249D01*
X110193038Y-62516031D01*
X110160746Y-62489531D01*
X110160469Y-62489254D01*
X110133969Y-62456962D01*
X110133751Y-62456636D01*
X110114062Y-62419801D01*
X110113912Y-62419439D01*
X110101785Y-62379462D01*
X110101709Y-62379077D01*
X110097010Y-62331368D01*
X110097000Y-62331172D01*
X110097000Y-62248312D01*
X110098000Y-62246580D01*
X110100000Y-62246580D01*
X110100990Y-62248116D01*
G37*
G36*
X145922165Y-60936686D02*
G01*
X145923000Y-60938312D01*
X145923000Y-61021172D01*
X145922990Y-61021368D01*
X145918291Y-61069077D01*
X145918215Y-61069462D01*
X145906088Y-61109439D01*
X145905938Y-61109801D01*
X145886249Y-61146636D01*
X145886031Y-61146962D01*
X145859531Y-61179254D01*
X145859254Y-61179531D01*
X145826962Y-61206031D01*
X145826636Y-61206249D01*
X145789801Y-61225938D01*
X145789439Y-61226088D01*
X145749462Y-61238215D01*
X145749077Y-61238291D01*
X145701368Y-61242990D01*
X145701172Y-61243000D01*
X145618312Y-61243000D01*
X145616580Y-61242000D01*
X145616580Y-61240000D01*
X145618116Y-61239010D01*
X145676968Y-61233214D01*
X145733377Y-61216102D01*
X145785360Y-61188317D01*
X145830924Y-61150924D01*
X145868317Y-61105360D01*
X145896102Y-61053377D01*
X145913214Y-60996968D01*
X145919010Y-60938116D01*
X145920175Y-60936490D01*
X145922165Y-60936686D01*
G37*
G36*
X143820990Y-60938116D02*
G01*
X143826786Y-60996968D01*
X143843898Y-61053377D01*
X143871683Y-61105360D01*
X143909076Y-61150924D01*
X143954640Y-61188317D01*
X144006623Y-61216102D01*
X144063032Y-61233214D01*
X144121884Y-61239010D01*
X144123510Y-61240175D01*
X144123314Y-61242165D01*
X144121688Y-61243000D01*
X144038828Y-61243000D01*
X144038632Y-61242990D01*
X143990923Y-61238291D01*
X143990538Y-61238215D01*
X143950561Y-61226088D01*
X143950199Y-61225938D01*
X143913364Y-61206249D01*
X143913038Y-61206031D01*
X143880746Y-61179531D01*
X143880469Y-61179254D01*
X143853969Y-61146962D01*
X143853751Y-61146636D01*
X143834062Y-61109801D01*
X143833912Y-61109439D01*
X143821785Y-61069462D01*
X143821709Y-61069077D01*
X143817010Y-61021368D01*
X143817000Y-61021172D01*
X143817000Y-60938312D01*
X143818000Y-60936580D01*
X143820000Y-60936580D01*
X143820990Y-60938116D01*
G37*
G36*
X110403420Y-60448000D02*
G01*
X110403420Y-60450000D01*
X110401884Y-60450990D01*
X110343032Y-60456786D01*
X110286623Y-60473898D01*
X110234640Y-60501683D01*
X110189076Y-60539076D01*
X110151683Y-60584640D01*
X110123898Y-60636623D01*
X110106786Y-60693032D01*
X110100990Y-60751884D01*
X110099825Y-60753510D01*
X110097835Y-60753314D01*
X110097000Y-60751688D01*
X110097000Y-60668828D01*
X110097010Y-60668632D01*
X110101709Y-60620923D01*
X110101785Y-60620538D01*
X110113912Y-60580561D01*
X110114062Y-60580199D01*
X110133751Y-60543364D01*
X110133969Y-60543038D01*
X110160469Y-60510746D01*
X110160746Y-60510469D01*
X110193038Y-60483969D01*
X110193364Y-60483751D01*
X110230199Y-60464062D01*
X110230561Y-60463912D01*
X110270538Y-60451785D01*
X110270923Y-60451709D01*
X110318632Y-60447010D01*
X110318828Y-60447000D01*
X110401688Y-60447000D01*
X110403420Y-60448000D01*
G37*
G36*
X112181368Y-60447010D02*
G01*
X112229077Y-60451709D01*
X112229462Y-60451785D01*
X112269439Y-60463912D01*
X112269801Y-60464062D01*
X112306636Y-60483751D01*
X112306962Y-60483969D01*
X112339254Y-60510469D01*
X112339531Y-60510746D01*
X112366031Y-60543038D01*
X112366249Y-60543364D01*
X112385938Y-60580199D01*
X112386088Y-60580561D01*
X112398215Y-60620538D01*
X112398291Y-60620923D01*
X112402990Y-60668632D01*
X112403000Y-60668828D01*
X112403000Y-60751688D01*
X112402000Y-60753420D01*
X112400000Y-60753420D01*
X112399010Y-60751884D01*
X112393214Y-60693032D01*
X112376102Y-60636623D01*
X112348317Y-60584640D01*
X112310924Y-60539076D01*
X112265360Y-60501683D01*
X112213377Y-60473898D01*
X112156968Y-60456786D01*
X112098116Y-60450990D01*
X112096490Y-60449825D01*
X112096686Y-60447835D01*
X112098312Y-60447000D01*
X112181172Y-60447000D01*
X112181368Y-60447010D01*
G37*
G36*
X144123420Y-58938000D02*
G01*
X144123420Y-58940000D01*
X144121884Y-58940990D01*
X144063032Y-58946786D01*
X144006623Y-58963898D01*
X143954640Y-58991683D01*
X143909076Y-59029076D01*
X143871683Y-59074640D01*
X143843898Y-59126623D01*
X143826786Y-59183032D01*
X143820990Y-59241884D01*
X143819825Y-59243510D01*
X143817835Y-59243314D01*
X143817000Y-59241688D01*
X143817000Y-59158828D01*
X143817010Y-59158632D01*
X143821709Y-59110923D01*
X143821785Y-59110538D01*
X143833912Y-59070561D01*
X143834062Y-59070199D01*
X143853751Y-59033364D01*
X143853969Y-59033038D01*
X143880469Y-59000746D01*
X143880746Y-59000469D01*
X143913038Y-58973969D01*
X143913364Y-58973751D01*
X143950199Y-58954062D01*
X143950561Y-58953912D01*
X143990538Y-58941785D01*
X143990923Y-58941709D01*
X144038632Y-58937010D01*
X144038828Y-58937000D01*
X144121688Y-58937000D01*
X144123420Y-58938000D01*
G37*
G36*
X145701368Y-58937010D02*
G01*
X145749077Y-58941709D01*
X145749462Y-58941785D01*
X145789439Y-58953912D01*
X145789801Y-58954062D01*
X145826636Y-58973751D01*
X145826962Y-58973969D01*
X145859254Y-59000469D01*
X145859531Y-59000746D01*
X145886031Y-59033038D01*
X145886249Y-59033364D01*
X145905938Y-59070199D01*
X145906088Y-59070561D01*
X145918215Y-59110538D01*
X145918291Y-59110923D01*
X145922990Y-59158632D01*
X145923000Y-59158828D01*
X145923000Y-59241688D01*
X145922000Y-59243420D01*
X145920000Y-59243420D01*
X145919010Y-59241884D01*
X145913214Y-59183032D01*
X145896102Y-59126623D01*
X145868317Y-59074640D01*
X145830924Y-59029076D01*
X145785360Y-58991683D01*
X145733377Y-58963898D01*
X145676968Y-58946786D01*
X145618116Y-58940990D01*
X145616490Y-58939825D01*
X145616686Y-58937835D01*
X145618312Y-58937000D01*
X145701172Y-58937000D01*
X145701368Y-58937010D01*
G37*
G36*
X139709165Y-55356686D02*
G01*
X139710000Y-55358312D01*
X139710000Y-55441172D01*
X139709990Y-55441368D01*
X139705291Y-55489077D01*
X139705215Y-55489462D01*
X139693088Y-55529439D01*
X139692938Y-55529801D01*
X139673249Y-55566636D01*
X139673031Y-55566962D01*
X139646531Y-55599254D01*
X139646254Y-55599531D01*
X139613962Y-55626031D01*
X139613636Y-55626249D01*
X139576801Y-55645938D01*
X139576439Y-55646088D01*
X139536462Y-55658215D01*
X139536077Y-55658291D01*
X139488368Y-55662990D01*
X139488172Y-55663000D01*
X139405312Y-55663000D01*
X139403580Y-55662000D01*
X139403580Y-55660000D01*
X139405116Y-55659010D01*
X139463968Y-55653214D01*
X139520377Y-55636102D01*
X139572360Y-55608317D01*
X139617924Y-55570924D01*
X139655317Y-55525360D01*
X139683102Y-55473377D01*
X139700214Y-55416968D01*
X139706010Y-55358116D01*
X139707175Y-55356490D01*
X139709165Y-55356686D01*
G37*
G36*
X137407990Y-55358116D02*
G01*
X137413786Y-55416968D01*
X137430898Y-55473377D01*
X137458683Y-55525360D01*
X137496076Y-55570924D01*
X137541640Y-55608317D01*
X137593623Y-55636102D01*
X137650032Y-55653214D01*
X137708884Y-55659010D01*
X137710510Y-55660175D01*
X137710314Y-55662165D01*
X137708688Y-55663000D01*
X137625828Y-55663000D01*
X137625632Y-55662990D01*
X137577923Y-55658291D01*
X137577538Y-55658215D01*
X137537561Y-55646088D01*
X137537199Y-55645938D01*
X137500364Y-55626249D01*
X137500038Y-55626031D01*
X137467746Y-55599531D01*
X137467469Y-55599254D01*
X137440969Y-55566962D01*
X137440751Y-55566636D01*
X137421062Y-55529801D01*
X137420912Y-55529439D01*
X137408785Y-55489462D01*
X137408709Y-55489077D01*
X137404010Y-55441368D01*
X137404000Y-55441172D01*
X137404000Y-55358312D01*
X137405000Y-55356580D01*
X137407000Y-55356580D01*
X137407990Y-55358116D01*
G37*
G36*
X137710420Y-53558000D02*
G01*
X137710420Y-53560000D01*
X137708884Y-53560990D01*
X137650032Y-53566786D01*
X137593623Y-53583898D01*
X137541640Y-53611683D01*
X137496076Y-53649076D01*
X137458683Y-53694640D01*
X137430898Y-53746623D01*
X137413786Y-53803032D01*
X137407990Y-53861884D01*
X137406825Y-53863510D01*
X137404835Y-53863314D01*
X137404000Y-53861688D01*
X137404000Y-53778828D01*
X137404010Y-53778632D01*
X137408709Y-53730923D01*
X137408785Y-53730538D01*
X137420912Y-53690561D01*
X137421062Y-53690199D01*
X137440751Y-53653364D01*
X137440969Y-53653038D01*
X137467469Y-53620746D01*
X137467746Y-53620469D01*
X137500038Y-53593969D01*
X137500364Y-53593751D01*
X137537199Y-53574062D01*
X137537561Y-53573912D01*
X137577538Y-53561785D01*
X137577923Y-53561709D01*
X137625632Y-53557010D01*
X137625828Y-53557000D01*
X137708688Y-53557000D01*
X137710420Y-53558000D01*
G37*
G36*
X139488368Y-53557010D02*
G01*
X139536077Y-53561709D01*
X139536462Y-53561785D01*
X139576439Y-53573912D01*
X139576801Y-53574062D01*
X139613636Y-53593751D01*
X139613962Y-53593969D01*
X139646254Y-53620469D01*
X139646531Y-53620746D01*
X139673031Y-53653038D01*
X139673249Y-53653364D01*
X139692938Y-53690199D01*
X139693088Y-53690561D01*
X139705215Y-53730538D01*
X139705291Y-53730923D01*
X139709990Y-53778632D01*
X139710000Y-53778828D01*
X139710000Y-53861688D01*
X139709000Y-53863420D01*
X139707000Y-53863420D01*
X139706010Y-53861884D01*
X139700214Y-53803032D01*
X139683102Y-53746623D01*
X139655317Y-53694640D01*
X139617924Y-53649076D01*
X139572360Y-53611683D01*
X139520377Y-53583898D01*
X139463968Y-53566786D01*
X139405116Y-53560990D01*
X139403490Y-53559825D01*
X139403686Y-53557835D01*
X139405312Y-53557000D01*
X139488172Y-53557000D01*
X139488368Y-53557010D01*
G37*
M02*
