(module "Vishay W08G Diode Bridge" (layer F.Cu) (tedit 5D136DE9)
  (fp_text reference REF** (at 3.25 -8) (layer F.SilkS)
    (effects (font (size 1 1) (thickness 0.15)))
  )
  (fp_text value "Vishay W08G Diode Bridge" (at 2 -9.5) (layer F.Fab)
    (effects (font (size 1 1) (thickness 0.15)))
  )
  (fp_circle (center 2.5 -2.5) (end 6 0.25) (layer F.SilkS) (width 0.2))
  (fp_circle (center 2.5 -2.5) (end 6 0.25) (layer F.Fab) (width 0.2))
  (pad 1 thru_hole oval (at 0 -5) (size 2 1.524) (drill 0.762) (layers *.Cu *.Mask))
  (pad 2 thru_hole oval (at 5 -5) (size 2 1.524) (drill 0.762) (layers *.Cu *.Mask))
  (pad 3 thru_hole oval (at 0 0) (size 2 1.524) (drill 0.762) (layers *.Cu *.Mask))
  (pad 4 thru_hole oval (at 5 0) (size 2 1.524) (drill 0.762) (layers *.Cu *.Mask))
)
