PCBNEW-LibModule-V1  2019-04-15 10:41:41
# encoding utf-8
Units mm
$INDEX
PEC12R2225FS0024
$EndINDEX
$MODULE PEC12R2225FS0024
Po 0 0 0 15 5cb451d5 00000000 ~~
Li PEC12R2225FS0024
Cd PEC12R-2225F-S0024
Kw Undefined or Miscellaneous
Sc 0
At STD
AR 
Op 0 0 0
T0 2.500 10 1.27 1.27 0 0.254 N V 21 N "U**"
T1 2.500 10 1.27 1.27 0 0.254 N I 21 N "PEC12R2225FS0024"
DS -3.75 -3.4 8.75 -3.4 0.2 24
DS 8.75 -3.4 8.75 5 0.2 24
DS 8.75 5 -3.75 5 0.2 24
DS -3.75 5 -3.75 -3.4 0.2 24
DS -7.337 -5 12.337 -5 0.1 24
DS 12.337 -5 12.337 25 0.1 24
DS 12.337 25 -7.337 25 0.1 24
DS -7.337 25 -7.337 -5 0.1 24
DS -0.5 5 -0.5 22.5 0.2 24
DS -0.5 22.5 5.5 22.5 0.2 24
DS 5.5 22.5 5.5 5 0.2 24
DS -3.75 2.5 -3.75 5 0.1 21
DS -3.75 5 8.75 5 0.1 21
DS 8.75 5 8.75 2.6 0.1 21
DS -2.5 -3.4 7.5 -3.4 0.1 21
DS -0.1 -3.9 -0.1 -3.9 0.2 21
DS 0.1 -3.9 0.1 -3.9 0.2 21
DA 8.3266726846887E-17 -3.9 -0.100 -3.9 -1800 0.2 21
DA 8.3266726846887E-17 -3.9 0.100 -3.9 -1800 0.2 21
$PAD
Po 0.000 -0
Sh "1" C 1.650 1.650 0 0 900
Dr 1.1 0 0
At STD N 00E0FFFF
Ne 0 ""
$EndPAD
$PAD
Po 5.000 -0
Sh "2" C 1.650 1.650 0 0 900
Dr 1.1 0 0
At STD N 00E0FFFF
Ne 0 ""
$EndPAD
$PAD
Po 0.000 2.5
Sh "A1" C 1.650 1.650 0 0 900
Dr 1.1 0 0
At STD N 00E0FFFF
Ne 0 ""
$EndPAD
$PAD
Po 5.000 2.5
Sh "B1" C 1.650 1.650 0 0 900
Dr 1.1 0 0
At STD N 00E0FFFF
Ne 0 ""
$EndPAD
$PAD
Po 2.500 2.5
Sh "C1" C 1.650 1.650 0 0 900
Dr 1.1 0 0
At STD N 00E0FFFF
Ne 0 ""
$EndPAD
$PAD
Po -3.950 -1
Sh "MH1" C 4.774 4.774 0 0 900
Dr 3.1828 0 0
At STD N 00E0FFFF
Ne 0 ""
$EndPAD
$PAD
Po 8.950 -1
Sh "MH2" C 4.774 4.774 0 0 900
Dr 3.1828 0 0
At STD N 00E0FFFF
Ne 0 ""
$EndPAD
$EndMODULE PEC12R2225FS0024
$EndLIBRARY
